Open Price;Max Daily;Min Daily;Close Price;vol;Adj Close;Returns;daily_3categ_return;open_price_change;high_price_change;low_price_change;close_price_change;daily_price_percent_change;high-low;adj.close-close;adj.close(t-1)-open(t);vol_percent_change;returns_m.a._3days;returns_m.a._7days;returns_m.a._30days;days_to-next-dividend;Dividends;Y
1;1;1;1;1;1;3;5;1;1;1;1;3;1;5;5;1;4;4;4;2;5;Down
1;1;1;1;1;1;4;5;1;1;1;1;3;1;5;5;1;4;4;4;3;5;Down
1;1;1;1;1;1;4;5;1;1;1;1;4;1;5;5;1;4;4;4;3;5;Down
1;1;1;1;1;1;4;5;1;1;1;1;3;1;5;5;2;4;4;4;3;5;Up
1;1;1;1;1;1;4;5;1;1;1;1;3;1;5;5;1;4;4;4;3;5;Down
1;1;1;1;1;1;4;5;1;1;1;1;3;1;5;5;1;5;4;4;3;5;Down
1;1;1;1;1;1;5;5;1;1;1;1;4;2;5;5;1;4;4;4;3;5;Up
1;1;1;1;1;1;4;5;1;1;1;1;3;1;5;5;1;3;3;4;3;5;Up
1;1;1;1;2;1;3;5;1;1;1;1;3;2;5;5;3;3;3;4;3;5;Up
1;1;1;1;1;1;3;5;1;1;1;1;2;3;5;5;1;4;3;4;3;5;Down
1;1;1;1;1;1;4;5;1;1;1;1;3;1;5;5;1;5;3;5;3;5;Down
1;1;1;1;1;1;4;5;1;1;1;1;3;1;5;5;1;4;3;5;3;5;Up
1;1;1;1;1;1;4;5;1;1;1;1;4;2;5;5;1;4;3;4;3;5;Up
1;1;1;1;1;1;3;5;1;1;1;1;3;1;5;5;1;3;3;4;3;5;Up
1;1;1;1;1;1;4;5;1;1;1;1;3;2;5;5;1;3;3;4;4;5;Down
1;1;1;1;1;1;3;5;1;1;1;1;3;3;5;5;1;3;3;4;4;5;Up
1;1;1;1;1;1;3;5;1;1;1;1;3;1;5;5;1;4;4;4;4;5;Down
1;1;1;1;1;1;3;5;1;1;1;1;3;1;5;5;1;4;4;4;4;5;Down
1;1;1;1;1;1;4;5;1;1;1;1;4;2;5;5;1;4;4;4;4;5;Down
1;1;1;1;2;1;3;5;1;1;1;1;3;2;5;5;2;4;4;4;4;5;Up
1;1;1;1;1;1;3;5;1;1;1;1;3;1;5;5;1;4;4;4;4;5;Down
1;1;1;1;1;1;4;5;1;1;1;1;4;1;5;5;1;4;5;4;4;5;Down
1;1;1;1;1;1;4;5;1;1;1;1;4;1;5;5;3;4;5;4;4;5;Up
1;1;1;1;1;1;4;5;1;1;1;1;3;1;5;5;1;4;4;4;4;5;Up
1;1;1;1;1;1;4;5;1;1;1;1;3;1;5;5;1;4;5;4;4;5;Up
1;1;1;1;1;1;4;5;1;1;1;1;4;2;5;5;1;4;5;4;4;5;Down
1;1;1;1;1;1;4;5;1;1;1;1;3;1;5;5;1;4;4;4;4;5;Up
1;1;1;1;1;1;4;5;1;1;1;1;4;1;5;5;1;5;4;4;5;5;Down
1;1;1;1;1;1;4;5;1;1;1;1;4;1;5;5;1;4;4;4;5;5;Up
1;1;1;1;1;1;4;5;1;1;1;1;4;1;5;5;2;5;3;3;5;5;Up
1;1;1;1;1;1;4;5;1;1;1;1;3;1;5;5;1;4;3;3;5;5;Up
1;1;1;1;1;1;4;5;1;1;1;1;4;2;5;5;1;4;3;3;5;5;Up
1;1;1;1;1;1;3;5;1;1;1;1;3;1;5;5;1;3;2;2;5;5;Up
1;1;1;1;1;1;3;5;1;1;1;1;2;1;5;5;2;3;3;3;5;5;Down
1;1;1;1;1;1;4;5;1;1;1;1;3;1;5;5;1;3;3;3;5;5;Down
1;1;1;1;1;1;4;5;1;1;1;1;3;1;5;5;1;3;3;3;5;5;Down
1;1;1;1;2;1;3;5;1;1;1;1;2;3;5;5;2;3;3;2;5;5;Up
1;1;1;1;1;1;4;5;1;1;1;1;3;1;5;5;1;3;4;3;1;5;Down
1;1;1;1;1;1;3;5;1;1;1;1;2;2;5;5;2;4;3;3;1;5;Down
1;1;1;1;1;1;4;5;1;1;1;1;3;1;5;5;1;4;3;3;1;5;Down
1;1;1;1;1;1;4;5;1;1;1;1;4;2;5;5;1;4;3;4;1;5;Down
1;1;1;1;1;1;4;5;1;1;1;1;3;1;5;5;1;4;4;4;1;5;Up
1;1;1;1;1;1;4;5;1;1;1;1;3;1;5;5;1;4;4;4;1;5;Up
1;1;1;1;1;1;4;5;1;1;1;1;3;1;5;5;1;3;2;4;1;5;Down
1;1;1;1;2;1;5;5;1;1;1;1;5;3;5;5;1;3;2;4;1;5;Down
1;1;1;1;4;1;2;5;1;1;1;1;1;5;5;5;4;3;2;3;1;5;Up
1;1;1;1;1;1;3;5;1;1;1;1;3;1;5;5;1;4;3;4;1;5;Down
1;1;1;1;1;2;4;5;1;1;1;1;3;1;5;5;1;5;3;4;1;5;Down
1;1;1;1;1;1;5;5;1;1;1;1;4;3;5;5;1;3;3;4;1;5;Up
1;1;1;1;2;1;4;5;1;1;1;1;4;3;5;5;1;2;2;4;1;5;Up
1;1;1;1;4;1;1;5;1;1;1;1;2;2;5;5;2;2;2;4;2;5;Up
2;2;2;2;2;2;3;5;1;1;1;1;3;1;5;5;2;4;4;4;2;5;Down
2;2;2;2;1;2;4;5;1;1;1;1;3;1;5;5;1;4;4;4;2;5;Down
2;2;2;2;1;2;4;5;1;1;1;1;3;2;5;5;1;4;4;4;2;5;Up
2;2;2;2;1;2;4;5;1;1;1;1;3;1;5;5;1;3;4;5;2;5;Up
2;2;2;2;1;2;3;5;1;1;1;1;3;1;5;5;1;3;5;4;2;5;Up
2;2;2;2;1;2;3;5;1;1;1;1;3;1;5;5;1;4;5;5;2;5;Down
2;2;2;2;1;2;4;5;1;1;1;1;3;1;5;5;1;4;5;5;2;5;Down
2;2;2;2;1;2;4;5;1;1;1;1;4;3;5;5;2;4;5;5;2;5;Up
2;2;2;2;1;2;4;5;1;1;1;1;3;1;5;5;1;5;4;5;2;5;Up
2;2;2;2;1;2;4;5;1;1;1;1;3;1;5;5;1;5;4;4;2;5;Up
2;2;2;2;1;2;5;5;1;1;1;1;5;3;5;5;2;5;4;5;2;5;Down
1;1;1;1;1;2;4;5;1;1;1;1;5;3;5;5;1;4;4;4;2;5;Up
2;1;1;1;1;1;3;5;1;1;1;1;2;3;5;5;1;4;3;4;3;5;Up
1;1;1;2;1;2;5;5;1;1;1;1;4;2;5;5;1;4;4;4;3;5;Down
1;1;1;1;1;1;4;5;1;1;1;1;3;1;5;5;1;3;3;4;3;5;Up
1;1;1;1;1;1;3;5;1;1;1;1;2;2;5;5;1;4;3;4;3;5;Down
2;2;2;2;1;2;4;5;1;1;1;1;3;1;5;5;1;4;3;5;3;5;Down
1;1;1;1;1;2;4;5;1;1;1;1;4;2;5;5;1;3;3;4;3;5;Up
1;1;1;1;1;1;4;5;1;1;1;1;3;1;5;5;1;4;3;4;3;5;Up
1;1;1;1;1;2;3;5;1;1;1;1;3;1;5;5;1;3;3;3;3;5;Down
2;2;2;2;1;2;4;5;1;1;1;1;4;2;5;5;1;3;4;3;3;5;Down
2;2;1;1;2;2;3;5;1;1;1;1;3;2;5;5;2;3;3;3;3;5;Up
2;2;2;2;1;2;4;5;1;1;1;1;3;2;5;5;2;4;4;3;3;5;Down
2;2;2;2;1;2;4;5;1;1;1;1;4;1;5;5;1;4;4;3;3;5;Down
2;2;2;2;1;2;4;5;1;1;1;1;4;2;5;5;1;4;4;3;3;5;Up
2;2;2;2;1;2;3;5;1;1;1;1;2;1;5;5;1;4;4;3;4;5;Up
2;2;2;2;1;2;4;5;1;1;1;1;4;1;5;5;1;4;4;3;4;5;Down
2;2;2;2;1;2;4;5;1;1;1;1;3;2;5;5;1;4;3;3;4;5;Up
2;2;2;2;1;2;3;5;1;1;1;1;2;3;5;5;1;3;3;3;4;5;Up
2;2;2;2;1;2;5;5;1;1;1;1;4;1;5;5;1;4;4;3;4;5;Down
1;1;1;1;1;1;3;5;1;1;1;1;3;2;5;5;1;4;4;3;4;5;Up
2;2;2;2;1;2;4;5;1;1;1;1;4;2;5;5;1;4;4;3;4;5;Down
1;1;1;2;1;2;4;5;1;1;1;1;3;1;5;5;1;3;3;3;4;5;Up
1;1;1;1;1;1;2;5;1;1;1;1;2;2;5;5;1;3;2;2;4;5;Up
2;2;2;2;1;2;4;5;1;1;1;1;3;2;5;5;1;4;3;3;4;5;Down
2;2;2;2;1;2;4;5;1;1;1;1;3;1;5;5;1;5;2;3;4;5;Down
2;2;2;2;1;2;4;5;1;1;1;1;3;3;5;5;1;5;2;3;4;5;Down
1;2;1;2;2;2;5;5;1;1;1;1;4;4;5;5;1;3;2;3;4;5;Up
2;2;1;1;2;1;3;5;1;1;1;1;1;5;5;5;1;2;1;2;5;5;Up
1;2;1;1;2;1;2;5;1;1;1;1;3;4;5;5;2;2;2;2;5;5;Down
2;2;2;2;2;2;3;5;1;1;1;1;2;4;5;5;2;2;3;3;5;5;Down
2;2;2;2;1;2;3;5;1;1;1;1;3;1;5;5;1;3;3;3;5;5;Down
2;2;2;2;1;2;3;5;1;1;1;1;3;2;5;5;2;3;3;2;5;5;Down
2;2;2;2;1;3;4;5;1;1;1;1;3;1;5;5;1;4;4;3;5;5;Down
2;2;2;2;1;3;4;5;1;1;1;1;4;2;5;5;1;4;4;3;5;5;Down
2;2;2;2;1;3;4;5;1;1;1;1;4;1;5;5;1;4;4;3;5;5;Up
2;2;2;2;1;2;3;5;1;1;1;1;3;1;5;5;1;3;3;3;5;5;Up
2;2;2;2;1;3;4;5;1;1;1;1;4;2;5;5;1;4;3;3;5;5;Down
2;2;2;2;1;2;3;5;1;1;1;1;3;1;5;5;1;4;3;3;5;5;Up
2;2;2;2;1;3;4;5;1;1;1;1;3;1;5;5;1;4;3;4;5;5;Down
2;2;2;2;1;2;3;5;1;1;1;1;3;1;5;5;1;4;3;4;5;5;Up
2;2;2;2;1;3;4;5;1;1;1;1;3;1;5;5;1;4;3;3;1;5;Down
3;3;3;2;1;3;4;5;1;1;1;1;3;2;4;5;1;3;3;4;1;5;Down
3;2;2;2;1;3;3;5;1;1;1;1;3;1;4;5;1;3;3;3;1;5;Up
3;3;3;3;1;3;3;5;1;1;1;1;2;3;4;5;1;3;3;4;1;5;Down
3;3;3;3;1;3;4;5;1;1;1;1;3;1;4;5;2;4;3;4;1;5;Down
3;3;3;3;1;3;4;5;1;1;1;1;3;1;4;5;1;4;2;4;1;5;Up
3;3;3;3;1;3;4;5;1;1;1;1;4;2;4;5;1;4;2;4;1;5;Down
3;3;3;3;1;3;4;5;1;1;1;1;3;1;4;5;1;4;2;4;1;5;Up
3;3;3;3;1;3;4;5;1;1;1;1;3;1;4;5;1;4;2;3;1;5;Up
3;3;3;3;1;3;3;5;1;1;1;1;3;2;4;5;1;3;2;3;1;5;Down
3;3;3;3;1;3;4;5;1;1;1;1;4;2;4;5;1;2;3;4;1;5;Down
3;3;3;3;2;3;3;5;1;1;1;1;2;3;4;5;1;2;3;4;1;5;Up
3;3;3;3;3;3;1;5;1;1;1;1;3;3;4;5;2;2;4;4;1;5;Down
4;4;4;4;2;4;4;5;1;1;1;1;3;1;4;5;2;5;5;5;2;5;Down
3;3;3;4;1;4;4;5;1;1;1;1;4;2;4;5;1;4;5;5;2;5;Up
3;3;3;3;1;4;4;5;1;1;1;1;4;1;4;5;2;4;4;5;2;5;Up
3;3;3;3;1;4;4;5;1;1;1;1;3;1;4;5;1;4;4;4;2;5;Up
3;3;3;3;1;4;4;5;1;1;1;1;3;1;4;5;1;5;4;4;2;5;Down
3;3;3;3;1;4;4;5;1;1;1;1;4;2;4;5;1;5;5;4;2;5;Down
3;3;3;3;1;3;5;5;1;1;1;1;4;1;4;5;1;4;4;4;2;5;Up
3;3;3;3;1;3;4;5;1;1;1;1;3;1;4;5;2;4;3;4;2;5;Up
3;3;3;3;1;3;3;5;1;1;1;1;3;2;4;5;1;3;3;4;2;5;Up
3;3;3;3;1;3;4;5;1;1;1;1;3;2;4;5;1;4;3;4;2;5;Down
3;3;3;3;1;3;4;5;1;1;1;1;4;1;4;5;1;4;3;4;2;5;Up
3;3;3;3;1;3;4;5;1;1;1;1;3;1;4;5;1;4;3;4;2;5;Down
3;3;3;3;1;3;4;5;1;1;1;1;3;2;4;5;1;4;3;4;2;5;Up
3;3;3;3;1;3;4;5;1;1;1;1;3;1;4;5;1;3;3;4;3;5;Up
3;3;3;3;1;3;3;5;1;1;1;1;3;2;4;5;1;3;3;3;3;5;Down
3;3;3;3;2;3;4;5;1;1;1;1;3;1;4;5;4;3;3;4;3;5;Down
3;3;3;3;1;3;4;5;1;1;1;1;3;2;4;5;1;4;4;4;3;5;Down
3;3;3;3;1;3;3;5;1;1;1;1;3;2;4;5;1;4;4;4;3;5;Down
3;3;3;3;1;4;4;5;1;1;1;1;3;2;4;5;2;4;4;4;3;5;Down
3;3;3;3;1;3;4;5;1;1;1;1;3;1;4;5;1;4;3;4;3;5;Up
3;3;3;3;2;3;3;5;1;1;1;1;3;1;4;5;2;4;4;4;3;5;Up
3;3;3;3;1;3;4;5;1;1;1;1;4;1;4;5;1;4;4;4;3;5;Down
3;3;3;3;1;3;4;5;1;1;1;1;3;1;4;5;1;4;4;4;3;5;Up
3;3;3;3;1;3;4;5;1;1;1;1;3;1;4;5;1;3;3;4;3;5;Up
3;3;3;3;1;3;4;5;1;1;1;1;3;2;4;5;2;3;3;4;3;5;Up
3;3;3;3;1;3;3;5;1;1;1;1;3;1;4;5;1;4;3;4;3;5;Down
3;3;3;3;1;4;4;5;1;1;1;1;3;1;4;5;1;4;3;4;4;5;Down
3;3;3;3;1;4;5;5;1;1;1;1;4;3;4;5;2;4;4;4;4;5;Down
3;3;3;3;1;3;4;5;1;1;1;1;3;2;4;5;1;3;3;4;4;5;Up
3;3;3;3;1;3;3;5;1;1;1;1;3;2;4;5;1;3;3;4;4;5;Up
3;3;3;3;1;3;3;5;1;1;1;1;3;1;4;5;1;3;3;4;4;5;Down
3;3;3;3;1;3;3;5;1;1;1;1;3;2;4;5;2;4;3;4;4;5;Down
3;3;3;3;1;4;4;5;1;1;1;1;3;1;4;5;1;4;3;4;4;5;Down
3;3;3;3;1;4;4;5;1;1;1;1;3;2;4;5;1;3;3;4;4;5;Up
3;3;3;3;1;4;4;5;1;1;1;1;3;2;4;5;1;4;3;4;4;5;Down
3;3;3;3;1;4;3;5;1;1;1;1;3;1;4;5;3;4;3;4;4;5;Up
3;3;4;4;1;4;4;5;1;1;1;1;3;1;4;5;1;4;3;4;4;5;Down
3;3;4;4;1;4;4;5;1;1;1;1;4;2;4;5;1;4;3;4;4;5;Down
4;3;3;3;1;4;3;5;1;1;1;1;2;2;4;5;2;3;3;4;4;5;Up
4;4;4;4;1;4;3;5;1;1;1;1;3;1;4;5;1;4;4;5;5;5;Down
4;4;4;4;1;4;4;5;1;1;1;1;3;1;4;5;1;4;4;5;5;5;Down
4;4;4;4;1;4;4;5;1;1;1;1;3;2;4;5;1;4;4;5;5;5;Down
4;4;4;4;1;4;4;5;1;1;1;1;3;1;4;5;1;4;4;5;5;5;Up
4;4;4;4;1;4;4;5;1;1;1;1;3;1;4;5;1;4;4;5;5;5;Up
4;4;4;4;1;4;4;5;1;1;1;1;3;1;4;5;1;4;4;5;5;5;Down
4;4;4;4;1;4;4;5;1;1;1;1;3;1;4;5;1;4;4;5;5;5;Down
3;4;4;4;1;4;4;5;1;1;1;1;4;2;4;5;1;4;4;5;5;5;Up
3;3;3;3;1;4;4;5;1;1;1;1;3;2;4;5;1;4;4;5;5;5;Up
4;4;4;3;1;4;3;5;1;1;1;1;3;2;4;5;1;4;3;5;5;5;Down
4;4;4;4;1;4;4;5;1;1;1;1;3;1;4;5;1;4;4;5;5;5;Down
3;3;3;3;1;4;4;5;1;1;1;1;4;2;4;5;1;4;4;5;5;5;Up
4;4;3;3;1;4;3;5;1;1;1;1;2;4;4;5;1;3;4;5;1;5;Up
4;4;4;4;1;4;4;5;1;1;1;1;3;2;3;5;1;4;4;5;1;5;Down
4;4;4;4;1;4;4;5;1;1;1;1;3;2;3;5;1;4;5;5;1;5;Down
4;4;4;4;1;4;4;5;1;1;1;1;3;1;3;5;1;4;5;5;1;5;Up
4;4;4;3;1;4;3;5;1;1;1;1;2;3;3;5;1;4;4;5;1;5;Up
4;4;4;4;1;4;4;5;1;1;1;1;4;2;3;5;1;5;5;5;1;5;Down
3;4;3;4;2;4;5;5;1;1;1;1;4;4;3;5;2;4;5;5;1;5;Up
3;3;4;3;1;4;4;5;1;1;1;1;3;1;3;5;1;5;5;5;1;5;Up
3;3;3;3;1;4;4;5;1;1;1;1;3;2;3;5;1;5;5;5;1;5;Up
3;3;3;3;2;4;5;5;1;1;1;1;5;5;3;5;2;4;5;5;1;5;Down
3;3;3;3;1;3;4;5;1;1;1;1;4;2;3;5;1;5;4;4;1;5;Up
3;3;3;3;2;3;3;5;1;1;1;1;3;3;3;5;1;4;4;5;1;5;Up
3;3;3;3;2;3;5;5;1;1;1;1;5;4;3;5;2;4;4;5;1;5;Down
3;3;3;3;1;3;3;5;1;1;1;1;3;1;3;5;2;4;3;5;2;5;Up
3;3;3;3;1;3;3;5;1;1;1;1;3;1;3;5;1;4;4;5;2;5;Down
3;3;3;3;1;3;4;5;1;1;1;1;4;2;3;5;1;4;4;5;2;5;Down
3;3;3;3;1;3;4;5;1;1;1;1;3;1;3;5;1;4;4;5;2;5;Up
3;3;3;3;1;3;4;5;1;1;1;1;3;1;3;5;2;4;4;5;2;5;Down
3;3;3;3;1;3;4;5;1;1;1;1;3;2;3;5;1;4;4;5;2;5;Down
3;3;3;3;1;3;4;5;1;1;1;1;4;1;3;5;1;4;4;4;2;5;Up
3;3;3;3;1;3;4;5;1;1;1;1;3;2;3;5;1;4;4;4;2;5;Up
3;3;3;3;1;3;4;5;1;1;1;1;3;2;3;5;1;4;4;4;2;5;Down
3;3;3;3;1;3;4;5;1;1;1;1;4;3;3;5;1;4;4;4;2;5;Up
3;3;3;3;1;3;4;5;1;1;1;1;4;3;3;5;1;3;3;4;2;5;Up
3;3;3;3;1;3;3;5;1;1;1;1;3;2;4;5;1;4;3;4;2;5;Up
3;3;3;3;1;3;3;5;1;1;1;1;3;1;3;5;1;4;4;4;2;5;Down
3;3;3;3;1;3;4;5;1;1;1;1;4;2;3;5;1;4;4;4;3;5;Down
3;3;3;3;1;3;4;5;1;1;1;1;3;1;3;5;1;3;4;4;3;5;Up
3;3;3;3;1;3;4;5;1;1;1;1;4;2;3;5;1;3;4;4;3;5;Down
3;3;3;3;1;3;3;5;1;1;1;1;2;3;4;5;1;3;4;4;3;5;Up
3;3;3;3;1;3;3;5;1;1;1;1;3;2;3;5;1;4;4;4;3;5;Down
3;3;3;3;2;3;4;5;1;1;1;1;4;2;3;5;1;5;5;4;3;5;Down
3;3;3;3;2;3;5;5;1;1;1;1;4;2;3;5;2;5;4;4;3;5;Up
3;3;3;3;1;3;4;5;1;1;1;1;3;2;3;5;1;4;4;4;3;5;Up
2;3;2;3;1;3;5;5;1;1;1;1;5;4;3;5;2;5;4;4;3;5;None
2;2;2;2;1;2;4;5;1;1;1;1;4;1;4;5;1;4;3;4;3;5;Up
2;2;2;2;1;2;5;5;1;1;1;1;4;2;4;5;1;4;3;4;3;5;Down
2;2;2;2;2;2;3;5;1;1;1;1;2;3;4;5;2;3;3;4;3;5;Up
2;2;2;2;1;2;4;5;1;1;1;1;4;2;4;5;1;3;3;4;3;5;Down
3;2;2;2;1;2;3;5;1;1;1;1;2;3;4;5;1;3;3;4;4;5;Up
3;3;3;2;1;2;3;5;1;1;1;1;2;2;4;5;1;3;3;4;4;5;Down
2;3;3;3;1;3;4;5;1;1;1;1;4;2;3;5;1;4;3;5;4;5;Down
3;3;3;3;1;3;3;5;1;1;1;1;3;3;4;5;1;3;3;4;4;5;Up
3;3;3;3;1;3;4;5;1;1;1;1;4;1;3;5;1;4;3;5;4;5;Down
3;3;3;3;1;3;3;5;1;1;1;1;3;1;3;5;1;3;3;5;4;5;Up
3;3;3;3;1;3;4;5;1;1;1;1;4;1;3;5;1;4;3;5;4;5;Down
3;3;3;3;2;3;3;5;1;1;1;1;3;2;3;5;2;3;3;5;4;5;Up
3;3;3;3;1;3;4;5;1;1;1;1;4;2;3;5;1;3;4;5;4;5;Down
3;3;3;3;2;3;3;5;1;1;1;1;2;3;3;5;2;3;4;5;4;5;Up
3;3;3;3;1;3;3;5;1;1;1;1;2;2;3;5;1;4;4;5;4;5;Down
3;3;3;3;1;3;4;5;1;1;1;1;4;3;3;5;2;4;5;5;4;5;Down
3;3;3;3;1;3;4;5;1;1;1;1;3;1;3;5;1;4;4;5;4;5;Up
3;3;3;3;1;3;4;5;1;1;1;1;3;2;3;5;1;4;5;5;5;5;Down
3;3;3;3;1;3;4;5;1;1;1;1;4;2;3;5;1;4;5;5;5;5;Down
3;3;3;3;1;3;4;5;1;1;1;1;3;1;3;5;2;4;4;5;5;5;Up
3;3;3;3;1;3;4;5;1;1;1;1;4;1;3;5;1;4;4;5;5;5;Up
3;3;3;3;1;3;4;5;1;1;1;1;4;2;3;5;1;4;4;5;5;5;Up
3;3;3;3;1;3;4;5;1;1;1;1;3;1;4;5;1;4;4;4;5;5;Up
2;2;2;3;1;3;4;5;1;1;1;1;3;1;4;5;1;4;5;4;5;5;Up
2;2;2;3;1;3;5;5;1;1;1;1;4;3;4;5;2;4;4;4;5;5;Down
2;2;2;2;1;2;3;5;1;1;1;1;3;2;4;5;1;4;4;4;5;5;Up
2;2;2;2;1;2;4;5;1;1;1;1;3;1;4;5;1;4;4;4;1;5;Down
2;2;2;2;1;2;4;5;1;1;1;1;4;1;3;5;2;4;4;4;1;5;Down
2;2;2;2;1;2;3;5;1;1;1;1;3;2;3;5;1;4;4;4;1;5;Up
2;2;2;3;1;2;5;5;1;1;1;1;5;3;3;5;1;4;4;4;1;5;Down
2;2;2;2;1;2;4;5;1;1;1;1;4;2;3;5;1;4;4;4;1;5;Up
2;2;2;2;2;2;3;5;1;1;1;1;3;2;3;5;1;4;3;3;1;5;Up
2;2;2;2;2;2;5;5;1;1;1;1;5;5;3;5;2;4;3;3;1;5;Down
2;2;2;2;1;2;3;5;1;1;1;1;2;2;3;5;1;3;3;3;1;5;Up
2;2;2;2;1;2;3;5;1;1;1;1;3;2;3;5;1;3;3;3;1;5;Down
2;2;2;2;2;2;4;5;1;1;1;1;2;3;3;5;2;5;4;4;1;5;Down
2;2;2;2;1;2;4;5;1;1;1;1;4;2;3;5;1;4;4;4;1;5;Up
2;2;2;2;2;2;5;5;1;1;1;1;5;3;3;5;1;3;3;4;1;5;Up
2;2;2;2;3;2;2;5;1;1;1;1;3;3;3;5;2;3;3;4;1;5;Up
2;2;2;2;2;2;4;5;1;1;1;1;3;3;3;5;2;4;4;5;2;5;Down
2;2;2;2;1;2;4;5;1;1;1;1;5;3;3;5;2;4;4;5;2;5;Down
2;2;2;2;1;2;3;5;1;1;1;1;2;2;3;5;1;3;3;4;2;5;Up
2;2;2;2;1;2;3;5;1;1;1;1;4;2;3;5;1;3;3;4;2;5;Down
2;3;2;2;1;2;4;5;1;1;1;1;3;3;3;5;1;4;3;4;2;5;Down
3;2;2;2;1;2;3;5;1;1;1;1;2;3;3;5;1;4;3;4;2;5;Up
3;3;2;3;1;2;4;5;1;1;1;1;4;2;3;5;1;4;3;4;2;5;Down
2;2;2;3;1;2;5;5;1;1;1;1;4;3;3;5;1;4;3;4;2;5;Up
2;2;2;2;1;2;3;5;1;1;1;1;2;2;3;5;1;3;3;3;2;5;Up
3;3;2;2;2;2;3;5;1;1;1;1;2;4;3;5;1;3;3;3;2;5;Down
3;3;3;3;1;3;3;5;1;1;1;1;3;2;3;5;1;4;3;4;2;5;Down
3;3;3;3;1;3;4;5;1;1;1;1;4;2;3;5;2;4;4;4;2;5;Down
3;3;3;3;1;3;4;5;1;1;1;1;3;1;3;5;2;3;4;4;2;5;Up
3;3;3;3;1;3;4;5;1;1;1;1;3;1;3;5;1;3;5;4;3;5;Up
3;3;3;3;1;3;3;5;1;1;1;1;3;2;3;5;2;4;5;4;3;5;Down
3;3;3;3;1;3;4;5;1;1;1;1;3;1;3;5;1;4;5;4;3;5;Down
3;3;3;3;1;3;4;5;1;1;1;1;3;1;3;5;1;4;5;4;3;5;Up
3;3;3;3;1;3;4;5;1;1;1;1;3;1;3;5;1;5;4;4;3;5;Down
3;3;3;3;1;3;5;5;1;1;1;1;5;3;3;5;1;5;4;4;3;5;Up
2;3;3;3;2;2;4;5;1;1;1;1;4;2;3;5;1;5;3;4;3;5;Up
2;2;2;2;2;2;5;5;1;1;1;1;5;4;3;5;2;5;3;4;3;5;Up
2;2;2;2;1;2;4;5;1;1;1;1;3;2;3;5;1;3;2;3;3;5;Up
2;2;2;2;2;2;3;5;1;1;1;1;3;4;3;5;1;2;2;3;3;5;Up
2;2;2;2;2;2;3;5;1;1;1;1;2;3;3;5;1;2;2;3;3;5;Down
3;3;2;2;2;2;2;5;1;1;1;1;1;4;3;5;2;2;3;3;3;5;Down
3;3;3;3;1;3;4;5;1;1;1;1;3;2;3;5;1;4;4;4;3;5;Down
3;3;3;3;1;3;3;5;1;1;1;1;2;3;3;5;1;3;3;4;4;5;Up
3;3;3;3;1;3;4;5;1;1;1;1;4;2;3;5;2;4;4;4;4;5;Down
3;3;3;3;1;3;3;5;1;1;1;1;3;1;3;5;1;3;4;4;4;5;Up
3;3;3;3;1;3;4;5;1;1;1;1;3;1;3;5;1;4;4;4;4;5;Down
3;3;3;3;1;3;4;5;1;1;1;1;3;1;3;5;1;4;4;4;4;5;Down
3;3;3;3;2;3;4;5;1;1;1;1;4;2;3;5;2;4;4;4;4;5;Down
3;3;3;3;1;3;4;5;1;1;1;1;3;1;3;5;1;4;4;4;4;5;Up
3;3;3;3;1;3;4;5;1;1;1;1;3;1;3;5;2;4;4;4;4;5;Up
3;3;3;3;1;3;4;5;1;1;1;1;3;1;3;5;1;4;3;4;4;5;Down
3;3;3;3;1;3;4;5;1;1;1;1;3;1;3;5;1;4;3;4;4;5;Up
3;3;3;3;1;3;4;5;1;1;1;1;3;1;3;5;1;4;4;4;4;5;Up
3;3;3;3;2;3;4;5;1;1;1;1;4;2;3;5;2;4;4;4;4;5;Down
3;3;3;3;1;3;4;5;1;1;1;1;3;1;3;5;1;4;3;4;4;5;Up
3;3;3;3;1;3;4;5;1;1;1;1;3;1;3;5;1;3;3;4;5;5;Up
3;3;3;3;1;3;4;5;1;1;1;1;3;1;3;5;1;3;4;4;5;5;Down
3;3;3;3;1;3;3;5;1;1;1;1;2;2;3;5;1;4;4;2;5;5;Down
3;3;3;3;1;3;4;5;1;1;1;1;3;1;3;5;1;4;4;3;5;5;Down
3;3;3;3;1;3;4;5;1;1;1;1;4;2;3;5;2;4;4;3;5;5;None
3;3;3;3;1;3;4;5;1;1;1;1;4;1;3;5;1;4;4;2;5;5;Up
3;3;3;3;1;3;3;5;1;1;1;1;3;1;3;5;1;4;3;2;5;5;Up
3;3;3;3;1;3;4;5;1;1;1;1;3;1;3;5;1;4;4;2;5;5;Down
3;3;3;3;1;3;4;5;1;1;1;1;4;2;3;5;2;4;4;2;5;5;Down
3;3;3;3;1;3;4;5;1;1;1;1;4;1;3;5;1;4;4;2;5;5;Up
3;3;3;3;1;3;4;5;1;1;1;1;3;1;3;5;1;3;4;2;1;3;Up
3;3;3;3;1;3;4;5;1;1;1;1;3;2;3;5;1;3;4;2;1;3;Up
3;3;3;3;1;3;3;5;1;1;1;1;3;2;3;5;1;4;4;2;1;3;Down
3;3;3;3;1;3;4;5;1;1;1;1;3;1;3;5;1;4;4;2;1;3;Down
3;3;3;3;2;3;4;5;1;1;1;1;3;2;3;5;2;4;4;2;1;3;Down
3;3;3;3;1;3;4;5;1;1;1;1;4;1;3;5;1;4;3;2;1;3;Up
3;3;3;3;1;3;4;5;1;1;1;1;3;1;3;5;1;4;1;2;1;3;Up
3;3;3;3;2;3;4;5;1;1;1;1;4;1;3;5;2;4;2;2;1;3;Down
3;3;3;3;1;3;4;5;1;1;1;1;3;1;3;5;1;4;1;2;1;3;Up
3;3;3;3;2;3;4;5;1;1;1;1;3;1;3;5;1;4;1;2;1;3;Down
3;3;3;3;2;3;4;5;1;1;1;1;3;1;3;5;1;3;1;2;1;3;Down
3;3;3;3;3;3;3;5;1;1;1;1;3;3;3;5;1;1;1;1;1;3;Up
3;3;3;3;5;3;2;5;1;1;1;1;2;4;3;5;1;1;1;2;1;3;Down
3;3;3;3;5;3;1;5;1;1;1;1;4;3;2;5;5;2;1;2;2;3;Down
4;4;4;4;1;4;4;5;1;1;1;1;4;2;2;5;1;4;3;3;2;3;Down
4;4;4;4;1;4;3;5;1;1;1;1;3;2;2;5;1;3;3;3;2;3;Up
4;4;4;4;2;4;3;5;1;1;1;1;3;4;2;5;2;3;3;3;2;3;Down
5;4;5;4;1;5;4;5;1;1;1;1;3;2;2;5;1;3;3;4;2;3;Down
5;5;5;4;1;4;3;5;1;1;1;1;3;3;2;5;1;3;3;3;2;3;Up
5;5;5;5;1;5;4;5;1;1;1;1;3;2;2;5;2;4;3;4;2;3;Down
5;5;5;5;1;5;3;5;1;1;1;1;2;3;2;5;1;3;3;4;2;3;Down
5;5;5;5;1;5;5;5;1;1;1;1;4;3;2;5;1;4;4;4;2;3;Down
5;5;5;5;1;5;3;5;1;1;1;1;3;2;2;5;2;4;3;4;2;3;Up
5;5;5;5;1;5;4;5;1;1;1;1;3;2;2;5;1;4;3;4;2;3;Down
5;5;5;5;1;5;4;5;1;1;1;1;3;1;2;5;2;4;3;4;2;3;Up
5;5;5;5;1;5;4;5;1;1;1;1;3;1;2;5;1;3;3;4;2;3;Up
5;5;5;5;1;5;3;5;1;1;1;1;2;3;2;5;1;3;3;4;3;3;Down
5;5;5;5;1;5;4;5;1;1;1;1;3;1;2;5;1;4;3;4;3;3;Down
5;5;5;5;1;5;4;5;1;1;1;1;4;1;2;5;1;3;3;4;3;3;Up
5;5;5;5;1;5;4;5;1;1;1;1;4;1;2;5;1;4;3;4;3;3;Down
5;5;5;5;1;5;3;5;1;1;1;1;2;3;2;5;2;3;3;4;3;3;Up
5;5;5;5;1;5;4;5;1;1;1;1;4;2;2;5;1;4;4;4;3;3;Down
5;5;5;5;1;5;3;5;1;1;1;1;3;1;2;5;1;3;4;4;3;3;Up
5;5;5;5;1;5;4;5;1;1;1;1;3;1;2;5;1;4;4;4;3;3;Down
5;5;5;5;2;5;4;5;1;1;1;1;3;1;2;5;3;4;4;4;3;3;Down
5;5;5;5;1;5;4;5;1;1;1;1;4;1;2;5;1;4;4;4;3;3;Up
5;5;5;5;1;5;4;5;1;1;1;1;3;1;2;5;1;4;4;5;3;3;Up
5;5;5;5;1;5;4;5;1;1;1;1;4;2;2;5;1;4;4;5;3;3;Down
5;5;5;5;1;5;4;5;1;1;1;1;3;1;2;5;1;4;4;4;3;3;Up
5;5;5;5;1;5;4;5;1;1;1;1;3;1;2;5;1;4;4;4;4;3;Up
5;5;5;5;1;5;4;5;1;1;1;1;3;2;2;5;1;4;4;4;4;3;Down
5;5;5;5;1;5;4;5;1;1;1;1;4;2;2;5;1;4;4;5;4;3;Up
5;5;5;5;1;5;4;5;1;1;1;1;3;1;2;5;1;4;3;5;4;3;Up
5;5;5;5;1;5;4;5;1;1;1;1;3;1;2;5;1;4;3;4;4;3;Down
5;5;5;5;1;5;4;5;1;1;1;1;3;1;2;5;1;4;4;5;4;3;Down
5;5;5;5;1;5;3;5;1;1;1;1;3;2;2;5;2;4;4;4;4;3;Up
5;5;5;5;1;5;4;5;1;1;1;1;3;1;2;5;1;4;4;4;4;3;Down
5;5;5;5;1;5;4;5;1;1;1;1;3;2;2;5;1;4;4;4;4;3;Up
5;5;5;5;1;5;4;5;1;1;1;1;3;1;2;5;2;4;4;4;4;3;Down
5;5;5;5;1;5;4;5;1;1;1;1;3;1;2;5;1;4;4;4;4;3;Up
5;5;5;5;1;5;4;5;1;1;1;1;3;2;2;5;1;4;4;4;4;3;Down
5;5;5;5;1;5;4;5;1;1;1;1;4;2;2;5;2;4;4;4;4;3;Down
5;5;5;5;1;5;4;5;1;1;1;1;3;1;2;5;1;4;4;4;5;3;Up
5;5;5;5;1;5;4;5;1;1;1;1;3;1;2;5;1;4;4;4;5;3;Up
5;5;5;5;1;5;4;5;1;1;1;1;3;1;2;5;1;4;4;4;5;3;Down
5;5;5;5;1;5;4;5;1;1;1;1;3;1;2;5;1;4;4;4;5;3;Up
5;5;5;5;1;5;4;5;1;1;1;1;3;1;2;5;1;4;4;4;5;3;Up
5;5;5;5;1;5;4;5;1;1;1;1;4;2;2;5;1;4;4;4;5;3;Up
5;5;5;5;1;5;4;5;1;1;1;1;3;2;2;5;2;4;4;4;5;3;Up
5;5;5;5;1;5;4;5;1;1;1;1;3;1;2;5;1;4;4;4;5;3;Down
5;5;5;5;1;5;4;5;1;1;1;1;3;1;2;5;1;4;4;4;5;3;Down
5;5;5;5;1;5;4;5;1;1;1;1;3;1;2;5;1;4;3;4;5;3;Up
5;5;5;5;1;5;4;5;1;1;1;1;3;2;2;5;1;4;3;4;5;3;Down
4;5;5;5;1;5;4;5;1;1;1;1;4;2;2;5;1;4;3;4;5;3;Up
5;5;5;4;1;5;3;5;1;1;1;1;2;2;2;5;1;3;2;4;5;3;Up
5;5;5;5;1;5;4;5;1;1;1;1;3;2;2;5;1;3;3;4;1;3;Down
5;5;5;5;1;5;3;5;1;1;1;1;3;2;1;5;2;3;3;4;1;3;Down
5;5;5;5;1;5;4;5;1;1;1;1;3;1;1;5;1;3;3;4;1;3;Down
5;5;5;5;1;5;3;5;1;1;1;1;3;2;1;5;1;3;3;4;1;3;Up
5;5;5;5;1;5;3;5;1;1;1;1;3;2;1;5;1;3;4;5;1;3;Down
5;5;5;5;1;5;4;5;1;1;1;1;3;2;1;5;1;4;4;5;1;3;Down
5;5;5;5;1;5;3;5;1;1;1;1;3;1;1;5;1;4;4;5;1;3;Down
5;5;5;5;1;5;4;5;1;1;1;1;4;2;1;5;1;4;4;5;1;3;Down
5;5;5;5;1;5;4;5;1;1;1;1;3;2;1;5;1;4;4;5;1;3;Up
5;5;5;5;1;5;4;5;1;1;1;1;4;1;1;5;1;4;4;5;1;3;Down
5;5;5;5;1;5;4;5;1;1;1;1;3;1;1;5;1;4;4;5;1;3;Up
5;5;5;5;1;5;4;5;1;1;1;1;4;2;1;5;1;4;4;5;1;3;Down
5;5;5;5;1;5;3;5;1;1;1;1;3;2;1;5;1;4;4;5;1;3;Up
5;5;5;5;2;5;4;5;1;1;1;1;3;3;1;5;1;4;4;5;2;3;Down
5;5;5;5;2;5;4;5;1;1;1;1;3;3;1;5;1;4;4;5;2;3;Up
5;5;5;5;2;5;5;5;1;1;1;1;3;2;1;5;2;4;4;5;2;3;Up
5;5;5;5;1;5;3;5;1;1;1;1;3;1;1;5;1;4;4;5;2;3;Up
5;5;5;5;1;5;4;5;1;1;1;1;4;1;1;5;2;4;4;5;2;3;Down
5;5;5;5;1;5;4;5;1;1;1;1;3;1;1;5;1;4;4;4;2;3;Up
5;5;5;5;1;5;4;5;1;1;1;1;4;1;1;5;1;4;4;4;2;3;Up
5;5;5;5;1;5;4;5;1;1;1;1;4;2;1;5;1;4;5;4;2;3;Down
5;5;5;5;1;5;4;5;1;1;1;1;3;1;1;5;1;4;4;4;2;3;Up
5;5;5;5;1;5;4;5;1;1;1;1;3;1;1;5;1;4;5;4;2;3;Down
5;5;5;5;1;5;4;5;1;1;1;1;3;1;1;5;1;5;4;4;2;3;Down
5;5;5;5;1;5;4;5;1;1;1;1;4;2;1;5;1;5;4;4;2;3;Up
4;5;4;5;2;5;5;5;1;1;1;1;5;4;1;5;2;5;4;4;2;3;Up
4;4;4;4;1;4;4;5;1;1;1;1;3;1;2;5;1;4;3;4;3;3;Up
4;4;4;4;1;4;4;5;1;1;1;1;4;2;2;5;2;4;4;4;3;3;Down
4;4;4;4;1;4;4;5;1;1;1;1;3;2;2;5;1;4;3;4;3;3;Up
4;4;4;4;1;4;4;5;1;1;1;1;3;1;2;5;1;4;3;4;3;3;Down
4;4;4;4;1;4;3;5;1;1;1;1;3;2;2;5;1;4;4;4;3;3;Down
4;4;4;4;1;4;4;5;1;1;1;1;3;1;2;5;1;4;4;4;3;3;Down
4;4;4;4;3;4;3;5;1;1;1;1;3;1;2;5;3;4;3;4;3;3;Up
4;4;4;4;1;4;4;5;1;1;1;1;3;2;2;5;1;4;3;4;3;3;Down
4;4;4;4;1;4;4;5;1;1;1;1;4;1;2;5;2;4;3;4;3;3;Down
4;4;4;4;1;4;4;5;1;1;1;1;3;1;2;5;1;4;3;4;3;3;Up
4;4;4;4;1;4;4;5;1;1;1;1;3;1;2;5;1;4;3;4;3;3;Down
4;4;4;4;1;4;4;5;1;1;1;1;3;1;2;5;1;4;3;3;3;3;Down
4;4;4;4;1;4;3;5;1;1;1;1;3;1;2;5;1;3;3;3;3;3;Up
4;4;4;4;1;4;3;5;1;1;1;1;3;2;2;5;1;3;3;4;4;3;Down
5;5;5;4;1;4;3;5;1;1;1;1;3;2;1;5;2;4;4;4;4;3;Down
5;5;5;5;1;5;4;5;1;1;1;1;3;1;1;5;1;4;4;4;4;3;Down
5;5;5;5;1;5;4;5;1;1;1;1;3;1;1;5;1;4;4;4;4;3;Down
4;5;5;5;1;5;4;5;1;1;1;1;4;2;1;5;1;4;4;4;4;3;Up
4;4;5;4;1;4;4;5;1;1;1;1;3;1;1;5;1;4;4;4;4;3;Up
5;4;5;4;1;4;3;5;1;1;1;1;3;1;1;5;1;4;3;4;4;3;Up
4;5;5;5;1;5;4;5;1;1;1;1;4;1;1;5;1;4;4;3;4;3;Down
4;4;4;4;1;4;4;5;1;1;1;1;4;2;1;5;2;4;3;3;4;3;Up
4;4;4;4;1;4;4;5;1;1;1;1;3;1;1;5;1;3;3;3;4;3;Up
4;4;4;4;1;4;3;5;1;1;1;1;3;1;2;5;1;3;3;4;4;3;Up
5;4;5;5;1;4;3;5;1;1;1;1;3;1;1;5;2;4;3;4;4;3;Down
5;5;5;5;1;5;4;5;1;1;1;1;3;1;1;5;1;4;3;4;4;3;Down
5;5;5;5;1;5;4;5;1;1;1;1;3;1;1;5;1;4;3;4;5;3;Up
5;5;5;5;1;5;4;5;1;1;1;1;3;2;1;5;1;4;3;4;5;3;Down
5;5;5;5;1;5;3;5;1;1;1;1;3;2;1;5;1;4;3;4;5;3;Up
5;5;5;5;1;5;4;5;1;1;1;1;3;1;1;5;1;4;3;3;5;3;Down
5;5;5;5;1;5;4;5;1;1;1;1;4;1;1;5;1;3;3;3;5;3;Down
5;5;5;5;1;5;3;5;1;1;1;1;2;2;1;5;1;3;3;3;5;3;Up
5;5;5;5;1;5;3;5;1;1;1;1;2;3;1;5;3;4;3;4;5;3;Down
5;5;5;5;1;5;4;5;1;1;1;1;3;1;1;5;1;4;4;4;5;3;Down
5;5;5;5;1;5;4;5;1;1;1;1;4;2;1;5;2;4;3;4;5;3;Down
5;5;5;5;1;5;4;5;1;1;1;1;4;2;1;5;1;4;3;4;5;3;Up
5;5;5;5;1;5;4;5;1;1;1;1;3;2;1;5;1;4;3;4;5;3;Up
5;5;5;5;1;5;4;5;1;1;1;1;3;3;1;5;1;4;4;4;1;3;Down
5;5;5;5;1;5;3;5;1;1;1;1;3;1;1;5;2;3;4;4;1;3;Up
5;5;5;5;1;5;4;5;1;1;1;1;3;1;1;5;1;3;4;4;1;3;Down
5;5;5;5;1;5;3;5;1;1;1;1;2;2;1;5;1;3;4;4;1;3;Down
5;5;5;5;1;5;3;5;1;1;1;1;2;3;1;5;1;4;4;4;1;3;Down
5;5;5;5;1;5;4;5;1;1;1;1;4;2;1;5;1;5;4;5;1;3;Down
5;5;5;5;1;5;4;5;1;1;1;1;4;2;1;5;1;5;3;5;1;3;Up
5;5;5;5;1;5;5;5;1;1;1;1;4;3;1;5;2;4;3;4;1;3;Up
5;5;5;5;1;5;4;5;1;1;1;1;3;1;1;5;1;3;3;4;1;3;Up
5;5;5;5;1;5;3;5;1;1;1;1;3;2;1;5;1;4;3;4;1;3;Down
5;5;5;5;1;5;4;5;1;1;1;1;3;2;1;5;1;4;3;5;1;3;Down
5;5;5;5;1;5;4;5;1;1;1;1;3;1;1;5;1;3;3;4;1;3;Down
5;5;5;5;1;5;4;5;1;1;1;1;4;2;1;5;1;3;4;5;1;3;Down
5;5;5;5;3;5;2;5;1;1;1;1;4;3;1;5;2;3;3;4;2;3;Up
5;5;5;5;2;5;4;5;1;1;1;1;3;3;1;5;2;4;4;5;2;3;Down
5;5;5;5;1;5;4;5;1;1;1;1;4;2;1;5;1;4;4;5;2;3;Down
5;5;5;5;1;5;4;5;1;1;1;1;4;2;1;5;1;4;4;5;2;3;Down
5;5;5;5;1;5;4;5;1;1;1;1;3;2;1;5;1;4;4;5;2;3;Up
5;5;5;5;2;5;4;5;1;1;1;1;3;3;1;5;2;4;4;5;2;3;Down
5;5;5;5;1;5;5;5;1;1;1;1;4;3;1;5;1;5;4;5;2;3;Down
5;5;5;5;1;5;3;5;1;1;1;1;3;1;1;5;1;4;4;5;2;3;Up
5;5;5;5;2;5;4;5;1;1;1;1;4;3;1;5;1;4;4;5;2;3;Down
5;5;5;5;2;5;4;5;1;1;1;1;3;2;1;5;2;3;3;5;2;3;Up
5;5;5;5;1;5;4;5;1;1;1;1;3;1;1;5;1;4;4;5;2;3;Down
5;5;5;5;1;5;4;5;1;1;1;1;3;2;1;5;1;4;4;5;2;3;Down
5;5;5;5;1;5;4;5;1;1;1;1;4;2;1;5;1;4;4;5;2;3;Down
5;5;5;5;2;5;4;5;1;1;1;1;4;2;1;5;2;4;5;5;3;3;Up
5;5;5;5;1;5;4;5;1;1;1;1;3;3;1;5;1;3;4;5;3;3;Up
5;5;5;5;2;5;3;5;1;1;1;1;3;3;1;5;1;4;4;5;3;3;Up
5;5;5;5;2;5;3;5;1;1;1;1;2;3;1;5;1;5;5;5;3;3;Down
5;5;5;5;3;5;5;5;1;1;1;1;5;5;1;5;2;5;5;5;3;3;Down
5;5;5;5;1;5;4;5;1;1;1;1;4;2;1;5;1;4;4;4;3;3;Up
5;5;5;5;3;5;3;5;1;1;1;1;3;2;1;5;3;4;4;4;3;3;Up
4;5;5;5;1;5;4;5;1;1;1;1;5;3;1;5;1;4;4;5;3;3;Down
5;5;5;5;1;4;3;5;1;1;1;1;3;3;1;5;1;4;3;4;3;3;Up
5;5;5;5;1;5;4;5;1;1;1;1;4;2;1;5;1;4;4;5;3;3;Down
4;5;4;5;1;4;5;5;1;1;1;1;4;3;1;5;1;4;3;5;3;3;Up
4;4;4;4;1;4;3;5;1;1;1;1;3;2;1;5;1;3;3;4;3;3;Up
5;5;5;4;1;4;3;5;1;1;1;1;2;3;1;5;1;3;4;5;3;3;Down
5;5;5;5;1;5;4;5;1;1;1;1;3;1;1;5;1;4;4;5;4;3;Down
5;5;5;5;1;5;4;5;1;1;1;1;3;2;1;5;1;4;4;5;4;3;Down
5;5;5;5;1;5;3;5;1;1;1;1;3;2;1;5;1;4;4;5;4;3;Up
5;5;5;5;1;5;4;5;1;1;1;1;3;1;1;5;1;4;4;5;4;3;Down
5;5;5;5;1;5;4;5;1;1;1;1;3;1;1;5;1;4;4;5;4;3;Up
5;5;5;5;1;5;4;5;1;1;1;1;3;1;1;5;1;4;4;5;4;3;Up
5;5;5;5;1;5;4;5;1;1;1;1;3;1;1;5;1;4;4;5;4;3;Up
4;4;4;4;1;4;4;5;1;1;1;1;4;1;1;5;1;4;4;5;4;3;Up
5;5;5;5;1;4;4;5;1;1;1;1;3;2;1;5;1;4;4;5;4;3;Down
4;4;5;5;1;4;4;5;1;1;1;1;4;2;1;5;1;4;4;5;4;3;Down
4;4;5;4;1;4;4;5;1;1;1;1;3;1;1;5;1;4;4;5;4;3;Up
4;4;4;4;1;4;4;5;1;1;1;1;3;1;1;5;1;4;4;4;4;3;Up
4;4;4;4;1;4;4;5;1;1;1;1;3;2;1;5;1;4;4;4;4;3;Down
4;4;4;4;1;4;3;5;1;1;1;1;3;2;1;5;1;4;4;4;5;3;Up
4;4;4;4;1;4;4;5;1;1;1;1;4;2;1;5;1;4;5;4;5;3;Down
4;4;4;4;1;4;4;5;1;1;1;1;3;3;1;5;1;4;5;4;5;3;Up
4;4;4;4;1;4;4;5;1;1;1;1;3;1;1;5;1;4;5;4;5;3;Down
4;4;4;4;1;4;4;5;1;1;1;1;4;3;1;5;1;4;5;4;5;3;Down
4;4;4;4;1;4;4;5;1;1;1;1;5;4;1;5;1;5;5;4;5;3;Up
4;4;4;4;1;4;4;5;1;1;1;1;4;2;1;5;1;4;4;4;5;3;Up
4;4;4;4;1;4;4;5;1;1;1;1;4;3;1;5;2;5;4;4;5;3;Up
4;4;4;4;1;4;4;5;1;1;1;1;3;1;1;5;1;4;4;3;5;3;Up
4;4;4;4;1;4;4;5;1;1;1;1;4;2;1;5;1;5;4;3;5;3;Down
4;4;4;4;1;4;4;5;1;1;1;1;4;1;1;5;1;4;3;3;1;1;Up
4;4;4;4;1;3;4;5;1;1;1;1;4;2;1;5;1;3;3;3;1;1;Up
4;4;4;4;1;3;4;5;1;1;1;1;3;1;1;5;1;3;2;3;1;1;Up
4;4;4;4;2;3;3;5;1;1;1;1;2;3;1;5;2;3;2;3;1;1;Down
4;4;4;4;1;4;4;5;1;1;1;1;3;2;1;5;1;4;2;3;1;1;Down
4;4;4;4;1;4;4;5;1;1;1;1;3;1;1;5;1;4;2;3;1;1;Down
4;4;4;4;1;4;4;5;1;1;1;1;3;2;1;5;1;3;2;3;1;1;Up
4;4;4;4;1;4;3;5;1;1;1;1;3;2;1;5;1;3;2;3;1;1;Down
4;4;4;4;1;4;3;5;1;1;1;1;3;2;1;5;1;3;3;3;1;1;Down
4;4;4;4;2;4;3;5;1;1;1;1;3;3;1;5;1;2;3;3;1;1;Down
4;4;4;4;2;4;4;5;1;1;1;1;4;2;1;5;1;3;3;4;1;1;Down
4;4;4;4;3;4;2;5;1;1;1;1;4;3;1;5;1;3;3;3;1;1;Up
5;5;5;5;3;5;3;5;1;1;1;1;3;3;1;5;2;4;4;4;1;1;Down
5;5;5;5;2;5;4;5;1;1;1;1;4;2;1;5;2;4;4;5;2;1;Down
5;5;5;5;1;5;4;5;1;1;1;1;4;2;1;5;1;4;4;4;2;1;Up
5;5;5;5;1;5;4;5;1;1;1;1;4;2;1;5;1;4;4;4;2;1;Up
5;5;5;5;1;4;4;5;1;1;1;1;4;2;1;5;1;4;4;4;2;1;Up
5;5;5;4;1;4;3;5;1;1;1;1;2;2;1;5;2;3;3;3;2;1;Up
5;5;5;5;1;5;4;5;1;1;1;1;3;2;1;5;1;3;4;4;2;1;Down
5;5;5;5;1;5;4;5;1;1;1;1;3;2;1;5;1;4;4;4;2;1;Down
5;5;5;5;1;5;3;5;1;1;1;1;3;2;1;5;1;4;4;4;2;1;Down
5;5;5;5;2;5;5;5;1;1;1;1;4;3;1;5;2;4;4;5;2;1;Down
5;5;5;5;1;4;4;5;1;1;1;1;3;2;1;5;1;4;3;3;2;1;Up
5;5;5;5;1;4;4;5;1;1;1;1;4;2;1;5;1;4;3;3;2;1;Down
5;5;5;5;1;4;3;5;5;5;5;5;3;2;1;1;#DIV/0!;3;2;1;2;1;Up
