Open Price;Max Daily;Min Daily;Close Price;vol;Adj Close;Returns;daily_3categ_return;open_price_change;high_price_change;low_price_change;close_price_change;daily_price_percent_change;high-low;adj.close-close;adj.close(t-1)-open(t);vol_percent_change;returns_m.a._3days;returns_m.a._7days;returns_m.a._30days;days_to-next-dividend;Dividends;Y
139,070007;139,1;137,57;137,62;3443300;131,528398;-0,012420733;Down;-0,509995;-1,34;-1,65;-1,72;-0,010426454;1,53;-6,091602;-5,897742;0,151836489;2,42E-05;0,002495315;-0,000590669;25;1,3;Down
139,580002;140,44;139,22;139,34;2989400;133,172265;-0,003152784;Down;1,330002;0,38;1,02;-0,44;-0,001719458;1,22;-6,167735;-5,987211;-0,241980881;0,002617775;0,002345315;0,000287975;26;1,3;Down
138,25;140,06;138,2;139,78;3943700;133,592791;0,015646151;Up;0,509995;2,015;1,66;2,17;0,011066908;1,86;-6,187209;-6,731155;0,254596933;0,002970235;0,000438964;0,000582548;27;1,3;Down
137,740005;138,045;136,54;137,61;3143400;131,518845;-0,004640042;Down;-0,689988;-0,835;-1,57;-0,64;-0,000943843;1,505;-6,091155;-5,609489;1,102327448;-0,000774218;-0,000163393;-0,000325842;28;1,3;Up
138,429993;138,88;138,11;138,25;1495200;132,130516;-0,002095403;Down;0,12999;-0,425;0;-0,29;-0,001300246;0,77;-6,119484;-6,02232;-0,710507464;0,006697333;0,002115456;-6,90E-05;29;1,3;Down
138,300003;139,305;138,11;138,54;5164900;132,407673;0,00441279;Up;2,419998;1,115;2,46;0,61;0,001735336;1,195;-6,132327;-6,47533;0,211337305;0,008875109;0,00363431;1,31E-05;30;1,3;Down
135,880005;138,19;135,65;137,93;4263800;131,824673;0,017774611;Up;0,050003;2,36;1,63;2,43;0,015086804;2,54;-6,105327;-6,377763;-0,240979083;0,002863937;0,001046558;0,000393859;31;1,3;Up
135,830002;135,83;134,02;135,5;5617500;129,502242;0,004437926;Up;-0,580002;-1,13;-0,25;0,6;-0,002429522;1,81;-5,997758;-6,901208;-0,439712351;-0,009195466;-0,001019814;-0,000107222;32;1,3;Up
136,410004;136,96;134,27;134,9;10026100;128,928794;-0,013620726;Down;-2,940002;-2,54;-2,0375;-1,85;-0,011069599;2,69;-5,971206;-5,713092;1,451668908;-0,007065674;-0,002885281;0,000365366;33;1,3;Up
139,350006;139,5;136,3075;136,75;4089500;130,696912;-0,018403599;Down;0,230011;-0,15;-1,4825;-2,54;-0,018658098;3,1925;-6,053088;-6,225531;-0,058911518;0,002004817;-0,002533568;0,001021869;34;1,3;Down
139,119995;139,65;137,79;139,29;4345500;133,124475;0,010827303;Up;1,720001;0,68;0,51;1,5;0,001222003;1,86;-6,165525;-7,429124;0,02524478;0,01149116;-0,001018882;0,00252963;35;1,3;Down
137,399994;138,97;137,28;137,79;4238500;131,690871;0,013590747;Up;2,089996;2,83;3,26;1,86;0,002838472;1,69;-6,099129;-7,486793;-0,175998289;0,002452317;-0,001020934;0,001594589;36;1,3;Up
135,309998;136,14;134,02;135,93;5143800;129,913201;0,010055429;Up;0,080002;0,7;0,11;1,36;0,004582086;2,12;-6,016799;-6,696584;-0,035621883;-0,001663387;-0,003419656;0,00030532;37;1,3;Up
135,229996;135,44;133,91;134,57;5333800;128,613414;-0,016289226;Down;-1,800003;-2,41;-1,8101;-2,21;-0,004880544;1,53;-5,956586;-4,504413;0,121771683;-0,008510467;-0,006082395;-0,000302985;38;1,3;Up
137,029999;137,85;135,7201;136,78;4754800;130,725583;0,001243636;Up;-0,350006;-1,99;-0,5099;0,17;-0,001824411;2,1299;-6,054417;-6,46689;0,030292524;-0,006683065;-0,002389644;0,000491153;39;1,3;Down
137,380005;139,84;136,23;136,61;4615000;130,563109;-0,01048581;Down;-0,899994;0,78;-1,3;-1,44;-0,005604928;3,61;-6,046891;-5,440633;0,181757656;-0,00919298;-0,001681421;-0,000542431;40;1,3;Up
138,279999;139,06;137,53;138,05;3905200;131,939372;-0,01080702;Down;-1,880005;-1,35;-1,28;-1,5;-0,001663285;1,53;-6,110628;-4,907023;0,19082759;-0,002094083;4,53E-05;-0,000177452;41;1,3;Down
140,160004;140,41;138,81;139,55;3279400;133,372976;-0,006286111;Down;2,070008;-0,61;0,82;-0,88;-0,004352197;1,6;-6,177024;-5,94599;-0,28265815;-0,000358086;0,000853857;-0,000248118;42;1,3;Down
138,089996;141,02;137,99;140,43;4571600;134,214014;0,010810883;Up;-2,01001;0,29;-0,2;1,51;0,0169455;3,03;-6,215986;-5,319139;-0,226411263;-0,002011544;0,001765946;-4,25E-05;43;1,3;Down
140,100006;140,73;138,19;138,92;5909600;132,770857;-0,00559903;Down;-0,829987;-0,48;-1,31;-0,78;-0,008422598;2,54;-6,149143;-6,583676;0,586299458;-0,001197577;0,000378486;-4,76E-05;44;1,3;Up
140,929993;141,21;139,5;139,7;3725400;133,51633;-0,011246485;Down;1,349991;-0,19;-0,08;-1,58;-0,008727688;1,71;-6,18367;-5,903598;-0,111963958;0,002971906;0,002676986;0,00030091;45;1,3;Down
139,580002;141,4;139,58;141,28;4195100;135,026395;0,013252783;Up;0,970001;1,5;1,06;1,86;0,012179381;1,82;-6,253605;-6,331277;-0,077107533;0,007830014;0,004926649;0,000659859;46;1,3;Down
138,610001;139,9;138,52;139,42;4545600;133,248725;0,00690942;Up;0,610001;1,09;1,31;0,96;0,005843727;1,38;-6,171275;-6,278774;2,210622969;0,001966272;0,005124409;-3,30E-05;47;1,3;Up
138;138,81;137,21;138,46;1415800;132,331227;0,003327838;Up;-0,369995;0,38;-0,165;0,46;0,003333333;1,6;-6,128773;-6,108418;-0,562781792;-3,33E-10;0,004363525;0,000621787;48;1,3;Up
138,369995;138,43;137,375;138;3238200;131,891582;-0,004338442;Down;0,720001;-0,91;0,065;-0,6;-0,002673954;1,055;-6,108418;-5,904966;-0,049740294;-0,001205547;0,005793438;-0,001402693;49;1,3;Up
137,649994;139,34;137,31;138,6;3407700;132,465029;0,001010603;Up;-0,880005;0,47;0,19;0,14;0,006901606;2,03;-6,134971;-5,318767;-0,33675237;0,004503591;0,005117793;-0,001527079;50;1,3;Down
138,529999;138,87;137,12;138,46;5137900;132,331227;-0,000288802;Down;1,160004;-0,045;-0,13;-0,04;-0,000505298;1,75;-6,128773;-6,160549;-0,007437601;0,006416997;0,003144823;-0,001387276;51;1,3;Up
137,369995;138,915;137,25;138,5;5176400;132,36945;0,012788971;Up;1,159988;1,1795;1,24;1,76;0,008225996;1,665;-6,13055;-6,682635;0,088943117;0,011458219;0,002765013;-0,000362979;52;1,3;Down
136,210007;137,7355;136,01;136,74;4753600;130,68736;0,006750823;Up;1,420014;1,8255;1,75;0,92;0,003890999;1,7255;-6,05264;-6,401923;0,145666635;0,007469344;0,001314117;-0,000853891;53;1,3;Up
134,789993;135,91;134,26;135,82;4149200;129,808084;0,014834864;Up;0,569992;1,09;0,95;2;0,007641569;1,65;-6,011916;-6,893381;0,473908565;0,010141449;-0,002216639;-0,003852487;54;1,3;Up
134,220001;134,82;133,31;133,82;2815100;127,896612;0,000822346;Up;2,430008;0,73;1,52;0,11;-0,002980189;1,51;-5,923388;-6,428521;-0,328266679;0,001948629;-0,00437803;-0,004881808;55;1,3;Up
131,789993;134,09;131,79;133,71;4190800;127,79148;0,014767137;Up;-1,160004;1,09;0,14;1,96;0,014568686;2,3;-5,91852;-5,871762;-0,091681477;-0,003249874;-0,006026031;-0,004828422;56;1,3;Up
132,949997;133;131,65;131,75;4613800;125,918231;-0,009743596;Down;-1,75;-1,7;-1,36;-1,29;-0,009025927;1,35;-5,831769;-5,798873;-0,018632748;-0,009281347;-0,008092375;-0,005475421;57;1,3;Up
134,699997;134,7;133,01;133,04;4701400;127,151124;-0,014773163;Down;-1,389999;-1,5;-1,49;-1,98;-0,01232366;1,69;-5,888876;-5,656505;0,485528311;-0,005639547;-0,005536937;-0,004914202;58;1,3;Down
136,089996;136,2;134,5;135,02;3164800;129,043492;-0,003327281;Down;0,729995;0,465;0,38;-0,45;-0,007862415;1,7;-5,976508;-6,616425;-0,299946912;-0,007880232;-0,003431784;-0,004702142;59;1,3;Down
135,360001;135,735;134,12;135,47;4520800;129,473571;0,001181804;Up;-2,559997;-2,345;-0,76;0,16;0,00081264;1,615;-5,996429;-6,039352;-0,440190203;-0,007589895;-0,003434577;-0,004925287;60;1,3;Down
137,919998;138,08;134,88;135,31;8075600;129,320649;-0,02149522;Down;-0,680008;-1,47;-2,99;-2,94;-0,018924;3,2;-5,989351;-5,789482;0,701953677;-0,012104384;-0,003831075;-0,004946183;61;1,3;Up
138,600006;139,55;137,87;138,25;4744900;132,130516;-0,002456269;Down;-3,009995;-2,83;-1,76;-1,64;-0,002525296;1,68;-6,119484;-6,144543;-0,069061586;-0,005527181;0,00152018;-0,00331068;0;1,3;Down
141,610001;142,38;139,63;139,89;5096900;132,455463;-0,012361663;Down;-0,940002;-0,27;-1,67;-1,74;-0,012146042;2,75;-7,434537;-7,507006;0,449259291;-0,001141788;-0,003324128;-0,002800559;1;1,3;Down
142,550003;142,65;141,3;141,63;3516900;134,102995;-0,00176361;Down;2,529999;-0,15;1,4;-0,25;-0,006453897;1,35;-7,527005;-8,210294;-0,191405711;0,003668118;-0,002663287;-0,002318028;2;1,3;Down
140,020004;142,8;139,9;141,88;4349400;134,339709;0,01069991;Up;-0,479996;2,2835;0,33;1,51;0,013283788;2,9;-7,540291;-7,110055;0,137931034;0,003139448;-0,001932052;-0,000856879;3;1,3;Down
140,5;140,5165;139,57;140,37;3822200;132,909949;0,002068055;Up;0,059998;-0,8135;-0,33;0,29;-0,000925267;0,9465;-7,460051;-7,864632;-0,04061245;-0,001090583;-0,000488823;-0,00103092;4;1,3;Up
140,440002;141,33;139,9;140,08;3984000;132,635368;-0,00334962;Down;0,080001;0,51;0,8799;-0,47;-0,002563386;1,43;-7,444632;-7,359611;0,07373868;0,005325006;-0,000498716;-0,001559688;5;1,3;Up
140,360001;140,82;139,0201;140,55;3710400;133,080391;-0,001990183;Down;2,440003;-0,41;1,5201;-0,28;0,001353655;1,7999;-7,469609;-7,014492;-0,564067016;-0,007295366;-0,007482302;-0,000616734;6;1,3;Down
137,919998;141,23;137,5;140,83;8511400;133,345509;0,021314822;Up;-5,589997;-2,6;0,17;2,97;0,021099203;3,73;-7,484491;-7,386648;-0,432894693;-0,008990283;-0,008209802;-0,000542221;7;1,3;Down
143,509995;143,83;137,33;137,86;15008500;130,53335;-0,041210737;Down;-1,240005;-1,17;-5,88;-5,8;-0,039370045;6,5;-7,32665;-7,484887;3,301169255;-0,014733133;-0,010624551;-0,002426701;8;1,3;Up
144,75;145;143,21;143,66;3489400;136,025108;-0,007074934;Down;0,139999;-0,49;-0,49;-1,02;-0,007530225;1,79;-7,634892;-7,759111;-0,35025324;0,006419026;-0,005406563;-0,000236686;9;1,3;Down
144,610001;145,49;143,7;144,68;5370400;136,990889;0,004086273;Up;2,869996;0,42;2,08;0,59;0,000484054;1,79;-7,689111;-8,177752;-0,038114343;0,009440308;-0,004196796;0,000321588;10;1,3;Down
141,740005;145,07;141,62;144,09;5583200;136,432249;0,02224574;Up;1,490005;2,41;2,32;3,17;0,016579617;3,45;-7,657751;-8,309283;-0,201327497;-0,01166122;-0,005971059;-0,000107129;11;1,3;Up
140,25;142,66;139,3;140,92;6990600;133,430722;0,00198891;Up;-2,240005;-0,22;-0,97;0,28;0,004777184;3,36;-7,489278;-7,084396;-0,561134549;-0,02167986;-0,009781335;-0,001758933;12;1,3;Up
142,490005;142,88;140,27;140,64;15928800;133,165604;-0,059218309;Down;-7,360001;-7,09;-8,11;-8,58;-0,012983402;2,61;-7,474396;-1,200388;1,00243881;-0,021677219;-0,009939687;-0,001233875;13;1,3;Up
149,850006;149,97;148,38;149,22;7954700;141,289617;-0,007810181;Down;-0,599991;-1,23;-0,88;-1,17;-0,004204244;1,59;-7,930383;-7,452571;1,283405575;-0,001760061;-0,000726669;0,00033018;14;1,3;Down
150,449997;151,2;149,26;150,39;3483700;142,397435;0,001996832;Up;-0,460007;-0,04;0,68;0,3;-0,000398784;1,94;-7,992565;-8,336622;0,002157528;0,001711068;0,001345403;0,000602417;15;1,3;Down
150,910004;151,24;148,58;150,09;3476200;142,113375;0,000533167;Up;1,309998;0,59;-0,44;0,08;-0,005433729;2,66;-7,976625;-8,872379;0,036743215;-0,002323822;0,000877551;0,00078198;16;1,3;Up
149,600006;150,65;149,02;150,01;3353000;142,037625;0,002603204;Up;-1,179993;-0,13;-0,16;0,39;0,002740601;1,63;-7,972375;-7,931653;-0,143703552;-0,005247032;0,004608615;0,001340704;17;1,3;Up
150,779999;150,78;149,18;149,62;3915700;141,668353;-0,010107836;Down;-1,619995;-1,8;-1,67;-1,52;-0,007693321;1,6;-7,951647;-7,672424;0,213192465;-0,005874069;0,00514209;0,000688742;18;1,3;Up
152,399994;152,58;150,85;151,14;3227600;143,107575;-0,008236465;Down;-0,060013;-0,567;-0,42;-1,25;-0,008267677;1,73;-8,032425;-8,108851;-0,085950554;0,002323822;0,005209965;0,001510501;19;1,3;Down
152,460007;153,147;151,27;152,39;3531100;144,291143;0,000722093;Up;2,770005;0,128;1,98;0,11;-0,000459183;1,877;-8,098857;-8,273018;-0,263494911;0,007991441;0,008413945;0,00224384;20;1,3;Down
149,690002;153,019;149,29;152,28;4794400;144,186989;0,014485837;Up;-0,349991;2,289;0,4335;2,19;0,017302411;3,729;-8,093011;-7,576627;0,608427268;0,007168748;0,008279819;0,001532953;21;1,3;Up
150,039993;150,73;148,8565;150,09;2980800;142,113375;0,008766393;Up;0,979995;0,58;0,3665;1,31;0,000333291;1,8735;-7,976625;-9,166995;-0,012358769;0,012467362;0,003951124;0,001977605;22;1,3;Up
149,059998;150,15;148,49;148,78;3018100;140,872998;-0,001745985;Down;3,239991;0,2575;2,67;-0,26;-0,001878425;1,66;-7,907002;-7,940823;-0,41188277;0,011835567;0,003726524;0,000615174;23;1,3;Up
145,820007;149,8925;145,82;149,04;5131800;141,119175;0,030381677;Up;4,770004;5,3025;5,26;4,46;0,02208197;4,0725;-7,920825;-8,923794;0,680133578;0,009229283;0,004595658;0,001233461;24;1,3;Down
141,050003;144,59;140,56;144,58;3054400;136,896213;0,006871009;Up;-4,259995;-1,08;-1,03;0,99;0,025026565;4,03;-7,683787;-5,091181;-0,212966065;0,004900515;0,000129761;0,000601304;25;1,3;Up
145,309998;145,67;141,59;143,59;3880900;135,958822;-0,009564837;Down;1,619996;-0,04;-2,07;-1,38;-0,011836749;4,08;-7,631178;-8,044513;-0,016547565;0,002493207;-0,00249086;-0,001341216;26;1,3;Up
143,690002;145,71;143,66;144,97;3946200;137,265485;0,017395373;Up;1,699997;3,05;2,5099;2,5;0,008908052;2,05;-7,704515;-8,791653;-0,171575522;-0,001033088;0,00039727;-0,000934103;27;1,3;Down
141,990005;142,66;141,1501;142,47;4763500;134,898349;-0,000350914;Down;-2,429993;-2,72;-1,3199;-0,05;0,003380484;1,5099;-7,571651;-7,04431;0,103351632;-0,004508348;-0,004878289;-0,00189649;28;1,3;Up
144,419998;145,38;142,47;142,52;4317300;134,945695;-0,020143724;Down;-1,130005;-0,89;-2,06;-2,9;-0,013156059;2,91;-7,574305;-6,728431;0,242603039;-0,002655683;-0,005062046;-0,001313968;29;1,3;Down
145,550003;146,27;144,53;145,42;3474400;137,691567;0,006969595;Up;2,949997;1,2;2,58;1,01;-0,000893184;1,74;-7,728433;-8,814754;0,059171417;0,002277061;-0,00180068;0,001415904;30;1,3;Down
142,600006;145,07;141,95;144,41;3280300;136,735249;0,005207081;Up;-1,610001;0,5;-0,8;0,75;0,012692805;3,12;-7,674751;-6,574898;0,226647222;-0,004744123;-0,001068742;0,000296843;31;1,3;Up
144,210007;144,57;142,75;143,66;2674200;136,025108;-0,005345492;Down;-0,409988;-0,49;-1,0199;-0,77;-0,003813931;1,82;-7,634892;-7,455831;-0,249684352;-0,001966418;-0,003187122;-0,001613169;32;1,3;Up
144,619995;145,06;143,7699;144,43;3564100;136,754176;-0,014093958;Down;-0,770004;-1,92;-1,1501;-2,05;-0,001313753;1,2901;-7,675824;-5,924765;-0,06820915;-0,008454286;-0,001522577;-0,002519015;33;1,3;Down
145,389999;146,98;144,92;146,48;3825000;138,69523;0,013540197;Up;-0,660004;0,595;0,94;1,97;0,007497084;2,06;-7,78477;-8,560073;-0,520424283;-0,00436329;0,001226293;-0,002257912;34;1,3;Down
146,050003;146,385;143,98;144,51;7975800;136,829926;-0,024809096;Down;-2,050003;-3,295;-3,32;-3,63;-0,010544354;2,405;-7,680074;-5,782991;0,992455658;-0,006894288;-0,002330911;-0,003480518;35;1,3;Up
148,100006;149,68;147,3;148,14;4003000;140,267012;-0,001820972;Down;0,26001;0,79;-0,24;-0,27;0,000270047;2,38;-7,872988;-7,577339;0,430051443;0,005650443;0,00380375;-0,002440156;36;1,3;Down
147,839996;148,89;147,54;148,41;2799200;140,522667;0,005947205;Up;1,23999;0,96;1,78;0,88;0,003855547;1,35;-7,887333;-8,150566;0,030216039;0,002344114;0,001380485;-0,002194246;37;1,3;Down
146,600006;147,93;145,76;147,53;2717100;139,68943;0,012825096;Up;-0,769989;0,56;0,35;1,88;0,006343751;2,17;-7,84057;-8,690667;-0,157932253;0,00301867;0,002119126;-0,002265688;38;1,3;Up
147,369995;147,37;145,41;145,65;3226700;137,909339;-0,011739958;Down;1,459991;-0,13;-0,26;-1,72;-0,01167127;1,96;-7,740661;-7,832065;0,035825495;0,00137597;0,002575266;-0,003167032;39;1,3;Up
145,910004;147,5;145,67;147,37;3115100;139,53793;0,007970872;Up;0,059998;0,34;1,16;1,17;0,01000614;1,83;-7,83207;-7,479892;-0,100124216;0,000316812;-0,000440294;-0,0024438;40;1,3;Down
145,850006;147,16;144,51;146,2;3461700;138,430112;0,007896996;Up;-2,889999;-1,88;-0,34;1,15;0,002399685;2,65;-7,769888;-8,508771;0,015816656;0,005749251;-0,001512697;-0,003167121;41;1,3;Up
148,740005;149,04;144,85;145,05;3407800;137,341235;-0,014917432;Down;2,880004;1,7;-0,81;-2,18;-0,024808423;4,19;-7,708765;-9,334634;-0,133602827;-0,003952111;-0,002971964;-0,00305093;42;1,3;Up
145,860001;147,34;145,66;147,23;3933300;139,405371;0,02426819;Up;1,289994;1,94;2,34;3,53;0,009392561;1,68;-7,824629;-9,797025;-0,06374521;0,004972477;0,000450787;-0,002723149;43;1,3;Down
144,570007;145,4;143,32;143,7;4201100;136,062976;-0,021207092;Down;-1,479996;-2,63;-2,45;-3,08;-0,006017894;2,08;-7,637024;-5,590717;0,165838768;0,002374486;0,002406445;-0,00390759;44;1,3;Up
146,050003;148,03;145,77;146,78;3603500;138,97929;0,011856334;Up;1,309998;2,95;2,59;1,73;0,004998268;2,26;-7,80071;-8,708768;-0,152516463;-0,002511295;0,002851112;-0,002857191;45;1,3;Down
144,740005;145,08;143,18;145,05;4252000;137,341235;0,016474217;Up;-0,169999;0,1;1,33;2,37;0,002141737;1,9;-7,708765;-9,642824;-0,193474962;-0,006666191;-0,003232575;-0,003715137;46;1,3;Up
144,910004;144,98;141,85;142,68;5272000;135,097181;-0,035864435;Down;-2,470001;-3,42;-4,41;-5,21;-0,015388889;3,13;-7,582819;-4,879706;0,288021304;-0,013416642;-0,008451117;-0,005393781;47;1,3;Up
147,380005;148,4;146,26;147,89;4093100;140,030298;-0,000608355;Down;-0,369995;0,2;-0,92;-0,09;0,003460408;2,14;-7,859702;-7,264493;0,004121385;0,002693028;-0,005011774;-0,003473638;48;1,3;Down
147,75;148,2;147,18;147,98;4076300;140,115512;-0,003777135;Down;-0,75;-0,77;1,52;-0,56;0,001556684;1,02;-7,864488;-7,104252;-0,180906643;0,016200298;-0,006605372;-0,00348268;49;1,3;Down
148,5;148,97;145,66;148,54;4976600;140,645748;0,012464575;Up;4,410004;1,99;3,52;1,84;0,00026936;3,31;-7,894252;-9,596461;-0,200135009;0,011576091;-0,00637337;-0,003016587;50;1,3;Down
144,089996;146,98;142,14;146,7;6221800;138,903539;0,039913454;Up;-2,850006;-0,13;1,52;5,74;0,018113707;4,84;-7,796461;-10,621392;-0,120369847;-0,004849822;-0,007482812;-0,003303982;51;1,3;Up
146,940002;147,11;140,62;140,96;7073200;133,468604;-0,017649757;Down;3,470001;-0,65;-1,7;-2,51;-0,040696896;6,49;-7,491396;-11,094798;-0,305848062;-0,026579014;-0,011925059;-0,005312125;52;1,3;Up
143,470001;147,76;142,32;143,47;10189700;135,845204;-0,036813163;Down;-8,029999;-5,43;-6,38;-5,38;-6,97E-09;5,44;-7,624796;-2,530716;0,384075196;-0,02347899;-0,010594398;-0,005069779;53;1,3;Down
151,5;153,19;148,7;148,85;7362100;140,939285;-0,025274122;Down;-1,240005;-0,72;-3,8;-3,81;-0,017491749;4,49;-7,910715;-6,953202;0,83524866;-0,015660316;-0,005471359;-0,003006941;54;1,3;Down
152,740005;153,91;152,5;152,66;4011500;144,546798;-0,008349685;Down;-2,409989;-1,76;-0,91;-1,28;-0,000523799;1,41;-8,113202;-6,981234;-0,03964473;-0,007875983;-0,003304866;-0,002622691;55;1,3;Down
155,149994;155,67;153,41;153,94;4177100;145,758771;-0,01335714;Down;-0,360001;-0,85;-1,84;-2,07;-0,007798866;2,26;-8,181229;-7,431242;1,069613041;-0,003896408;-0,000954506;-0,004987836;56;1,3;Down
155,509995;156,52;155,25;156,01;2018300;147,718752;-0,001921125;Down;0,309998;-0,17;0,55;-0,3;0,00321526;1,27;-8,291248;-7,507184;-0,102818279;0,002014466;-0,000248145;-0,004193998;57;1,3;Down
155,199997;156,69;154,7;156,31;2249600;148,002811;0,003589041;Up;0,199997;0,48;0,12;0,56;0,007152081;1,99;-8,307189;-7,727422;-0,302752294;0,000320017;-0,000231693;-0,003707055;58;1,3;Down
155;156,21;154,58;155,75;3226400;147,472575;0,004375482;Up;-1,059998;0,12;0,2629;0,68;0,00483871;1,63;-8,277425;-8,171279;0,273545433;0,000514053;-0,000442614;-0,003208839;59;1,3;Up
156,059998;156,09;154,3171;155,07;2533400;146,828721;-0,007004472;Down;1,800003;-0,43;0,3671;-1,09;-0,006343701;1,7729;-8,241279;-8,199209;-0,28843075;-0,003591834;-0,001866857;-0,003429297;60;1,3;Up
154,259995;156,52;153,95;156,16;3560300;147,860789;0,00417115;Up;-1,700012;0,53;-0,91;0,65;0,0123169;2,57;-8,299211;-7,014671;0,124151432;0,00222739;-0,003548293;-0,00331802;61;1,3;Down
155,960007;155,99;154,86;155,51;3167100;147,245324;-0,007942179;Down;-0,809997;-1,4752;-1,26;-1,24;-0,0028854;1,13;-8,264676;-7,540578;-0,313499805;-0,001731746;-0,003272349;-0,002850782;62;1,3;Up
156,770004;157,4652;156,12;156,75;4613400;148,419429;0,010453198;Up;0,880005;1,2152;1,785;1,63;-0,000127601;1,3452;-8,330571;-9,893952;0,215684208;0,000319145;-0,002380484;-0,001637822;63;1,3;Down
155,889999;156,25;154,335;155,12;3794900;146,876052;-0,007706257;Down;-1,240006;-1,29;-1,845;-1,2;-0,004939374;1,915;-8,243948;-7,87771;0,262945953;-0,002531364;-0,002877521;-0,001921146;64;1,3;Up
157,130005;157,54;156,18;156,32;3004800;148,012289;-0,001789506;Down;-1,970001;-2;-1,3;-1,58;-0,005154999;1,36;-8,307711;-8,85261;-0,134761576;-0,002302099;-0,001146503;-0,002080595;0;1,3;Down
159,100006;159,54;157,48;157,9;3472800;148,277395;0,001901672;Up;0,700012;0,72;0,61;0,3;-0,007542464;2,06;-9,622605;-11,104318;-0,339847166;-0,00852425;-0,001456026;-0,001924812;1;1,3;Down
158,399994;158,82;156,87;157,6;5260600;147,995688;-0,007018464;Down;-3,300003;-3,03;-1,03;-1,11;-0,005050467;1,95;-9,604312;-9,36195;0,139718786;-0,007031905;-0,003233505;-0,002110479;2;1,3;Up
161,699997;161,85;157,9;158,71;4615700;149,038044;-0,020455959;Down;0,300003;-0,21;-2,73;-3,28;-0,018491015;3,95;-9,671956;-9,581841;0,289229652;-0,004961505;-0,001285036;-0,001625961;3;1,3;Down
161,399994;162,06;160,63;161,99;3580200;152,118156;0,006378707;Up;0,899994;0,66;0,88;1,03;0,003655552;1,43;-9,871844;-10,249067;0,794856369;0,004016117;-0,000830621;-0,000187615;4;1,3;Down
160,5;161,4;159,75;160,96;1994700;151,150927;-0,000807264;Down;0,5;-0,1;0,36;-0,13;0,002866044;1,65;-9,809073;-9,227005;-0,409572579;0,003937176;-0,009175818;-0,000564101;5;1,3;Up
160;161,5;159,39;161,09;3378400;151,272995;0,006476907;Up;0,089996;1,31;0,89;1,04;0,0068125;2,11;-9,817005;-9,70362;0,241602352;0,002784367;-0,008561498;-0,001216651;6;1,3;Down
159,910004;160,19;158,5;160,05;2721000;150,29638;0,006141884;Up;0,910004;0,01;-0,1;0,98;0,000875467;1,69;-9,75362;-10,533898;-0,265824834;-0,003480655;-0,008272159;-0,00168106;7;1,3;Up
159;160,18;158,6;159,07;3706200;149,376106;-0,004265689;Down;-2,289993;-1,75;-0,81;-0,68;0,000440252;1,58;-9,693894;-8,985341;-0,019056694;-0,00267152;-0,00722117;-0,002203171;8;1,3;Up
161,289993;161,93;159,41;159,75;3778200;150,014659;-0,012318161;Down;1,019989;-0,82;-0,42;-1,98;-0,009547976;2,52;-9,735341;-9,416001;-0,249493465;-0,006856504;-0,006747284;-0,002456252;9;1,3;Down
160,270004;162,75;159,83;161,73;5034200;151,873992;0,008569291;Up;-2,459992;-0,3195;0,13;1,38;0,009109602;2,92;-9,856008;-9,691904;-0,299033668;-0,022878073;-0,005777061;-0,001655785;10;1,3;Down
162,729996;163,0695;159,7;160,35;7181800;150,5781;-0,016820641;Down;-1,61;-3,2805;-2,32;-2,72;-0,014625429;3,3695;-9,7719;-9,597654;-0,477774627;-0,024365405;-0,005041923;-0,001844318;11;1,3;Up
164,339996;166,35;162,02;163,07;13752300;153,132342;-0,060382868;Down;-8,449997;-7,43;-10,12;-10,15;-0,007727857;4,33;-9,937658;-1,676212;0,864010952;-0,015827985;-0,000596476;-0,001421426;12;1,3;Down
172,789993;173,78;172,14;173,22;7377800;162,663784;0,004107295;Up;2,459991;1,26;2,04;0,71;0,002488611;1,64;-10,556216;-10,792947;0,693554311;0,009149568;0,007478891;0,001615965;13;1,3;Down
170,330002;172,52;170,1;172,51;4356400;161,997046;0,008791619;Up;0,860001;1,43;0,94;1,51;0,012798673;2,42;-10,512954;-9,75093;0,23414261;0,007622272;0,005563713;0,001519088;14;1,3;Up
169,470001;171,09;169,16;171;3529900;160,579072;0,014549791;Up;0,990005;1,82;1,16;2,47;0,009028141;1,93;-10,420928;-11,210406;0,766716717;0,003172939;0,004669476;0,001277762;15;1,3;Up
168,479996;169,27;168;168,53;1998000;158,259595;-0,000474595;Down;-0,949997;-0,27;-0,24;-0,08;0,000296795;1,27;-10,270405;-10,145274;-0,339569629;0,003139807;0,002577876;0,000417264;16;1,3;Up
169,429993;169,54;168,24;168,61;3025300;158,334722;-0,004556379;Down;1,5;-0,35;0,72;-0,77;-0,004839716;1,3;-10,275278;-10,372192;-0,284629936;0,009545651;0,003092318;-4,58E-05;17;1,3;Down
167,929993;169,89;167,52;169,38;4229000;159,057801;0,014450395;Up;2,269989;2,49;2,005;2,43;0,008634592;2,37;-10,322199;-11,154113;-0,068153273;0,012471133;0,005060323;0,000123614;18;1,3;Down
165,660004;167,4;165,515;166,95;4538300;156,77588;0,018742936;Up;0,320008;1,89;1,815;3,1;0,007787009;1,885;-10,17412;-11,795198;0,09660505;0,003916291;0,003016025;0,000347099;19;1,3;Up
165,339996;165,51;163,7;163,85;4138500;153,864806;0,004220069;Up;1,339996;0,57;1,02;0,69;-0,009011709;1,81;-9,985194;-12,123142;0,490653027;-0,001785446;-0,001222263;-0,000411479;20;1,3;Up
164;164,94;162,68;163,16;2776300;153,216854;-0,011214131;Down;-0,940002;-0,41;0,4483;-1,84;-0,005121951;2,26;-9,943146;-9,055282;-0,217921632;-0,003919805;-0,002217284;-0,001166126;21;1,3;Up
164,940002;165,35;162,2317;165;3549900;154,944718;0,001637724;Up;1,11;0,12;-1,2883;0,27;0,000363757;3,1183;-10,055282;-10,248833;0,152639782;0,001031885;-0,001483587;-0,000921722;22;1,3;Down
163,830002;165,23;163,52;164,73;3079800;154,691169;-0,002183009;Down;-1,220001;-0,09;-0,9;-0,36;0,005493487;1,71;-10,038831;-8,800772;0,079608792;0,004215197;-0,002917486;-0,001409999;23;1,3;Up
165,050003;165,32;164,42;165,09;2852700;155,02923;0,003640941;Up;1,080002;-0,29;0,82;0,6;0,000242333;0,9;-10,06077;-10,584199;-0,112552497;0,004308204;-0,001983095;-0,001238486;24;1,3;Down
163,970001;165,61;163,6;164,49;3214500;154,465804;0,011187659;Up;-0,020004;1,61;1,48;1,83;0,003171306;2,01;-10,024196;-11,222677;-0,106413143;-0,0019599;-0,001885519;-0,001545766;25;1,3;Up
163,990005;164;162,12;162,66;3597300;152,747324;-0,001903987;Down;0,070007;-1,35;-0,77;-0,31;-0,008110281;1,88;-9,912676;-10,951575;0,085256584;-0,006935819;-0,004223602;-0,001912514;26;1,3;Up
163,919998;165,35;162,89;162,97;3314700;153,03843;-0,015163373;Down;-2,309998;-1,4616;-2,34;-2,49;-0,005795498;2,46;-9,93157;-8,543306;-0,629476861;-0,008082674;-0,003180639;-0,002374587;27;1,3;Down
166,229996;166,8116;165,23;165,46;8946000;155,376692;-0,003740097;Down;-1,570007;-1,3184;-0,85;-0,62;-0,004632112;1,5816;-10,083308;-10,271092;2,713728258;-0,006306039;-0,001038216;-0,001762044;28;1,3;Down
167,800003;168,13;166,08;166,08;2408900;155,958904;-0,005344553;Down;-0,910004;-0,71;-0,7501;-0,89;-0,010250316;2,05;-10,121096;-11,005337;-0,32107325;-0,003295302;-0,000135398;-0,001095148;29;1,3;Down
168,710007;168,84;166,8301;166,97;3548100;156,794666;-0,009833468;Down;0,330002;-1,13;-0,7429;-1,65;-0,010313597;2,0099;-10,175334;-10,3659;-0,041468554;-3,99E-05;-1,50E-05;-0,001407208;30;1,3;Down
168,380005;169,97;167,573;168,62;3701600;158,344107;0,005292116;Up;0,730011;1,63;0,373;0,89;0,001425318;2,397;-10,275893;-10,87166;0,58472472;0,000732221;-0,000118556;-0,001254879;31;1,3;Down
167,649994;168,34;167,2;167,73;2335800;157,508345;0,004421552;Up;0,029999;-0,08;0,43;0,74;0,00047722;1,14;-10,221655;-10,836543;-0,669804919;0,001114755;-0,000883713;-0,001605431;32;1,3;Up
167,619995;168,42;166,77;166,99;7074000;156,813451;-0,007517005;Down;0,569992;-0,3;-0,28;-1,26;-0,003758472;1,65;-10,176549;-9,623335;1,123750338;0,000299573;0,000984474;-0,001733106;33;1,3;Up
167,050003;168,72;167,05;168,25;3330900;157,99666;0,006439719;Up;0,050003;0,8724;0,95;1,08;0,00718346;1,67;-10,25334;-10,067528;0,163429969;0,003966057;0,002180879;-0,001281244;34;1,3;Down
167;167,8476;166,1;167,17;2863000;156,982475;0,001976006;Up;0,669998;0,4476;0,19;0,33;0,001017964;1,7476;-10,187525;-10,327417;-0,119022709;0,000359096;-0,000171859;-0,001626458;35;1,3;Up
166,330002;167,4;165,91;166,84;3249800;156,672583;0,003482447;Up;-0,660003;0,96;1,66;0,58;0,003066182;1,49;-10,167417;-10,202074;-0,234566738;-0,003853613;-0,001148514;-0,001923063;36;1,3;Up
166,990005;166,44;164,25;166,26;4245700;156,127928;-0,004381166;Down;-1,239991;-1,86;-2,44;-0,73;-0,004371549;2,19;-10,132072;-10,176554;0,385175035;-0,005290808;-0,002721867;-0,001616739;37;1,3;Up
168,229996;168,3;166,69;166,99;3065100;156,813451;-0,01066212;Down;-1,029999;-2,14;-1,85;-1,79;-0,007370838;1,61;-10,176549;-9,735636;-0,115155889;0,002625263;-0,001975437;-0,000958844;38;1,3;Down
169,259995;170,44;168,54;168,78;3464000;158,49436;-0,000829137;Down;2,76999;1,05;2,48;-0,14;-0,002835844;1,9;-10,28564;-10,634167;-0,259908129;0,006864049;-0,001032572;-0,000625861;39;1,3;Down
166,490005;169,39;166,06;168,92;4680500;158,625828;0,019367046;Up;1,150009;3,37;2,69;3,24;0,014595441;3,33;-10,294172;-10,906733;0,37827969;0,003013033;-0,00053903;-0,001000678;40;1,3;Down
165,339996;166,02;163,37;165,68;3395900;155,583272;0,002054238;Up;-1,830002;-1,26;-1,65;0,34;0,002056393;2,65;-10,096728;-10,076001;-0,096522734;-0,005388394;-0,004468609;-0,001433951;41;1,3;Up
167,169998;167,28;165,02;165,34;3758700;155,263995;-0,012382184;Down;-1,080002;-1,6303;-2,18;-2,06;-0,010946928;2,26;-10,076005;-9,971544;0,212288341;-0,009107931;-0,004936318;-0,001276754;42;1,3;Up
168,25;168,9103;167,2;167,4;3100500;157,198454;-0,005837237;Down;-1,279999;-1,6897;-0,73;-0,98;-0,005052006;1,7103;-10,201546;-10,131258;0,006884682;-0,004450445;-0,002022095;-0,001174022;43;1,3;Down
169,529999;170,6;167,93;168,38;3079300;158,118742;-0,009104372;Down;-0,970001;-0,9601;-1,7;-1,54;-0,006783454;2,67;-10,261258;-9,965112;0,446903487;-0,003544434;-0,002818672;-0,001141827;44;1,3;Down
170,5;171,5601;169,63;169,92;2128200;159,564887;0,001590273;Up;0,839996;1,1101;1,2;0,27;-0,00340176;1,9301;-10,355113;-11,188663;-0,172357471;0,000530091;-0,002490904;-0,00064954;45;1,3;Down
169,660004;170,45;168,43;169,65;2571400;159,311337;-0,003119202;Down;-0,550003;-0,59;-0,6;-0,53;-5,90E-05;2,02;-10,338663;-9,850967;-0,138703735;-0,004023196;-0,002992193;-9,46E-05;46;1,3;Up
170,210007;171,04;169,03;170,18;2985500;159,809037;0,003119202;Up;-1,139999;-0,31;-0,62;0,53;-0,000176294;2,01;-10,370963;-10,89867;-0,27040567;-0,00354594;-0,002400704;-0,000770704;47;1,3;Down
171,350006;171,35;169,65;169,65;4092000;159,311337;-0,012069589;Down;-0,099991;-0,49;-1,01;-2,06;-0,009921249;1,7;-10,338663;-10,104196;1,363405337;-0,000941807;-0,002487611;-0,00078721;48;1,3;Up
171,449997;171,84;170,66;171,71;1731400;161,24581;-0,001687432;Down;0,289993;-0,64;0,17;-0,29;0,001516495;1,18;-10,46419;-9,931866;-0,373679641;-0,000988564;-0,001123285;0,000602865;49;1,3;Down
171,160004;172,48;170,49;172;2764400;161,518131;0,0109316;Up;-0,949997;0,36;1,36;1,87;0,004907665;1,99;-10,481869;-11,397909;-0,282756473;-0,002586828;-0,001481019;0,000933197;50;1,3;Down
172,110001;172,12;169,13;170,13;3854200;159,762095;-0,012209859;Down;-0,929992;-1,27;-3,06;-2,09;-0,011504276;2,99;-10,367905;-10,385276;0,352493245;-0,007037375;-0,001569772;0,000313317;51;1,3;Up
173,039993;173,39;172,19;172,22;2849700;161,724725;-0,006482224;Down;-0,280014;-0,75;-0,845;-1,12;-0,004738748;1,2;-10,495275;-10,263527;0,241374804;-0,002429852;0,001218027;0,002190325;52;1,3;Down
173,320007;174,14;173,035;173,34;2295600;162,776466;-0,002420042;Down;-0,009995;-0,3;0,575;-0,42;0,000115353;1,105;-10,563534;-10,149138;-0,002043212;0,000538873;0,001611241;0,002788354;53;1,3;Down
173,330002;174,44;172,46;173,76;2300300;163,170869;0,001612709;Up;0,360001;0,69;0,53;0,28;0,002480805;1,98;-10,589131;-10,422068;-0,088267935;0,000960559;0,000779359;0,002375597;54;1,3;Down
172,970001;173,75;171,93;173,48;2523000;162,907934;0,002423953;Up;-0,470001;0,26;-0,37;0,42;0,002948482;1,82;-10,572066;-10,45647;0,280320715;-0,001093445;0,001807149;0,003829503;55;1,3;Up
173,440002;173,49;172,3;173,06;1970600;162,513531;-0,001154984;Down;-0,470002;-0,92;-0,3;-0,2;-0,002190971;1,19;-10,546469;-10,738662;-0,324350271;0,001505763;0,002193226;0,003028646;56;1,3;Up
173,910004;174,41;172,6;173,26;2916600;162,70134;-0,004549304;Down;0,410004;0,01;-0,62;-0,79;-0,003737588;1,81;-10,55866;-10,4668;0,195768931;0,005254933;0,001072341;0,002803356;57;1,3;Down
173,5;174,4;173,22;174,05;2439100;163,443204;0,010221577;Up;2,259995;1,66;2,47;1,77;0,003170029;1,18;-10,606796;-11,718934;-0,007487284;0,005659198;0,000999886;0,003519794;58;1,3;Down
171,240005;172,74;170,75;172,28;2457500;161,781066;0,010092527;Up;0,690002;1,2501;1,91;1,73;0,006073318;1,99;-10,498934;-11,083507;-0,170436133;-0,000773026;-6,21E-05;0,003032777;59;1,3;Up
170,550003;171,4899;168,84;170,55;2962400;160,156498;-0,003336509;Down;-2,099991;-1,5001;-2,02;-0,57;-1,76E-08;2,6499;-10,393502;-9,858249;0,11326569;-0,00085886;0,000401234;0,00243986;60;1,3;Up
172,649994;172,99;170,86;171,12;2661000;160,691754;-0,009075095;Down;-0,290008;-0,34;-1,38;-1,56;-0,008861825;2,13;-10,428246;-10,49331;-0,139558947;0,002090834;-0,001430889;0,002736886;61;1,3;Down
172,940002;173,33;172,24;172,68;3092600;162,156684;0,009835024;Up;3,309997;1,35;3,2;1,69;-0,001503423;1,09;-10,523316;-12,370316;0,25105178;0,001741844;4,80E-05;0,003286793;62;1,3;Down
169,630005;171,98;169,04;170,99;2472000;160,569686;0,005512574;Up;-3,269989;-2,07;0,18;0,94;0,00801742;2,94;-10,420314;-9,943036;-0,315728284;-0,003246147;0,001132637;0,002778002;63;1,3;Up
172,899994;174,05;168,86;170,05;3612600;159,686969;-0,010122065;Down;-0,610001;-0,18;-3,1;-3,03;-0,016483482;5,19;-10,363031;-11,588455;0,005287177;-0,004508357;0,001141049;0,00253585;0;1,3;Up
173,509995;174,23;171,96;173,08;3593600;161,311539;-0,005128949;Down;-0,960006;-2,07;-1,74;-0,89;-0,002478215;2,27;-11,768461;-11,368972;-0,107845084;0,003465315;0,002068086;0,003444163;1;1,3;Down
174,470001;176,3;173,7;173,97;4028000;162,141023;0,001725944;Up;1,270004;2,3;1,28;0,3;-0,002865828;2,6;-11,828977;-12,608583;0,216146855;-0,000822867;0,006344745;0,004038513;2;1,3;Down
173,199997;174;172,42;173,67;3312100;161,861418;0,013798949;Up;-0,570007;-0,28;2,12;2,38;0,002713643;1,58;-11,808582;-13,556757;-0,345809714;-0,000479494;0,006963304;0,003584681;3;1,3;Up
173,770004;174,28;170,3;171,29;5062900;159,64324;-0,017993495;Down;0,37001;-0,8503;-2,5;-3,11;-0,014271761;3,98;-11,64676;-11,228225;0,120507259;0,001091548;0,003800848;0,002347018;4;1,3;Up
173,399994;175,1303;172,8;174,4;4518400;162,541779;0,002756065;Up;2,569992;0,4403;2,78;0,48;0,005767047;2,3303;-11,858221;-11,305574;-0,223202159;0,008949335;0,010249865;0,003803674;5;1,3;Down
170,830002;174,69;170,02;173,92;5816700;162,09442;0,018512075;Up;-0,059997;3,2;-0,28;3,19;0,018088146;4,67;-11,82558;-11,708682;0,835731869;0,007128725;0,008005995;0,003624587;6;1,3;Up
170,889999;171,49;170,3;170,73;3168600;159,12132;0,005579865;Up;0,660003;0,64;1,56;0,95;-0,000936269;1,19;-11,60868;-12,654082;-0,1851147;0,010652806;0,004928064;0,003178277;7;1,3;Up
170,229996;170,85;168,74;169,78;3888400;158,235917;-0,002705765;Down;5;-1,06;3,6;-0,46;-0,002643459;2,11;-11,544083;-11,56535;-0,52785468;0,011017656;0,005632123;0,001852422;8;1,3;Up
165,229996;171,91;165,14;170,24;8235600;158,664646;0,029084319;Up;0,839997;5,91;2,25;4,88;0,030321395;6,77;-11,575354;-11,113542;1,046213476;0,008086013;0,005908743;0,001523122;9;1,3;Down
164,389999;166;162,89;165,36;4024800;154,116454;0,006674415;Up;-1,680008;-1,38;-1,16;1,1;0,005900608;3,11;-11,243546;-11,298757;-0,584369449;0,009590787;0,001904247;0,000686871;10;1,3;Up
166,070007;167,38;164,05;164,26;9683600;153,091242;-0,011500695;Down;3,970001;0,74;2,15;-1,9;-0,01089906;3,33;-11,168758;-11,207946;0,00774258;0,002301016;0,001469703;0,001248405;11;1,3;Up
162,100006;166,64;161,9;166,16;9609200;154,862061;0,03359864;Up;0,350006;4,78;1,87;5,49;0,02504623;4,74;-11,297939;-12,354661;1,227239014;0,004097458;0,003285148;0,001771164;12;1,3;Down
161,75;161,86;160,03;160,67;4314400;149,745345;-0,015194897;Down;-1,559998;-2,12;-2,51;-2,46;-0,006676971;1,83;-10,924655;-9,711915;0,375370589;-0,003364645;-0,001084479;0,001061887;13;1,3;Up
163,309998;163,98;162,54;163,13;3136900;152,038085;-0,00611137;Down;0,679993;-0,98;0,04;-1;-0,001102186;1,44;-11,091915;-10,339907;-0,103435464;0,001536053;0,000838035;0,001717828;14;1,3;Down
162,630005;164,96;162,5;164,13;3498800;152,970091;0,011212333;Up;0,210007;2,2248;1,71;1,83;0,009223359;2,46;-11,159909;-11,365486;0,286654654;0,002589295;0,00283456;0,002813168;15;1,3;Down
162,419998;162,7352;160,79;162,3;2719300;151,264519;-0,000492803;Down;0,050003;-1,2648;-1,57;-0,08;-0,000738813;1,9452;-11,035481;-11,080917;-0,297138722;-8,21E-05;0,002426363;0,001226276;16;1,3;Up
162,369995;164;162,36;162,38;3868900;151,339081;-0,002951644;Down;0,029999;0,67;1,11;-0,48;6,16E-05;1,64;-11,040919;-10,583555;0,537901976;0,00108976;0,001455669;0,001589462;17;1,3;Down
162,339996;163,33;161,25;162,86;2515700;151,78644;0,003198062;Up;0,639999;0,86;0,53;0,52;0,003203179;2,08;-11,07356;-11,038203;0,111420367;0,001620851;0,000145919;0,001431781;18;1,3;Down
161,699997;162,47;160,72;162,34;2263500;151,301793;0,003022863;Up;-0,020004;-1,08;-0,29;0,49;0,003957965;1,75;-11,038207;-10,854878;-0,103315771;0,000616568;0,001502778;0,000441731;19;1,3;Up
161,720001;163,55;161,01;161,85;2524300;150,845119;-0,001358372;Down;0,050003;-0,29;-0,61;-0,22;0,000803852;2,54;-11,004881;-10,669839;-0,198125794;0,002895889;0,000976938;0,000950701;20;1,3;Up
161,669998;163,84;161,62;162,07;3148000;151,050162;0,000185214;Up;1,979996;1,04;2,918;0,03;0,002474188;2,22;-11,019838;-10,64781;-0,091669793;0,005997598;0,002233392;0,000250304;21;1,3;Down
159,690002;162,8;158,702;162,04;3465700;151,022188;0,009860825;Up;0,169998;0,26;-0,188;1,59;0,014716;4,098;-11,017812;-10,149699;-0,258134258;0,003183077;-0,000738378;0,000740953;22;1,3;Up
159,520004;162,54;158,89;160,45;4671600;149,540303;0,007946756;Up;-0,709992;1,92;0,5;1,27;0,005829965;3,65;-10,909697;-11,163352;0,26232166;-0,004580415;-0,003214777;-0,000164015;23;1,3;Up
160,229996;160,62;158,39;159,18;3700800;148,356652;-0,008258349;Down;-0,850006;-1,71;-2,01;-1,32;-0,006553055;2,23;-10,823348;-10,64309;-0,130328524;-0,002545022;-0,002872271;-0,000369714;24;1,3;Up
161,080002;162,33;160,4;160,5;4255400;149,586906;-0,013429651;Down;-0,229996;-1,27;-0,85;-2,17;-0,003600708;1,93;-10,913094;-9,470646;0,028371194;-0,000186856;0,000538543;-0,000405999;25;1,3;Down
161,309998;163,6;161,25;162,67;4138000;151,609356;0,014052935;Up;0,520005;2,7;2,02;2,27;0,008430984;2,35;-11,060644;-11,816298;0,189798442;0,007187446;0,00221725;0,000505775;26;1,3;Down
160,789993;160,9;159,23;160,4;3477900;149,4937;-0,001183851;Down;1,519989;-0,35;0,32;-0,19;-0,002425481;1,67;-10,9063;-11,11921;-0,208848954;-0,005359847;0,002709953;-0,000677873;27;1,3;Up
159,270004;161,25;158,91;160,59;4396000;149,670783;0,008693254;Up;-3,809998;-1,83;-0,29;1,39;0,008287788;2,34;-10,919217;-10,894708;-0,190259537;-0,008282018;0,002762409;-0,001184552;28;1,3;Down
163,080002;163,08;159,2;159,2;5428900;148,375296;-0,023588945;Down;-1,709991;-1,81;-3,7;-3,8;-0,023792016;3,88;-10,824704;-11,163082;0,24914291;-0,007617503;0,003924016;-0,001047121;29;1,3;Up
164,789993;164,89;162,9;163;4346100;151,91692;-0,009950362;Down;2,019989;-0,46;0,17;-1,63;-0,010862268;1,99;-11,08308;-11,353899;-0,267111853;0,006588202;0,003910223;-0,000180898;30;1,3;Down
162,770004;165,35;162,73;164,63;5930100;153,436094;0,010686799;Up;1,820007;2,35;2,38;1,75;0,011427142;2,62;-11,193906;-10,96492;-0,341568218;0,009904989;0,006091179;0,000204777;31;1,3;Down
160,949997;163;160,35;162,88;9006400;151,805084;0,019028168;Up;1,25;2,08;1,54;3,07;0,011991321;2,65;-11,074916;-12,006177;1,322074976;0,012340909;0,003952751;0,000192966;32;1,3;Up
159,699997;160,92;158,81;159,81;3878600;148,94382;0;None;2,849991;0,22;3,01;0;0,00068881;2,11;-10,86618;-10,756177;-0,32414442;0,005743452;-0,00074865;-0,000325924;33;1,3;Up
156,850006;160,7;155,8;159,81;5738800;148,94382;0,017994559;Up;0,650009;3,41;0,43;2,85;0,018871494;4,9;-10,86618;-10,562394;0,732886433;0,011738823;0,001028875;-0,000167503;34;1,3;None
156,199997;157,29;155,37;156,96;3311700;146,287612;-0,000764202;Down;1,149994;0,2;0,57;-0,12;0,004865576;1,92;-10,672388;-9,800549;-0,11678579;-0,002159127;-0,003316334;-0,000449535;35;1,3;Up
155,050003;157,09;154,8;157,08;3749600;146,399448;0,017986111;Up;-2,410004;-0,43;1,4;2,8;0,013092531;2,29;-10,680552;-11,260173;-0,381672466;0,000594703;-0,001848372;-0,000322945;36;1,3;Down
157,460007;157,52;153,4;154,28;6064100;143,78983;-0,02369929;Down;1,190003;-1,2;-2,87;-3,7;-0,020195649;4,12;-10,49017;-10,221759;0,327720973;-0,007540877;-0,005352694;-0,001243815;37;1,3;Up
156,270004;158,72;156,27;157,98;4567300;147,238248;0,007497289;Up;-2,300003;-0,42;0,335;1,18;0,010942573;2,45;-10,741752;-10,131516;-0,200108583;-0,00583546;-0,00196261;0,000646194;38;1,3;Down
158,570007;159,14;155,935;156,8;5709900;146,138488;-0,006420631;Down;-1,029999;-1,09;-1,875;-1,01;-0,011162306;3,205;-10,661512;-11,490199;0,241012823;-0,003594489;-0,004031848;2,32E-05;39;1,3;Up
159,600006;160,23;157,81;157,81;4601000;147,079808;-0,018583037;Down;1,400009;-0,92;-0,39;-2,96;-0,011215576;2,42;-10,730192;-9,761455;-0,114153141;-0,007043316;-0,002400599;0,000288946;40;1,3;Down
158,199997;161,15;158,2;160,77;5193900;149,838551;0,0142202;Up;-1,990005;-0,29;0,14;2,27;0,016245278;2,95;-10,931449;-10,477102;0,143980441;0,00281086;-0,001576134;0,001407913;41;1,3;Down
160,190002;161,44;158,06;158,5;4540200;147,722895;-0,016767112;Down;0,330001;-0,06;-1,643;-2,68;-0,010549984;3,38;-10,777105;-9,969339;0,197404858;-0,005278694;-0,004895007;0,000326347;42;1,3;Up
159,860001;161,5;159,703;161,18;3791700;150,220663;0,010979491;Up;-0,679992;0,94;0,983;1,76;0,008257219;1,797;-10,959337;-11,279663;0,043510568;0,001450803;-0,001334527;0,002194675;43;1,3;Down
160,539993;160,56;158,72;159,42;3633600;148,580338;-0,01004846;Down;0,269989;-1,19;-1,28;-1,61;-0,006976411;1,84;-10,839662;-10,459125;0,123423201;-0,005227897;-0,003273469;0,002094116;44;1,3;Up
160,270004;161,75;160;161,03;3234400;150,080868;0,003421378;Up;-1,669998;-0,14;0,1899;0,55;0,004741973;1,75;-10,949132;-10,701742;-0,453454773;0,000331375;-0,002200599;0,001911997;45;1,3;Down
161,940002;161,89;159,8101;160,48;5917900;149,568262;-0,00905661;Down;1,070007;-0,4;-0,3499;-1,46;-0,009015697;2,0799;-10,911738;-11,011006;0,341927438;-0,004804855;-0,001324901;0,002920182;46;1,3;Up
160,869995;162,29;160,16;161,94;4410000;150,928996;0,006629357;Up;-2,87001;-1,85;0,39;1,07;0,006651365;2,13;-11,011004;-10,938252;-0,379816617;-0,005896247;0,000758747;0,002700401;47;1,3;Down
163,740005;164,14;159,77;160,87;7110800;149,931743;-0,011987312;Down;-1,199997;-0,82;-2,81;-1,94;-0,017527818;4,37;-10,938257;-12,000168;0,775657993;-0,004200458;0,000365736;0,001610266;48;1,3;Up
164,940002;164,96;162,58;162,81;4004600;151,739837;-0,012330787;Down;2,449997;-0,03;1,07;-2,02;-0,012913799;2,38;-11,070163;-11,31751;-0,148247405;-0,001715367;0,003337883;0,002297814;49;1,3;Down
162,490005;164,99;161,51;164,83;4701600;153,622492;0,011716726;Up;-1,739991;0,59;-0,99;1,92;0,014400855;3,48;-11,207508;-10,656962;0,732095491;0,001906395;0,005131827;0,002998496;50;1,3;Down
164,229996;164,4;162,5;162,91;2714400;151,833043;-0,00453204;Down;0,589997;0,06;0,41;-0,74;-0,008037484;1,9;-11,076957;-11,707278;-0,190456308;0,001476473;0,003383108;0,003441629;51;1,3;Up
163,639999;164,34;162,09;163,65;3353000;152,522718;-0,001465501;Down;1,589996;-0,15;0,65;-0,24;6,11E-05;2,25;-11,127282;-10,893595;-0,043202831;0,005524678;0,006184726;0,002217865;52;1,3;Down
162,050003;164,49;161,44;163,89;3504400;152,746404;0,01042696;Up;0,190002;2,02;0,8;1,7;0,011354501;3,05;-11,143596;-10,888005;-0,195943465;0,007174935;0,005591835;0,002229485;53;1,3;Down
161,860001;162,47;160,64;162,19;4358400;151,161998;0,007612574;Up;2,110001;1,06;0,91;1,23;0,002038793;1,83;-11,028002;-11,844366;0,505752289;0,007629236;0,004216696;0,002505078;54;1,3;Up
159,75;161,41;159,73;160,96;2894500;150,015635;0,003485271;Up;0,970001;0,61;1,09;0,56;0,007574335;1,68;-10,944365;-10,2563;-0,219158866;0,005765298;0,004019404;0,001798778;55;1,3;Up
158,779999;160,8;158,64;160,4;3706900;149,4937;0,011789862;Up;0,059998;1,3;0,55;1,88;0,010202803;2,16;-10,9063;-11,03846;0,11214785;0,003845867;0,002386961;0,001346642;56;1,3;Up
158,720001;159,5;158,09;158,52;3333100;147,741539;0,002020762;Up;0,960006;0,41;0,92;0,32;-0,001260087;1,41;-10,778461;-11,276711;-0,080955138;0,005876213;0,003955244;0,000918117;57;1,3;Up
157,759995;159,09;157,17;158,2;3626700;147,44329;-0,002273022;Down;1,01999;0,53;2,09;-0,36;0,002789078;1,92;-10,75671;-9,981182;-0,183286042;0,003133084;0,004798547;5,70E-05;58;1,3;Up
156,740005;158,56;155,08;158,56;4440600;147,778813;0,0178809;Up;0,740005;1,06;-0,32;2,81;0,011611554;3,48;-10,781187;-11,580126;0,452268045;0,003699374;0,00332579;0,000357894;59;1,3;Down
156;157,5;155,4;155,75;3057700;145,159879;-0,006208626;Down;-1,339996;-0,58;-0,83;-0,97;-0,001602564;2,1;-10,590121;-9,936074;-0,061047136;-0,000249514;0,004290859;0,000522492;60;1,3;Up
157,339996;158,08;156,23;156,72;3256500;146,063926;-0,000574152;Down;0,050003;-0,51;-0,9201;-1,19;-0,003940486;1,85;-10,656074;-11,192183;-0,380139333;-0,001371395;0,003330461;0,000506657;0;1,3;Down
157,289993;158,59;157,1501;157,91;5253600;146,147813;0,006034236;Up;0,079986;-0,12;0,4501;0,95;0,003941808;1,4399;-11,762187;-12,021415;0,428190839;0,006932029;0,001233029;-0,000458241;1;1,3;Down
157,210007;158,71;156,7;156,96;3678500;145,268578;-0,00957427;Down;2,460007;0,11;1,95;-1,51;-0,001590274;2,01;-11,691422;-10,543909;-0,33593891;0,007843013;0,000871093;-0,001453436;2;1,3;Up
154,75;158,6;154,75;158,47;5539400;146,666098;0,024336122;Up;0,75;3,94;3,24;3,81;0,024038772;3,85;-11,803902;-11,610105;0,175544332;0,00634941;0,002453404;-0,000561579;3;1,3;Down
154;154,66;151,51;154,66;4712200;143,139895;0,008767186;Up;0,089996;-0,58;-1,53;1,35;0,004285714;3,15;-11,520105;-12,109554;-0,282070815;0,006771186;0,002094594;-0,001557141;4;1,3;Up
153,910004;155,24;153,04;153,31;6563600;141,890446;-0,014055078;Down;2,529999;-0,34;3,52;-2,17;-0,003898408;2,2;-11,419554;-10,011196;-0,211181617;-0,000781811;-0,002933158;-0,002086101;5;1,3;Up
151,380005;155,58;149,52;155,48;8320800;143,898808;0,025601451;Up;-2,619995;1,05;-2,03;3,93;0,027084125;6,06;-11,581192;-11,118457;0,850752908;-0,001881321;-0,001327506;-0,001962536;6;1,3;Down
154;154,53;151,55;151,55;4495900;140,261548;-0,013891805;Down;-0,940002;-0,56;-1,04;-2,12;-0,015909091;2,98;-11,288452;-11,776369;-0,205615238;-0,00936889;-0,002466436;-0,00298041;7;1,3;Up
154,940002;155,09;152,59;153,67;5659600;142,223631;-0,01735361;Down;-3,319993;-4,37;-3,18;-2,69;-0,008196734;2,5;-11,446369;-10,226738;-0,282514167;-0,003710216;-0,001720715;-0,002466787;8;1,3;Down
158,259995;159,46;155,77;156,36;7888100;144,713264;0,003138745;Up;3,229996;1,86;0,88;0,49;-0,012005529;3,69;-11,646736;-14,000237;0,631525606;0,009229537;-0,000359228;-0,001453297;9;1,3;Down
155,029999;157,6;154,89;155,87;4834800;144,259758;0,003084217;Up;3,089997;1,88;3,13;0,48;0,005418313;2,71;-11,610242;-11,214484;-0,210012908;-0,002301656;-0,000456284;-0,000763425;10;1,3;Up
151,940002;155,72;151,76;155,39;6120100;143,815515;0,021465649;Up;-1,089997;1,22;0,69;3,3;0,022706318;3,96;-11,574485;-11,178683;-0,48558052;-0,003733016;-0,002957214;-0,000664979;11;1,3;Up
153,029999;154,5;151,07;152,09;11897100;140,761319;-0,031454835;Down;-3,669998;-2,83;-2,96;-4,86;-0,00614258;3,43;-11,328681;-7,770685;0,41753646;-0,005391562;-0,005097162;4,78E-05;12;1,3;Up
156,699997;157,33;154,03;156,95;8392800;145,259314;-0,001209861;Down;2,87999;-0,3;0,21;-0,19;0,001595424;3,3;-11,690686;-11,264833;0,4580959;0,002451371;0,00152245;0,001633448;13;1,3;Down
153,820007;157,63;153,82;157,14;5756000;145,435164;0,016490009;Up;-2,869995;0,66;-0,34;2,57;0,021583623;3,81;-11,704836;-10,763405;0,354863007;0,000700753;0,000854057;0,001195779;14;1,3;Down
156,690002;156,97;154,16;154,57;4248400;143,056602;-0,007926034;Down;1,830001;0,48;0,42;-1,23;-0,013529912;2,81;-11,513398;-12,495023;-0,091717621;-0,004008482;-0,003932433;-0,000237575;15;1,3;Up
154,860001;156,49;153,74;155,8;4677400;144,194979;-0,006461717;Down;-2,399994;-3,48;-1,94;-1,01;0,006069992;2,75;-11,605021;-9,730258;0,068509423;-0,007007546;-0,004924184;-0,001512088;16;1,3;Down
157,259995;159,97;155,68;156,81;4377500;145,129743;0,002362304;Up;-1,740005;0,72;-0,08;0,37;-0,002861472;4,29;-11,680257;-12,472688;0,045348171;-0,003404952;-0,002860648;-0,001060061;17;1,3;Down
159;159,25;155,76;156,44;4187600;144,787307;-0,016923226;Down;0,580002;-1,09;-1,49;-2,67;-0,016100629;3,49;-11,652693;-11,741574;-0,066996413;0,002974967;-0,002851715;-0,001864378;18;1,3;Up
158,419998;160,34;157,25;159,11;4488300;147,258426;0,004346065;Up;2,179993;1,296;1,7;0,69;0,004355523;3,09;-11,851574;-11,800178;0,059360838;0,006430372;-0,001095053;-0,000778908;19;1,3;Down
156,240005;159,044;155,55;158,42;4236800;146,61982;0,021502061;Up;-0,959992;1,844;1,52;3,37;0,013952861;3,494;-11,80018;-12,739161;-0,098898294;-0,002285619;-0,003055394;-0,001370708;20;1,3;Up
157,199997;157,2;154,03;155,05;4701800;143,500844;-0,006557009;Down;-2,470001;-2,76;-1,14;-1,02;-0,013676826;3,17;-11,549156;-12,755125;-0,235069224;-0,014739653;-0,005342123;-0,00256471;21;1,3;Up
159,669998;159,96;155,17;156,07;6146700;144,444872;-0,02180191;Down;-1,600006;-1,31;-4,02;-3,44;-0,02254649;4,79;-11,625128;-12,041372;0,259466437;-0,009205126;-0,00484651;-0,002396704;22;1,3;Down
161,270004;161,27;159,19;159,51;4880400;147,628626;-0,015860041;Down;-0,039994;-2,04;-1,81;-2,55;-0,0109134;2,08;-11,881374;-11,281316;-0,116749615;-0,001126568;-0,001503374;-0,000891682;23;1,3;Down
161,309998;163,31;161;162,06;5525500;149,988688;0,010046572;Up;0,899994;1,81;0,62;1,62;0,004649445;2,31;-12,071312;-12,820638;0,377277599;0,003203471;0,002768622;0,000146085;24;1,3;Down
160,410004;161,5;160,38;160,44;4011900;148,48936;0,002433766;Up;0,39;0,68;0,59;0,39;0,000186996;1,12;-11,95064;-12,281593;0,417682604;-0,003924275;0,002169054;-0,000487505;25;1,3;Up
160,020004;160,82;159,79;160,05;2829900;148,128411;-0,002869925;Down;-1,979996;-1,52;0,34;-0,46;0,000187452;1,03;-11,921589;-11,465865;-0,150639294;-0,003666121;0,006508306;-0,000536425;26;1,3;Up
162;162,34;159,45;160,51;3331800;148,554139;-0,011336667;Down;-0,270004;-0,75;-2,56;-1,83;-0,009197531;2,89;-11,955861;-11,75217;0,742390963;-0,003573514;0,0072956;-0,000352614;27;1,3;Down
162,270004;163,09;162,01;162,34;1912200;150,24783;0,003208229;Up;-0,610001;0,1;0,4;0,52;0,000431355;1,08;-12,09217;-12,503431;0,023606873;0,001853102;0,007357861;5,32E-05;28;1,3;Down
162,880005;162,99;161,61;161,82;1868100;149,766573;-0,002592103;Down;0,650009;0,09;0;-0,42;-0,006507889;1,38;-12,053427;-12,724718;-0,537976405;0,006889001;0,005076361;0,000253514;29;1,3;Up
162,229996;162,9;161,61;162,24;4043300;150,155287;0,004943179;Up;3,899994;0,99;3,28;0,8;6,17E-05;1,29;-12,084713;-12,815122;-0,136508275;0,009503045;0,000904707;0,000450496;30;1,3;Down
158,330002;161,91;158,33;161,44;4682500;149,414874;0,018315928;Up;0,839997;1,5;0,84;2,93;0,019642506;3,58;-12,025126;-11,62689;-0,471793252;0,020237911;0,00072217;2,82E-06;31;1,3;Up
157,490005;160,41;157,49;158,51;8864900;146,703112;0,005250027;Up;3,910003;2,73;4,19;0,83;0,00647657;2,92;-11,806888;-11,55507;0,213970749;0,015275412;-0,003483904;-0,000959066;32;1,3;Up
153,580002;157,68;153,3;157,68;7302400;145,934935;0,037147779;Up;2,059998;4,372;2,19;5,75;0,026696171;4,38;-11,745065;-12,966769;0,42319236;0,009912544;-0,003270519;-0,001830635;33;1,3;Up
151,520004;153,308;151,11;151,93;5131000;140,613233;0,003428429;Up;-0,509995;-1,582;0,61;0,52;0,002705887;2,198;-11,316767;-11,388028;-0,24350544;-0,00748464;-0,008998182;-0,00351917;34;1,3;Up
152,029999;154,89;150,5;151,41;6782600;140,131976;-0,010838577;Down;-3,899994;-1,849;-2,34;-1,65;-0,004078136;4,39;-11,278024;-10,370931;0,043428765;-0,020615895;-0,010022483;-0,003294072;35;1,3;Up
155,929993;156,739;152,84;153,06;6500300;141,659068;-0,015043771;Down;-4,320007;-3,761;-2,49;-2,32;-0,018405651;3,899;-11,400932;-12,123728;-0,245178072;-0,015842074;-0,009025273;-0,002557836;36;1,3;Down
160,25;160,5;155,33;155,38;8611700;143,806265;-0,035965337;Down;-0,570007;-2,43;-5,19;-5,69;-0,030390016;5,17;-11,573735;-11,177562;1,158537197;-0,015938374;-0,00573123;-0,002259785;37;1,3;Down
160,820007;162,93;160,52;161,07;3989600;149,072438;0,003482885;Up;-2,189988;-0,4;0,49;0,56;0,001554489;2,41;-11,997562;-12,265868;-0,020428207;-0,001630891;-0,000364207;-0,000677853;38;1,3;Down
163,009995;163,33;160,03;160,51;4072800;148,554139;-0,01533267;Down;2,169999;0,31;-0,77;-2,48;-0,015336452;3,3;-11,955861;-12,160573;0,054801616;-0,005683029;-0,001286119;-0,000439644;39;1,3;Up
160,839996;163,02;160,8;162,99;3861200;150,849422;0,006957111;Up;-2,449997;-0,27;-0,74;1,13;0,013367347;2,22;-12,140578;-11,036408;0,354331813;-0,002160799;0,000800156;0,0004287;40;1,3;Down
163,289993;163,29;161,54;161,86;2851000;149,803588;-0,008673529;Down;-0,320008;-1,21;-1,37;-1,41;-0,008757383;1,75;-12,056412;-12,181428;-0,053924009;-0,005433467;7,73E-05;0,000321275;41;1,3;Up
163,610001;164,5;162,91;163,27;3013500;151,108565;-0,004765978;Down;-0,399994;0;-0,1;-0,78;-0,002078119;1,59;-12,161435;-11,779537;-0,219179147;0,001227234;0,000860438;0,000482983;42;1,3;Down
164,009995;164,5;163,01;164,05;3859400;151,830464;-0,002860895;Down;1,539994;-0,02;1,01;-0,47;0,000243918;1,49;-12,219536;-11,744538;-0,399698247;0,005139509;0,002407992;0,00022423;43;1,3;Down
162,470001;164,52;162;164,52;6429100;152,265457;0,011308576;Up;0;1,79;0,36;1,85;0,012617708;2,52;-12,254543;-11,91675;0,855065355;0,004795671;0,002983293;0,000343212;44;1,3;Down
162,470001;162,73;161,64;162,67;3465700;150,553251;0,006970845;Up;0,830002;-0,585;0,29;1,13;0,00123099;1,09;-12,116749;-12,962584;-0,168577872;0,001478655;0,000956503;-0,000156991;45;1,3;Up
161,639999;163,315;161,35;161,54;4168400;149,507417;-0,003892409;Down;-1,110001;-0,055;-0,09;-0,63;-0,000618653;1,965;-12,032583;-11,549504;0,732862191;-0,000453658;-0,000270542;-0,00022703;46;1,3;Up
162,75;163,37;161,44;162,17;2405500;150,090495;0,001357529;Up;0,820007;1,27;0,43;0,22;-0,003563748;1,93;-12,079505;-12,863119;-0,393469491;4,11E-05;-0,001524553;-8,90E-05;47;1,3;Down
161,929993;162,1;161,01;161,95;3966000;149,886881;0,001173907;Up;-0,720001;-1,4;-0,55;0,19;0,000123553;1,09;-12,063119;-12,218962;-0,023729815;0,002126764;-0,001694244;0,000332502;48;1,3;Up
162,649994;163,5;161,56;161,76;4062400;149,711031;-0,00240807;Down;1,110001;-0,36;0,5;-0,39;-0,005471835;1,94;-12,048969;-12,578014;-0,3862517;0,002315964;-0,000793408;0,00022021;49;1,3;Up
161,539993;163,86;161,06;162,15;6619000;150,07198;0,007614456;Up;-0,290009;1,91;0,31;1,23;0,003776198;2,8;-12,07802;-12,60639;0,623537492;0,001483408;0,000177428;0,000301634;50;1,3;Down
161,830002;161,95;160,75;160,92;4076900;148,933603;0,001741506;Up;0,880005;0,45;0,95;0,28;-0,005623197;1,2;-11,986397;-13,155542;-0,02538787;-0,002003251;-0,00183521;6,50E-05;51;1,3;Up
160,949997;161,5;159,8;160,64;4183100;148,67446;-0,004905739;Down;-1,100006;-0,6;-1,16;-0,79;-0,001926045;1,7;-11,96554;-11,544387;0,100063115;-0,007225251;-0,002198254;-0,000416975;52;1,3;Up
162,050003;162,1;160,96;161,43;3802600;149,40561;-0,002845519;Down;-2,679993;-2,65;-0,93;-0,46;-0,003825998;1,14;-12,02439;-12,218651;-0,297129443;-0,005590004;-0,000494602;-0,001799899;53;1,3;Down
164,729996;164,75;161,89;161,89;5410100;149,831352;-0,013924494;Down;0,569992;-0,22;-1,83;-2,27;-0,017240309;2,86;-12,058648;-12,797725;0,127362521;-0,001847965;0,000332452;-0,005024699;54;1,3;Down
164,160004;164,97;163,72;164,16;4798900;151,932271;0;None;2,059998;0,48;2,03;0;-2,44E-08;1,25;-12,227729;-12,227733;-0,036055761;0,004579737;0,002647234;-0,003836592;55;1,3;Down
162,100006;164,49;161,69;164,16;4978400;151,932271;0,0083806;Up;0,100006;1,69;-0,11;1,37;0,012708167;2,8;-12,227729;-11,435698;0,536685496;0,001750855;0,002007738;-0,0043168;56;1,3;None
162;162,8;161,8;162,79;3239700;150,664308;0,00535861;Up;-0,279999;-0,2;0,04;0,87;0,004876543;1;-12,125692;-12,140884;-0,040998165;-0,001430292;-0,000347153;-0,005207559;57;1,3;Up
162,279999;163;161,76;161,92;3378200;149,859116;-0,008486644;Down;-1,419998;-0,9;-0,84;-1,38;-0,002218382;1,24;-12,060884;-11,14367;-0,044194206;-0,000308671;-0,001047392;-0,005381835;58;1,3;Up
163,699997;163,9;162,6;163,3;3534400;151,136329;-0,001162843;Down;1,800003;-0,57;0,99;-0,19;-0,002443476;1,3;-12,163671;-12,387818;-0,287160663;0,003777181;5,15E-05;-0,005589103;59;1,3;Down
161,899994;164,47;161,61;163,49;4958200;151,312179;0,008723473;Up;0,479996;2,2631;0,76;1,42;0,009820915;2,86;-12,177821;-11,902042;0,418736408;0,005696049;0,000875556;-0,005655881;60;1,3;Down
161,419998;162,2069;160,85;162,07;3494800;149,997952;0,003770912;Up;0,139999;0,6769;0,8;0,61;0,004026775;1,3569;-12,072048;-11,98661;-0,14082014;0,001082903;-0,000321892;-0,006763666;61;1,3;Up
161,279999;161,53;160,05;161,46;4067600;149,433388;0,004593761;Up;-1,850006;-2,01;-1,51;-0,36;0,001116078;1,48;-12,026612;-12,531498;-0,009038419;-0,003660244;0,000535612;-0,006050361;0;1,1;Up
163,130005;163,54;161,56;161,82;4104700;148,748501;-0,005115965;Down;-1,209991;-0,82;-0,68;-0,83;-0,008030436;1,98;-13,071499;-13,618562;-0,033483247;-0,005272598;-0,000200675;-0,007066998;1;1,1;Up
164,339996;164,36;162,24;162,65;4246900;149,511443;-0,010458528;Down;0,089996;-0,18;-1,135;-1,71;-0,010283534;2,12;-13,138557;-13,256678;-0,094129943;-0,003465906;0,000361729;-0,006745401;2;1,1;Down
164,25;164,54;163,375;164,36;4688200;151,083318;-0,0002433;Down;-1,229996;-1,05;-0,2415;-0,04;0,000669711;1,165;-13,276682;-13,129919;-0,194190443;0,001830264;0,001969999;-0,005844004;3;1,1;Down
165,479996;165,59;163,6165;164,4;5818000;151,120081;0,000304109;Up;1,979996;0,97;0,5965;0,05;-0,006526444;1,9735;-13,279919;-14,405865;0,493326489;0,001625994;0,000892778;-0,005896129;4;1,1;Down
163,5;164,62;163,02;164,35;3896000;151,074131;0,005429984;Up;-0,830002;0,005;0,26;0,89;0,005198777;1,6;-13,275869;-13,243976;-0,17793767;0,005068273;-0,003561494;-0,006551391;5;1,1;Up
164,330002;164,615;162,76;163,46;4739300;150,256024;-0,000856112;Down;2,330002;1,015;0,96;-0,14;-0,005294237;1,855;-13,203976;-13,945287;-0,399731486;0,002826101;-0,01346413;-0,00675269;6;1,1;Up
162;163,6;161,8;163,6;7895300;150,384715;0,010630947;Up;0;0,69;-0,01;1,73;0,009876543;1,8;-13,215285;-13,205549;0,582509872;0,002905893;-0,011830386;-0,006814333;7;1,1;Down
162;162,91;161,81;161,87;4989100;148,794451;-0,001296533;Down;-0,080002;0,47;0,36;-0,21;-0,000802469;1,1;-13,075549;-13,012507;-0,249996242;0,000164787;-0,014479825;-0,007045744;8;1,1;Up
162,080002;162,44;161,45;162,08;6652100;148,987493;-0,000616734;Down;-0,039993;-0,39;-0,09;-0,1;-1,23E-08;0,99;-13,092507;-13,000595;-0,124654578;-0,002356725;-0,015719772;-0,007773573;9;1,1;Down
162,119995;162,83;161,54;162,18;7599400;149,079407;0,002407628;Up;-0,290009;-2,58;0,44;0,39;0,000370127;1,29;-13,100593;-13,399084;-0,314430572;-0,013927836;-0,015452112;-0,007582156;10;1,1;Down
162,410004;165,41;161,1;161,79;11084800;148,720911;-0,008861068;Down;-3,98999;-1,27;-0,58;-1,44;-0,003817523;4,31;-13,069089;-12,365411;-0,47088755;-0,039327413;-0,017383883;-0,008043674;11;1,1;Up
166,399994;166,68;161,68;163,23;20949800;150,044593;-0,035330067;Down;-0,450012;-3,651;-5,01;-5,87;-0,019050445;5;-13,185407;-10,959559;-0,105340252;-0,032302441;-0,016605245;-0,007849906;12;1,1;Down
166,850006;170,331;166,69;169,1;23416500;155,440435;-0,073791104;Down;-14,389999;-12,509;-13,53;-12,95;0,01348513;3,641;-13,659565;0,494351;4,382855961;-0,024047275;-0,01414496;-0,006185381;13;1,1;Down
181,240005;182,84;180,22;182,05;4350200;167,344357;0,012213847;Up;1,440002;1,36;1,53;2,21;0,004469184;2,62;-14,705643;-15,927135;-0,220198616;-0,003188944;-0,00248812;-0,002607818;14;1,1;Down
179,800003;181,48;178,69;179,84;5578600;165,31287;-0,010564568;Down;-2,660004;-2,31;-0,0588;-1,91;0,000222453;2,79;-14,52713;-12,731416;-0,191014821;-0,006752043;-0,006236381;-0,0032007;15;1,1;Up
182,460007;183,79;178,7488;181,75;6895800;167,068587;-0,011216111;Down;-2,429992;-1,93;-4,8412;-2,05;-0,003891302;5,0412;-14,681413;-13,507012;0,757026015;-0,007579368;-0,004670916;-0,002448781;16;1,1;Down
184,889999;185,72;183,59;183,8;3924700;168,952995;0,00152455;Up;-0,600006;-0,93;0,17;0,28;-0,005895392;2,13;-14,847005;-16,194385;0,091194706;-0,004717986;-0,002097377;-0,001813186;17;1,1;Down
185,490005;186,65;183,42;183,52;3596700;168,695614;-0,013046542;Down;-0,369996;-1,09;-1,68;-2,41;-0,010620545;3,23;-14,824386;-14,579077;-0,293406939;-0,010442098;-0,002461701;-0,001986923;18;1,1;Up
185,860001;187,74;185,1;185,93;5090200;170,910928;-0,002631965;Down;-3,259994;-1,76;-0,99;-0,49;0,000376622;2,64;-15,019072;-14,498649;0,938828369;0,000394622;-0,002594841;-0,001351201;19;1,1;Down
189,119995;189,5;186,09;186,42;2625400;171,361352;-0,015647787;Down;3,149994;-0,1;0,48;-2,94;-0,014276624;3,41;-15,058648;-15,056128;-0,120410078;-0,004652138;-0,002140669;-0,00086224;20;1,1;Down
185,970001;189,6;185,61;189,36;2984800;174,063867;0,019463618;Up;-1,800003;1,48;0,07;3,65;0,018228741;3,99;-15,296133;-15,261289;-0,002172968;0,001216841;-0,000461229;-0,000186849;21;1,1;Down
187,770004;188,12;185,54;185,71;2991300;170,708712;-0,017772246;Down;-1,919998;-2,77;-3,17;-3,33;-0,01097089;2,58;-15,001288;-14,000295;0,424767802;-0,002146962;-0,002201693;-0,001324256;22;1,1;Up
189,690002;190,89;188,71;189,04;2099500;173,769709;0,001959152;Up;1,580001;1,52;1,15;0,37;-0,003426654;2,18;-15,270291;-16,260401;-0,316457757;0,003313772;-0,002143756;-0,000392636;23;1,1;Down
188,110001;189,37;187,56;188,67;3071500;173,429601;0,009372207;Up;0,449997;1,59;1,32;1,76;0,002976976;1,81;-15,240399;-16,298225;0,34531996;-0,002043166;-0,001939347;-0,00078343;24;1,1;Up
187,660004;187,78;186,24;186,91;2283100;171,811776;-0,001390044;Down;-2,25;-2,62;-0,55;-0,26;-0,003996611;1,54;-15,098224;-15,609236;-0,386790933;-0,004833433;-0,004079093;-0,001116992;25;1,1;Up
189,910004;190,4;186,79;187,17;3723200;172,050768;-0,014111661;Down;0,270005;-0,45;-2,36;-2,66;-0,014427908;3,61;-15,119232;-15,414102;0,269590125;-0,005107505;-0,00448011;-0,001229063;26;1,1;Down
189,639999;190,85;189,15;189,83;2932600;174,495902;0,001001407;Up;1,130004;0,89;1,03;0,19;0,001001904;1,7;-15,334098;-15,318751;0,255232633;0,001443017;-0,002554965;-0,000516656;27;1,1;Down
188,509995;189,96;188,12;189,64;2336300;174,321248;-0,002212261;Down;-0,419998;-0,37;-0,49;-0,42;0,005994404;1,84;-15,318752;-13,802676;-0,063194194;-0,004660369;-0,002065733;-0,000621322;28;1,1;Up
188,929993;190,33;188,61;190,06;2493900;174,707319;0,005539905;Up;-3,12001;-2,17;-0,36;1,05;0,005981088;1,72;-15,352681;-15,18786;-0,399262899;-0,002724807;-0,001892894;-0,000695391;29;1,1;Down
192,050003;192,5;188,97;189,01;4151400;173,742133;-0,017308751;Down;1,050003;0,05;-0,91;-3,3;-0,015829227;3,53;-15,267867;-15,274434;0,346720301;-0,007153362;-0,001838175;-0,000514132;30;1,1;Up
191;192,45;189,88;192,31;3082600;176,775569;0,003594425;Up;-1,75;-0,62;-1,64;0,69;0,006858639;2,57;-15,534431;-14,858697;-0,066388031;-0,002916506;0,000671291;0,000451317;31;1,1;Down
192,75;193,07;191,52;191,62;3301800;176,141303;-0,007745761;Down;-0,970001;-1,07;-1,11;-1,49;-0,005862516;1,55;-15,478697;-15,239051;-0,004882459;-0,003684816;-6,52E-05;9,26E-05;32;1,1;Up
193,720001;194,14;192,63;193,11;3318000;177,510949;-0,004598181;Down;-0,819992;-0,86;-0,56;-0,89;-0,00314888;1,51;-15,599051;-15,390945;-0,625169453;0,000535528;0,001020419;0,000714077;33;1,1;Down
194,539993;195;193,19;194;8852000;178,329056;0,001289494;Up;1,75;0,87;0,48;0,25;-0,002775743;1,81;-15,670944;-16,440743;1,987210205;0,001791738;0,002610837;0,000930259;34;1,1;Down
192,789993;194,13;192,71;193,75;2963300;178,09925;0,00491527;Up;-0,430008;0,49;0,41;0,95;0,004979548;1,42;-15,65075;-15,564001;-0,077083593;0,003354459;0,002351003;0,001041759;35;1,1;Up
193,220001;193,64;192,3;192,8;3210800;177,225992;-0,000829551;Down;1,970001;0,07;1,48;-0,16;-0,002173693;1,34;-15,574008;-15,84693;0,253484287;0,00263836;0,001041676;0,001296124;36;1,1;Up
191,25;193,57;190,82;192,96;2561500;177,373071;0,005977659;Up;-0,169998;1,08;0,24;1,15;0,008941176;2,75;-15,586929;-14,934042;0,042786191;0,002148989;0,001485795;0,001212703;37;1,1;Down
191,419998;192,49;190,58;191,81;2456400;176,315958;0,002766972;Up;-0,050003;0,89;0,01;0,53;0,002037415;1,91;-15,494042;-15,591227;-0,153257497;0,000469553;-9,12E-05;0,000924061;38;1,1;Up
191,470001;191,6;190,57;191,28;2901000;175,828771;-0,002297664;Down;0,389999;-1,18;0,45;-0,44;-0,000992328;1,03;-15,451229;-15,23677;0,262127474;0,002255616;-0,000182843;0,000946054;39;1,1;Up
191,080002;192,78;190,12;191,72;2298500;176,233231;0,00093935;Up;0,960007;0,63;0,02;0,18;0,003349372;2,66;-15,486769;-15,012238;-0,16841534;0,002758446;-0,000377586;0,001018961;40;1,1;Down
190,119995;192,15;190,1;191,54;2764000;176,067764;0,008125162;Up;-0,220001;1,41;0,32;1,55;0,007468993;2,05;-15,472236;-15,477014;0,149941754;0,000592215;-0,000299843;0,001180389;41;1,1;Up
190,339996;190,74;189,78;189,99;2403600;174,642981;-0,000789173;Down;-0,410004;-0,46;0,27;-0,15;-0,001838794;0,96;-15,347019;-15,559137;-0,047777514;-0,001208374;-0,001478143;0,001382118;42;1,1;Up
190,75;191,2;189,51;190,14;2524200;174,780859;-0,005559345;Down;0,220001;-0,55;-0,58;-1,06;-0,003197903;1,69;-15,359141;-14,994768;0,116803823;-0,003158088;-0,00185972;0,001007967;43;1,1;Down
190,529999;191,75;190,09;191,2;2260200;175,755232;0,002723397;Up;-1,160003;-0,94;0,03;0,52;0,003516512;1,66;-15,444768;-15,252767;-0,211099476;-0,000627025;2,61E-05;0,001253331;44;1,1;Down
191,690002;192,69;190,06;190,68;2865000;175,277232;-0,006638315;Down;-0,699997;-0,26;-1,8;-1,27;-0,005268934;2,63;-15,402768;-15,245354;0,571757735;-0,002820025;0,000177116;0,000516619;45;1,1;Up
192,389999;192,95;191,86;191,95;1822800;176,444648;0,002033843;Up;-0,289994;-0,02;0,93;0,39;-0,002287016;1,09;-15,505352;-16,303847;-0,319774602;-8,68E-05;0,000469755;0,000935961;46;1,1;Down
192,679993;192,97;190,93;191,56;2679700;176,086152;-0,003855604;Down;0,399994;0,22;-0,21;-0,74;-0,00581271;2,04;-15,473848;-15,913612;-0,078950986;-0,001198516;0,000956348;0,000241931;47;1,1;Up
192,279999;192,75;191,14;192,3;2909400;176,766381;0,001561294;Up;0,809998;0,4514;0,48;0,3;0,00010402;1,61;-15,533619;-15,789387;0,934956105;-0,001193913;0,001458026;-0,000132043;48;1,1;Down
191,470001;192,2986;190,66;192;1503600;176,490612;-0,001301239;Down;-1,559998;-1,8344;-0,9;-0,25;0,002768052;1,6386;-15,509388;-14,749583;-0,313487353;0,001461526;0,001730675;-0,000336369;49;1,1;Up
193,029999;194,133;191,56;192,25;2190200;176,720418;-0,003841793;Down;2,009995;0,603;0,54;-0,74;-0,004040818;2,573;-15,529582;-15,629352;-0,310260125;0,003205649;0,003207243;-0,000559019;50;1,1;Down
191,020004;193,53;191,02;192,99;3175400;177,400647;0,009527611;Up;-0,369995;1,72;0,31;1,83;0,010313035;2,51;-15,589353;-15,301535;0,8423068;0,003053845;0,003354365;-6,29E-05;51;1,1;Down
191,389999;191,81;190,71;191,16;1723600;175,718469;0,003931129;Up;0,619995;-0,07;0,42;0,75;-0,001201729;1,1;-15,441531;-16,360946;-0,11168376;0,001853504;0,002116855;-0,000691921;52;1,1;Up
190,770004;191,88;190,29;190,41;1940300;175,029053;-0,004297205;Down;-0,12999;-0,19;-0,21;-0,82;-0,00188711;1,59;-15,380947;-14,987197;-0,222791909;0,000595734;0,002031817;-0,000494224;53;1,1;Up
190,899994;192,07;190,5;191,23;2496500;175,782807;0,005926587;Up;1,039993;1,68;1,25;1,13;0,001728685;1,57;-15,447193;-16,155898;0,146445628;0,003275633;0,002482254;-0,000406751;54;1,1;Down
189,860001;190,39;189,25;190,1;2177600;174,744096;0,00015782;Up;-0,179992;0,14;-0,11;0,03;0,001264084;1,14;-15,355904;-15,143481;0,067398657;0,004803872;0,002302776;8,90E-05;55;1,1;Up
190,039993;190,25;189,36;190,07;2040100;174,71652;0,003742491;Up;1,939987;0,44;1,6;0,71;0,000157898;0,89;-15,35348;-15,976126;-0,157087964;0,003862992;0,003853447;-0,000309415;56;1,1;Up
188,100006;189,81;187,76;189,36;2420300;174,063867;0,010511305;Up;0,25;0,93;0,97;1,98;0,006698532;2,05;-15,296133;-15,856195;-0,140152053;0,00249134;0,002258074;-0,000477169;57;1,1;Up
187,850006;188,88;186,79;187,38;2814800;172,243811;-0,002664821;Down;0,279999;0,71;-0,14;-0,5;-0,002502028;2,09;-15,136189;-15,146584;0,458823529;0,00007118;0,000923994;-0,000924247;58;1,1;Up
187,570007;188,17;186,93;187,88;1929500;172,703422;-0,000372465;Down;-0,429993;-0,31;-0,44;-0,07;0,001652679;1,24;-15,176578;-14,802247;0,074930362;0,000728215;-0,000428437;0,000120683;59;1,1;Down
188;188,48;187,37;187,95;1795000;172,76776;0,003250826;Up;0,550003;-0,21;0,56;0,61;-0,000265957;1,11;-15,18224;-15,792966;-0,034219305;0,002349292;-5,85E-05;-0,000191567;60;1,1;Down
187,449997;188,69;186,81;187,34;1858600;172,207034;-0,000693715;Down;-0,360001;0,33;0,53;-0,13;-0,000586807;1,88;-15,132966;-15,123459;-0,26456157;0,005453414;-0,002119182;0,000108168;61;1,1;Up
187,809998;188,36;186,28;187,47;2527200;172,326538;0,004490765;Up;3,410004;1,69;2,7;0,84;-0,00181033;2,08;-15,143462;-16,255603;-0,09142549;0,002677821;-0,003542846;0,000212293;62;1,1;Down
184,399994;186,67;183,58;186,63;2781500;171,554395;0,012563193;Up;-2,240005;-0,01;0;2,33;0,012093308;3,09;-15,075605;-14,987388;0,026914273;0,001127121;-0,004470926;-0,000165859;63;1,1;Up
186,639999;186,68;183,58;184,3;2708600;169,412606;-0,009020496;Down;1,279998;-0,2;-0,86;-1,67;-0,0125375;3,1;-14,887394;-15,692294;-0,295918898;-0,007555365;-0,006816267;-0,000446499;64;1,1;Up
185,360001;186,88;184,44;185,97;3847000;170,947705;-0,000161335;Down;-3,389999;-2,316;-2;-1,13;0,003290888;2,44;-15,022295;-14,384714;0,162973488;-0,003686129;-0,004804491;-0,000235126;0;1,1;Down
188,75;189,196;186,44;187,1;3307900;170,975287;-0,013484265;Down;-0,600006;-0,754;-2,16;-2,54;-0,008741722;2,756;-16,124713;-15,453623;0,555999812;-0,008043955;-0,005323292;-0,000346086;1;1,1;Down
189,350006;189,95;188,6;189,64;2125900;173,296377;0,002587212;Up;-1,149994;-1,55;-0,26;0,49;0,001531524;1,35;-16,343623;-16,501404;-0,589681728;-0,007576876;-0,002602702;0,000300602;2;1,1;Down
190,5;191,5;188,86;189,15;5181100;172,848602;-0,013234813;Down;-2,339996;-2,79;-2,68;-2,52;-0,007086614;2,64;-16,301398;-15,348574;0,231396316;-0,009417238;-0,003222704;0,000677893;3;1,1;Up
192,839996;194,29;191,54;191,67;4207500;175,151426;-0,012083027;Down;-2,360001;-1,7;-1,36;-2,33;-0,006067185;2,75;-16,518574;-15,559373;0,066864445;-0,007072146;0,000535915;0,002535794;4;1,1;Down
195,199997;195,99;192,9;194;3943800;177,280623;-0,002933875;Down;-0,100006;0,1;-1,64;-0,57;-0,006147526;3,09;-16,719377;-17,398491;0,208235042;-0,000686566;0,000970251;0,002974822;5;1,1;Down
195,300003;195,89;194,54;194,57;3264100;177,801506;-0,006199537;Down;1;-0,51;0,89;-1,21;-0,003737855;1,35;-16,768494;-16,392786;0,006692573;-0,001145855;0,001343473;0,003444625;6;1,1;Down
194,300003;196,4;193,65;195,78;3242400;178,907217;0,007073714;Up;-1;0,5;-0,1401;1,38;0,007617071;2,75;-16,872783;-16,653859;-0,039687241;0,003680808;0,002202866;0,003638303;7;1,1;Down
195,300003;195,9;193,7901;194,4;3376400;177,646144;-0,004311742;Down;1,350006;0,28;0,0401;-0,84;-0,00460831;2,1099;-16,753856;-16,886241;-0,065408143;0,00053197;0,003859107;0,003276545;8;1,1;Up
193,949997;195,62;193,75;195,24;3612700;178,413762;0,008280453;Up;-0,160004;0,72;0,18;1,61;0,006651214;1,87;-16,826238;-17,007482;0,007951565;0,007580596;0,003492828;0,003156998;9;1,1;Down
194,110001;194,9;193,57;193,63;3584200;176,942515;-0,002372802;Down;2,520005;0,18;2,01;-0,46;-0,00247283;1,33;-16,687485;-16,747138;-0,261446528;0,001950999;0,003688396;0,002928091;10;1,1;Up
191,589996;194,72;191,56;194,09;4853000;177,362863;0,016834138;Up;0,289993;3,02;2,31;3,24;0,013048719;3,16;-16,727137;-17,187893;0,16815906;0,002759233;0,004184625;0,002719083;11;1,1;Down
191,300003;191,7;189,25;190,85;4154400;174,402103;-0,00860834;Down;-0,660004;-1,74;-0,75;-1,65;-0,002352342;2,45;-16,447897;-15,390107;-0,491281348;-0,002626944;0,001601786;0,001760376;12;1,1;Up
191,960007;193,44;190;192,5;8166400;175,909896;5,19E-05;Up;-0,399994;-2,51;-2;0,01;0,002813049;3,44;-16,590104;-16,059244;-0,079562233;0,007017048;0,003476466;0,002484633;1,30E+01;1,1;Down
192,360001;195,95;192;192,49;8872300;175,900763;0,000675609;Up;0,119996;2,59;1,24;0,13;0,000675811;3,95;-16,589237;-16,578038;0,135639864;0,004585757;0,002923695;0,002459831;14;1,1;Up
192,240005;193,36;190,76;192,36;7812600;175,781963;0,020323636;Up;2,700012;3,28;2,55;3,87;0,000624194;2,6;-16,578037;-19,994512;0,605977758;0,00764222;0,002513936;0,002376807;15;1,1;Up
189,539993;190,08;188,21;188,49;4864700;172,245493;-0,007241973;Down;0,98999;-0,36;-0,32;-1,37;-0,005539691;1,87;-16,244507;-16,042575;0,080780254;0,00140002;6,63E-05;0,001787873;16;1,1;Up
188,550003;190,44;188,53;189,86;4501100;173,497418;0,009844997;Up;0,820007;2,09;1,825;1,86;0,006947743;1,91;-16,362582;-16,752286;0,873506764;0,002537818;0,002332537;0,001859436;17;1,1;Down
187,729996;188,35;186,705;188;2402500;171,797717;0,001597035;Up;1,289994;0,3;0,495;0,3;0,001438257;1,645;-16,202283;-16,206427;-0,243973818;0,001385854;0,004556788;0,000905973;18;1,1;Up
186,440002;188,05;186,21;187,7;3177800;171,523569;-0,003828578;Down;-1,239991;-0,85;-0,68;-0,72;0,006758196;1,84;-16,176431;-14,258483;-0,039823544;-0,000603249;0,00405411;0,000359825;19;1,1;Up
187,679993;188,9;186,89;188,42;3309600;172,181519;0,006389105;Up;0,029999;0,82;0,52;1,2;0,003942919;2,01;-16,238481;-16,595053;0,055660107;-0,000194544;0,005457904;0,000497254;20;1,1;Down
187,649994;188,08;186,37;187,22;3135100;171,08494;-0,004370273;Down;0,039993;-0,19;-1,07;-0,82;-0,002291468;1,71;-16,13506;-15,81573;0,059620779;-0,002076626;0,00441694;0,000302058;21;1,1;Up
187,610001;188,27;187,44;188,04;2958700;171,834264;-0,002602465;Down;-0,779998;-0,536;0,09;-0,49;0,002291983;0,83;-16,205736;-15,327962;0,221392008;0,003009337;0,004852602;0,000861411;22;1,1;Down
188,389999;188,806;187,35;188,53;2422400;172,282039;0,000742861;Up;2,050003;-0,184;1,18;0,14;0,000743145;1,456;-16,247961;-16,235894;-0,524366778;0,013089828;0,00431019;0,001014207;23;1,1;Down
186,339996;188,99;186,17;188,39;5093000;172,154105;0,010887615;Up;4,639999;1,72;4,47;2,04;0,011001417;2,82;-16,235895;-16,050072;-0,233339856;0,012034077;0,004622895;0,000656166;24;1,1;Up
181,699997;187,27;181,7;186,35;6643100;170,289924;0,027639007;Up;0,369995;5,34;1,44;5,08;0,025591651;5,57;-16,060076;-16,052269;0,572778067;0,010872131;0,00239057;0,000488013;25;1,1;Up
181,330002;181,93;180,26;181,27;4223800;165,647728;-0,002424391;Down;1,559998;-0,53;0,6;-0,44;-0,000330899;1,67;-15,622272;-15,280192;-0,076865916;0,001012925;-0,001596482;-0,000620131;26;1,1;Up
179,770004;182,46;179,66;181,71;4575500;166,04981;0,007401776;Up;-1,099991;1,09;0,39;1,34;0,010791545;2,8;-15,66019;-14,94472;0,4041737;0,001526063;-0,000377771;-0,000341417;27;1,1;Down
180,869995;181,37;179,27;180,37;3258500;164,825284;-0,001938611;Down;0,619995;0,4;-0,79;-0,35;-0,002764389;2,1;-15,544716;-15,724869;0,17941943;-0,003255116;-0,00136471;-0,001097984;28;1,1;Up
180,25;180,97;180,06;180,72;2762800;165,145126;-0,000884975;Down;-1,25;-2,03;-0,59;-0,16;0,00260749;0,91;-15,574874;-14,95866;-0,287092945;-0,001527411;-0,001266249;-0,001294326;29;1,1;Down
181,5;183;180,65;180,88;3875400;165,29134;-0,006941763;Down;-0,419998;0,75;-0,35;-1,26;-0,003415978;2,35;-15,58866;-15,057255;0,199183092;-0,003556082;-0,00023474;-0,001190494;30;1,1;Down
181,919998;182,25;181;182,14;3231700;166,442745;0,003244504;Up;-0,669998;-0,42;-0,4;0,59;0,001209334;1,25;-15,697255;-16,016402;-0,697598907;-0,002661298;-7,55E-05;-0,001048438;31;1,1;Down
182,589996;182,67;181,4;181,55;10686800;165,903596;-0,006970986;Down;-1,529999;-1,8;-0,956;-1,27;-0,005695799;1,27;-15,646404;-15,525848;2,009433697;-0,001301032;-0,001872431;-0,000828634;32;1,1;Up
184,119995;184,47;182,356;182,82;3551100;167,064148;-0,004257411;Down;2,080002;0,86;0,566;-0,78;-0,007060586;2,114;-15,755852;-16,34307;-0,096825881;0,00085805;-0,002303335;-0,001027569;33;1,1;Down
182,039993;183,61;181,79;183,6;3931800;167,776925;0,007325301;Up;0,139999;0,8;0,23;1,34;0,008569584;1,82;-15,823075;-15,487594;0,597708156;0,001893546;-0,001871801;-0,000848632;34;1,1;Down
181,899994;182,81;181,56;182,26;2460900;166,552399;-0,000493741;Down;-0,5;0,1;0,325;-0,09;0,001979142;1,25;-15,707601;-15,265341;-0,3079973;0,001907479;-0,002525614;-0,001035571;35;1,1;Up
182,399994;182,71;181,235;182,35;3556200;166,634653;-0,001150923;Down;0,399994;-0,29;-0,285;-0,21;-0,00027409;1,475;-15,715347;-15,573447;0,282160369;0,000182859;-0,00147196;-0,00156075;36;1,1;Down
182;183;181,52;182,56;2773600;166,826547;0,007367101;Up;-0,479996;0,45;0,61;1,34;0,003076923;1,48;-15,733453;-16,397965;-0,373240232;-0,003143897;-0,001233214;-0,002336618;37;1,1;Down
182,479996;182,55;180,91;181,22;4425300;165,602035;-0,005667601;Down;-1,130005;-1,65;-1,1;-1,03;-0,006904845;1,64;-15,617965;-15,93673;0,089519167;-0,009072335;-0,003045857;-0,002761272;38;1,1;Up
183,610001;184,2;182,01;182,25;4061700;166,543266;-0,011131191;Down;-2,589996;-2,0199;-1,81;-2,04;-0,007407009;2,19;-15,706734;-15,202554;-0,022431346;-0,007451515;-0,001438874;-0,001912076;39;1,1;Down
186,199997;186,2199;183,82;184,29;4154900;168,407447;-0,010418214;Down;-0,020004;-1,4201;-2,14;-1,93;-0,010257771;2,3999;-15,882553;-16,028874;0,522833895;-0,003042852;0,000360005;-0,001125462;40;1,1;Down
186,220001;187,64;185,96;186,22;2728400;170,171123;-0,000805141;Down;-0,25;-0,01;0,06;-0,15;-5,37E-09;1,68;-16,048877;-15,911811;-0,172384506;0,00307505;0,002125694;-0,00074565;41;1,1;Down
186,470001;187,65;185,9;186,37;3296700;170,30819;0,002094799;Up;1,809997;1,56;1,98;0,39;-0,000536285;1,75;-16,06181;-16,518199;0,155844611;0,003596445;0,001071;-0,000620121;42;1,1;Down
184,660004;186,09;183,92;185,98;2852200;169,951802;0,007935491;Up;-0,050003;0,64;-0,28;1,47;0,007148251;2,17;-16,028198;-16,051516;0,200016829;0,000520163;2,69E-05;-0,001008602;43;1,1;Up
184,710007;185,45;184,2;184,51;2376800;168,608488;0,000759046;Up;-0,839996;-0,31;0,08;0,14;-0,001082816;1,25;-15,901512;-16,229452;-0,055738747;0,000271087;-0,000790136;-0,001412067;44;1,1;Up
185,550003;185,76;184,12;184,37;2517100;168,480555;-0,007134048;Down;0,790008;-0,5201;-0,55;-1,32;-0,006359488;1,64;-15,889445;-15,863202;-0,213529136;0,001104686;-0,001362083;-0,001940118;45;1,1;Up
184,759995;186,2801;184,67;185,69;3200500;169,686801;0,007188264;Up;1,37999;1,7101;2,18;1,33;0,005033584;1,6101;-16,003199;-16,288574;-0,307326047;0,004718469;0,000539698;-0,002301171;46;1,1;Down
183,380005;184,57;182,49;184,36;4620500;168,471421;0,003259842;Up;-0,259994;0,79;0,16;0,6;0,005344067;2,08;-15,888579;-15,45688;0,674154861;-0,000758517;-0,001777281;-0,002312172;47;1,1;Up
183,639999;183,78;182,33;183,76;2759900;167,923125;0,003707301;Up;-0,839997;-1,1;-0,61;0,68;0,000653458;1,45;-15,836875;-16,338263;-0,258410361;-0,003931176;-0,00222486;-0,001999065;48;1,1;Up
184,479996;184,88;182,94;183,08;3721600;167,301736;-0,009242695;Down;-0,320007;-0,77;-0,99;-1,7;-0,007588877;1,94;-15,778264;-15,624773;-0,223663899;-0,004700498;-0,002286694;-0,00133392;49;1,1;Up
184,800003;185,65;183,93;184,78;4793800;168,855223;-0,006258134;Down;-1,039993;-0,49;-1,3801;-1,16;-0,000108241;1,72;-15,924777;-14,884748;0,870459245;-0,002891776;-0,002637315;-0,001055001;50;1,1;Down
185,839996;186,14;185,3101;185,94;2562900;169,915255;0,001399335;Up;-0,610001;-0,31;0,2801;0,26;0,000538119;0,8299;-16,024745;-16,162343;0,155500451;0,001887667;-0,004132553;-0,001129941;51;1,1;Down
186,449997;186,45;185,03;185,68;2218000;169,677653;-0,003816529;Down;0,599991;-0,71;0,08;-0,71;-0,004129777;1,42;-16,002347;-16,123527;-0,257697456;-0,002361298;-0,00455438;-0,001293009;52;1,1;Up
185,850006;187,16;184,95;186,39;2988000;170,32647;0,008080196;Up;-0,399994;0,46;0,25;1,5;0,002905537;2,21;-16,06353;-16,894262;-0,012720965;-0,001196053;-0,002450474;-0,001147911;53;1,1;Down
186,25;186,7;184,7;184,89;3026500;168,955744;-0,011347562;Down;-0,360001;-0,43;-1,34;-2,11;-0,007302013;2;-15,934256;-15,366101;-0,074662916;-0,002818574;-0,002688709;-0,000977739;54;1,1;Up
186,610001;187,13;186,04;187;3270700;170,883899;-0,000320792;Down;0,339997;-0,28;0,11;-0,06;0,002089915;1,09;-16,116101;-15,671275;-0,171869857;-0,003051943;-0,001528058;-0,001965427;55;1,1;Down
186,270004;187,41;185,93;187,06;3949500;170,938726;0,003212632;Up;-2,800003;-1,67;-0,25;0,6;0,004241134;1,48;-16,121274;-15,87956;-0,060135167;-0,009018357;-0,001243397;-0,002094114;56;1,1;Down
189,070007;189,08;186,18;186,46;4202200;170,390444;-0,012047668;Down;-2,839997;-2,91;-1,99;-2,26;-0,013804448;2,9;-16,069556;-16,61434;-0,199809578;-0,010747662;-0,002451449;-0,002412847;57;1,1;Up
191,910004;191,99;188,17;188,72;5251500;172,455667;-0,018220035;Down;-0,879989;-1,04;-3,59;-3,47;-0,016622396;3,82;-16,264333;-16,283389;1,358528698;-0,002393533;-0,001063082;-0,001268348;58;1,1;Down
192,789993;193,03;191,76;192,19;2226600;175,626615;-0,001975282;Down;1,669998;0,01;0,82;-0,38;-0,003112158;1,27;-16,563385;-16,816123;-0,410546937;0,005737917;-0,000142837;-0,000554127;59;1,1;Down
191,119995;193,02;190,94;192,57;3777400;175,97387;0,013014717;Up;2,139999;2,4346;2,57;2,49;0,007586883;2,08;-16,59613;-17,421536;0,670233463;0,005708895;-0,001780579;-0,000686797;60;1,1;Down
188,979996;190,5854;188,37;190,08;2261600;173,698459;0,006174315;Up;-0,180008;0,0154;0,14;1,17;0,005820743;2,2154;-16,381541;-16,350702;-0,07002755;0,002022819;-0,002539138;-0,000497328;61;1,1;Up
189,160004;190,57;188,23;188,91;2431900;172,629294;-0,002062348;Down;-0,179992;0,27;1,3;-0,39;-0,001321654;2,34;-16,280706;-16,174321;-0,363543575;-0,002185881;-0,002042403;-0,001066315;62;1,1;Up
189,339996;190,3;186,93;189,3;3821000;172,985683;0,001956491;Up;-1,589997;-0,65;-2,32;-0,73;-0,000211239;3,37;-16,314317;-16,692427;0,198293976;-0,001812006;0,000507951;-0,000325378;0;1,1;Down
190,929993;190,95;189,25;190,03;3188700;172,647569;-0,006451785;Down;-0,12001;-0,54;-0,55;-1,23;-0,004713733;1,7;-17,382431;-17,164938;0,434993925;-0,006083529;-0,00012492;-0,000631852;1;1,1;Up
191,050003;191,49;189,8;191,26;2222100;173,765055;-0,000940725;Down;-2,699997;-2,35;-1,45;-0,18;0,001099173;1,69;-17,494945;-17,121406;-0,271418735;-0,008958673;-0,000306797;-0,000541007;2;1,1;Down
193,75;193,84;191,25;191,44;3049900;173,928597;-0,010858076;Down;-2,559998;-2,9;-1,9;-2,09;-0,011922581;2,59;-17,511403;-17,922583;-0,169869352;-0,006329683;-0,000462729;-0,000720805;3;1,1;Down
196,309998;196,74;193,15;193,53;3674000;175,827417;-0,015077219;Down;1,929993;-0,12;-1,2;-2,94;-0,014161265;3,59;-17,702583;-17,811507;-0,126652087;0,000672407;0,000816485;0,000244923;4;1,1;Down
194,380005;196,86;194,35;196,47;4206800;178,498491;0,006946246;Up;0,790009;0,92;0,94;1,36;0,010752109;2,51;-17,971509;-17,117112;-0,090677215;0,011811641;0,004179135;0,001414549;5;1,1;Down
193,589996;195,94;193,41;195,11;4626300;177,262893;0,010148193;Up;2,449997;1,95;2,83;1,97;0,007851666;2,53;-17,847107;-18,116904;-0,179486725;0,008460734;-0,000823732;0,001247026;6;1,1;Up
191,139999;193,99;190,58;193,14;5638300;175,473092;0,018340485;Up;0,600006;3,32;1,47;3,51;0,01046354;3,41;-17,666908;-18,855836;0,456548695;0,002442401;-0,002486245;0,000122546;7;1,1;Up
190,539993;190,67;189,11;189,63;3871000;172,284163;-0,003106477;Down;-1,680008;-1,55;-0,92;-0,59;-0,004775864;1,56;-17,345837;-17,719801;-0,121644619;-0,004400486;-0,005253742;-0,001278627;8;1,1;Up
192,220001;192,22;190,03;190,22;4407100;172,820192;-0,007906805;Down;0,430008;-0,19;-0,08;-1,51;-0,01040475;2,19;-17,399808;-18,027937;-0,069525378;-0,003573117;-0,003224019;0,000473202;9;1,1;Down
191,789993;192,41;190,11;191,73;4736400;174,192064;-0,002188175;Down;-0,220002;-0,59;-1,09;-0,42;-0,000312806;2,3;-17,537936;-17,216349;0,221162275;0,003003812;-0,002549066;0,001215717;10;1,1;Down
192,009995;193;191,2;192,15;3878600;174,573644;-0,000624372;Down;2,209992;0,195;1,46;-0,12;0,000729155;1,8;-17,576356;-17,327318;-0,284351532;-0,00729236;-0,002887295;0,001016655;11;1,1;Down
189,800003;192,805;189,74;192,27;5419700;174,682677;0,011823982;Up;2,550003;2,105;2,73;2,26;0,013013683;3,065;-17,587323;-17,170608;-0,518231759;-0,008134871;-0,00066137;0,001823345;12;1,1;Down
187,25;190,7;187,01;190,01;11249600;172,629395;-0,03307669;Down;-10,800003;-8,01;-7,99;-6,39;0,014739653;3,69;-17,380605;-8,815112;0,319245248;-0,013342696;-0,002932292;0,000772029;13;1,1;Up
198,050003;198,71;195;196,4;8527300;178,434888;-0,003151905;Down;2,070007;1,3;-0,42;-0,62;-0,008331245;3,71;-17,965112;-19,051818;0,593500645;0,002059969;0,002982076;0,002519488;14;1,1;Down
195,979996;197,41;195,42;197,02;5351300;178,998185;-0,003799493;Down;-0,260009;-0,83;-0,46;-0,75;0,005306684;1,99;-18,021815;-16,300415;-0,014693156;0,002274878;0,002777822;0,003552062;15;1,1;Down
196,240005;198,24;195,88;197,77;5431100;179,679581;0,013131306;Up;1,200012;1,24;1,61;2,58;0,00779655;2,36;-18,090419;-18,904428;0,123288521;0,001910039;0,002696109;0,003305121;16;1,1;Down
195,039993;197;194,27;195,19;4835000;177,335577;-0,00250718;Down;-1,020005;-2,21;-1,39;-0,49;0,000769109;2,73;-17,854423;-17,259246;-0,42562872;0,003260614;0,000442662;0,002138395;17;1,1;Up
196,059998;199,21;195,66;195,68;8417900;177,780747;-0,004894008;Down;2,179993;2,21;2,06;-0,96;-0,001938172;3,55;-17,899253;-17,407058;0,536085108;0,001981876;0,002054551;0,002120741;18;1,1;Down
193,880005;197;193,6;196,64;5480100;178,65294;0,01718303;Up;-0,009994;2,8325;0,9102;3,35;0,014235583;3,4;-17,98706;-18,27064;0,069287805;0,008359295;0,003998121;0,002433336;19;1,1;Down
193,889999;194,1675;192,6898;193,29;5125000;175,609365;-0,006343394;Down;2,169998;-1,1415;1,1198;-1,23;-0,003094533;1,4777;-17,680635;-17,163134;-0,239670648;0,001036307;0,002257834;0,001338785;20;1,1;Up
191,720001;195,309;191,57;194,52;6740500;176,726865;0,014238248;Up;-1,399994;1,339;0,29;2,75;0,014604626;3,739;-17,793135;-17,491588;0,106832625;0,001666373;0,001226962;0,001636808;21;1,1;Down
193,119995;193,97;191,28;191,77;6089900;174,228413;-0,004785933;Down;-0,080002;0,59;-1,07;-0,92;-0,006990447;2,69;-17,541587;-18,055738;0,488572755;-0,0047118;-0,002113484;0,001110898;22;1,1;Up
193,199997;193,38;192,35;192,69;4091100;175,064257;-0,004453197;Down;-1,040008;-1,12;-0,14;-0,86;-0,002639736;1,03;-17,625743;-17,354406;-0,16916797;0,000346154;0,002913979;0,001498782;23;1,1;Down
194,240005;194,5;192,49;193,55;4924100;175,845591;-0,004896271;Down;1,12001;-0,63;-0,29;-0,95;-0,003552332;2,01;-17,704409;-17,531315;-0,087132237;0,005382072;0,004524193;0,002235824;24;1,1;Down
193,119995;195,13;192,78;194,5;5394100;176,70869;0,010387929;Up;1,479996;1,36;1,38;2,01;0,007145842;2,35;-17,79131;-18,237441;-0,368172607;0,008101073;0,004315286;0,002234448;25;1,1;Down
191,639999;193,77;191,4;192,49;8537300;174,882554;0,010654557;Up;1,699997;1,15;2,29;2,04;0,004435405;2,37;-17,607446;-18,61085;0,643558448;-0,000225026;0,005157147;0,001737727;26;1,1;Up
189,940002;192,62;189,11;190,45;5194400;173,029149;0,003260733;Up;-1,970002;-0,05;-0,212;0,62;0,002685048;3,51;-17,420851;-17,474136;-0,232471889;-0,007938318;0,002412204;0,001551268;27;1,1;Up
191,910004;192,67;189,322;189,83;6767700;172,465866;-0,014590367;Down;-3,069992;-2,96;-2,638;-2,79;-0,010838434;3,348;-17,364134;-16,909351;-0,012259731;0,002786026;0,002675539;0,00160849;28;1,1;Up
194,979996;195,63;191,96;192,62;6851700;175,000653;-0,01248532;Down;6,220001;0,235;3,26;-2,42;-0,012103785;3,67;-17,619347;-17,780707;-0,372135219;0,010458988;0,006944925;0,002217145;29;1,1;Down
188,759995;195,395;188,7;195,04;10912700;177,199289;0,035433766;Up;1,330002;5,955;1,33;6,79;0,033269788;6,695;-17,840711;-17,729605;0,901664198;0,012431585;0,007351567;0,002948487;30;1,1;Down
187,429993;189,44;187,37;188,25;5738500;171,03039;0,008428519;Up;-1,070007;0,74;0,97;1,58;0,004375004;2,07;-17,21961;-17,835078;-0,542209139;0,006327934;0,001355261;0,000973777;31;1,1;Up
188,5;188,7;186,4;186,67;12535200;169,594915;-0,006567529;Down;4,029999;0,44;2,23;-1,23;-0,009708223;2,3;-17,075085;-17,7876;1,476039979;-0,0002499;-6,02E-05;0,000914976;32;1,1;Up
184,470001;188,26;184,17;187,9;5062600;170,7124;0,017122813;Up;-1,130005;1,56;0,6699;3,19;0,018593804;4,09;-17,1876;-16,655794;0,170841139;0,003728414;0,001008578;0,001153909;33;1,1;Down
185,600006;186,7;183,5001;184,71;4323900;167,814207;-0,011304984;Down;-0,389999;-1,2;-2,0399;-2,1;-0,004795291;3,1999;-16,895793;-15,877898;0,091535607;0,004542385;-0,001993911;0,000251704;34;1,1;Up
185,990005;187,9;185,54;186,81;3961300;169,722108;0,005367412;Up;3,330001;1,55;2,88;1;0,004408812;2,36;-17,087892;-17,176425;-0,197808874;0,005233316;-0,000554148;0,001225677;35;1,1;Down
182,660004;186,35;182,66;185,81;4938100;168,81358;0,019564726;Up;-1,229995;2,06;0,45;3,6;0,017245133;3,69;-16,99642;-17,117116;-0,100577382;-0,000734715;-0,000891546;0,001383423;36;1,1;Up
183,889999;184,29;182,21;182,21;5490300;165,542888;-0,00923219;Down;-2,520005;-2,71;-1,5;-1,69;-0,009135891;2,08;-16,667112;-16,811711;0,11745909;-0,008221478;-0,002868697;0,000630506;37;1,1;Up
186,410004;187;183,71;183,9;4913200;167,078288;-0,012536681;Down;0,400009;-0,45;-2,18;-2,32;-0,013464964;3,29;-16,821712;-17,223924;0,016594248;-0,004483051;-0,00024446;0,001702351;38;1,1;Down
186,009995;187,45;185,89;186,22;4833000;169,18608;-0,002895564;Down;-1,400009;-1;-0,15;-0,54;0,001128998;1,56;-17,03392;-16,333316;0,142688261;-0,00260319;0,000706808;0,002243982;39;1,1;Down
187,410004;188,45;186,04;186,76;4229500;169,676679;0,001983092;Up;-0,139999;0,08;0,191;0,37;-0,003468353;2,41;-17,083321;-18,069476;-0,078781147;-0,001566963;0,001001262;0,003042085;40;1,1;Down
187,550003;188,37;185,849;186,39;4591200;169,340528;-0,006897097;Down;-0,800003;-0,55;-1,331;-1,29;-0,006185033;2,521;-17,049472;-17,03748;0,114964301;-0,001338582;0,001572434;0,003312487;41;1,1;Up
188,350006;188,92;187,18;187,68;4117800;170,512523;0,000213116;Up;0,980011;0,53;0,28;0,04;-0,003557239;1,74;-17,167477;-17,873818;0,078720562;0,002209621;0,002999522;0,003992691;42;1,1;Down
187,369995;188,39;186,9;187,64;3817300;170,476188;0,002668234;Up;0,799988;0,44;0,5;0,5;0,001441026;1,49;-17,163812;-17,348071;0,095288649;0,006059152;0,002822888;0,003967228;43;1,1;Up
186,570007;187,95;186,4;187,14;3485200;170,021924;0,003747513;Up;0,760009;0,79;0,72;0,7;0,003055116;1,55;-17,118076;-17,18405;-0,263638284;0,003527561;0,002939885;0,002862909;44;1,1;Up
185,809998;187,16;185,68;186,44;4733000;169,385957;0,01176171;Up;2,479996;2,52;2,86;2,18;0,003390571;1,48;-17,054043;-18,404639;0,198197514;0,002098414;0,001470214;0,002517957;45;1,1;Up
183,330002;184,64;182,82;184,26;3950100;167,405359;-0,00492654;Down;-2,050003;-1,48;-0,83;-0,91;0,005072809;1,82;-16,854641;-15,097879;-0,153773646;0,000361999;0,000891863;0,002230037;46;1,1;Up
185,380005;186,12;183,65;185,17;4667900;168,232123;-0,000539929;Down;1,550003;0,17;-0,16;-0,1;-0,001132835;2,47;-16,937877;-17,057024;0,219473327;0,003510715;0,001343805;0,00233816;47;1,1;Down
183,830002;185,95;183,81;185,27;3827800;168,322981;0,006552466;Up;-0,11;0,67;0,25;1,21;0,007833313;2,14;-16,947019;-16,606346;0,023284412;0,003290704;0,001070585;0,002093629;48;1,1;Down
183,940002;185,28;183,56;184,06;3740700;167,223656;0,004519608;Up;0,419998;0,68;0,68;0,83;0,000652376;1,72;-16,836344;-17,470426;-0,041411475;0,002307953;0,001516827;0,001353367;49;1,1;Up
183,520004;184,6;182,88;183,23;3902300;166,469576;-0,001199962;Down;0,699997;-0,56;0,06;-0,22;-0,001580231;1,72;-16,760424;-16,850551;-0,150806259;-0,001868535;0,002056606;0,000372713;50;1,1;Up
182,820007;185,16;182,82;183,45;4595300;166,669453;0,003604213;Up;-1,429993;-0,55;0,2;0,66;0,003445974;2,34;-16,780547;-16,750185;-0,193707999;0,000909753;0,00258167;0,000546814;51;1,1;Down
184,25;185,71;182,62;182,79;5699300;166,069822;-0,008009856;Down;1,289993;0,8501;-0,17;-1,47;-0,007924016;3,09;-16,720178;-16,844641;0,147155912;-0,000728653;0,003924693;-0,001132794;52;1,1;Up
182,960007;184,8599;182,79;184,26;4968200;167,405359;0,007134903;Up;0,220002;-0,7901;0,38;1,31;0,00710534;2,0699;-16,854641;-16,744818;0,06351279;0,001032736;0,004848326;-0,001167395;53;1,1;Down
182,740005;185,65;182,41;182,95;4671500;166,215189;-0,001311006;Down;-0,439988;1,65;0,09;-0,24;0,001149146;3,24;-16,734811;-16,306764;0,053278319;0,00202857;0,0057893;-0,00117256;54;1,1;Up
183,179993;184;182,32;183,19;4435200;166,433241;-0,002725689;Down;1,919998;-0,43;1,33;-0,5;5,46E-05;1,68;-16,756759;-16,292488;-0,048219919;0,005411518;0,006944667;-0,000866683;55;1,1;Down
181,259995;184,43;180,99;183,69;4659900;166,887505;0,010122406;Up;3,039994;2,07;3,13;1,85;0,013406185;3,44;-16,802495;-16,053272;0,039692102;0,007320264;0,008293803;-0,000299988;56;1,1;Down
178,220001;182,36;177,86;181,84;4482000;165,206723;0,008837836;Up;-1,300003;1,11;-1,4;1,6;0,020311968;4,5;-16,633277;-14,466915;0,12528245;0,008728928;0,006985119;-0,000327757;57;1,1;Up
179,520004;181,25;179,26;180,24;3983000;163,753086;0,003000551;Up;2,710006;0,86;2,46;0,54;0,004010673;1,99;-16,486914;-16,257531;-0,142943214;0,005576053;0,003177041;-0,001488251;58;1,1;Up
176,809998;180,39;176,8;179,7;4647300;163,262473;0,014348398;Up;-0,160003;2,74;0,55;2,56;0,016345241;3,59;-16,437527;-15,873354;0,312648288;0,009463435;0,002321794;-0,001653761;59;1,1;Up
176,970001;177,65;176,25;177,14;3540400;160,936644;-0,000620791;Down;1,330002;0,09;1,18;-0,11;0,000960609;1,4;-16,203356;-15,933418;-0,245583754;0,007324611;0,001206677;-0,002448857;60;1,1;Up
175,639999;177,56;175,07;177,25;4692900;161,036583;0,014662698;Up;1,669998;2,71;1,28;2,58;0,009166483;2,49;-16,213417;-16,94742;0,093355389;0,010220674;0,000965796;-0,002839469;61;1,1;Down
173,970001;174,85;173,79;174,67;4292200;158,692579;0,007931927;Up;1,779999;-0,12;1,6;0,43;0,004023676;1,06;-15,977421;-16,531181;-0,089149672;0,005217419;-0,001606993;-0,00260823;0;0,95;Up
172,190002;174,97;172,19;174,24;4712300;157,43882;0,008067397;Up;-1,339997;1,22;-0,17;1,4;0,011905442;2,78;-16,80118;-16,016194;0,083337165;-0,004635485;-0,003815145;-0,003124906;1;0,95;Up
173,529999;173,75;172,36;172,84;4349800;156,173808;-0,000347066;Down;-2,490005;-2,27;-0,36;-0,06;-0,003976252;1,39;-16,666192;-17,301979;-0,394751489;-0,008605092;-0,006955417;-0,003220468;2;0,95;Up
176,020004;176,02;172,72;172,9;7186800;156,22802;-0,021626785;Down;-0,089997;-1,815;-2,62;-3,78;-0,017725281;3,3;-16,67198;-16,376474;0,383833327;-0,006680249;-0,006583252;-0,003701763;3;0,95;Down
176,110001;177,835;175,34;176,68;5193400;159,64353;-0,003841425;Down;-1,059997;-0,025;-1,02;-0,68;0,003236608;2,495;-17,03647;-15,852033;0,069987844;-0,000320602;-0,0080483;-0,002848191;4;0,95;Down
177,169998;177,86;176,36;177,36;4853700;160,257968;0,005427463;Up;1,190002;-0,67;0,47;0,96;0,001072428;1,5;-17,102032;-17,779468;-0,023577219;-0,00101333;-0,008664507;-0,002798529;5;0,95;Down
175,979996;178,53;175,89;176,4;4970900;159,39053;-0,002547844;Down;-2,070007;0,08;-0,27;-0,45;0,002386658;2,64;-17,00947;-16,182846;-0,067950425;-0,006066913;-0,008465279;-0,003231476;6;0,95;Up
178,050003;178,45;176,16;176,85;5333300;159,79715;-0,005919609;Down;-1,559998;-1,2;-1,5;-1,05;-0,006739697;2,29;-17,05285;-17,304111;0,023941174;-0,010902559;-0,007469513;-0,003269455;7;0,95;Down
179,610001;179,65;177,66;177,9;5208600;160,745892;-0,009733287;Down;-1,639999;-3,1641;-1,98;-1,74;-0,009520634;1,99;-17,154108;-17,291884;-0,244100659;-0,008052604;-0,005511863;-0,003113564;8;0,95;Down
181,25;182,8141;179,64;179,64;6890600;162,318117;-0,01705478;Down;-0,179993;-0,9059;-1,07;-3,09;-0,008882759;3,1741;-17,321883;-16,139842;-0,011944536;-0,015923899;-0,003106265;-0,002699831;9;0,95;Down
181,429993;183,72;180,71;182,73;6973900;165,110158;0,002630254;Up;0,149994;0,22;1,04;0,48;0,007165337;3,01;-17,619842;-16,753546;-0,494502069;-0,013162666;-0,003061047;-0,001742835;10;0,95;Down
181,279999;183,5;179,67;182,25;13796100;164,676447;-0,033347172;Down;-8,949997;-6,89;-7,12;-6,18;0,005350844;3,83;-17,573553;-11,019469;0,245551312;-0,011698987;-0,003469912;-0,002055198;11;0,95;Up
190,229996;190,39;186,79;188,43;11076300;170,26053;-0,008771079;Down;2,190003;-0,42;-1,07;-1,66;-0,009462209;3,6;-18,16947;-18,469529;0,448905109;0,00122283;0,00030552;0,000351877;12;0,95;Down
188,039993;190,81;187,86;190,09;7644600;171,760467;0,007021289;Up;0,509994;1,82;1,06;1,33;0,010901973;2,95;-18,329533;-17,481282;0,602540721;0,00739372;0,000250125;0,001112123;13;0,95;Down
187,529999;188,99;186,8;188,76;4770300;170,558711;0,005418281;Up;1,709992;0,34;1,31;1,02;0,006558956;2,19;-18,201289;-17,892924;-0,009592027;0,00822379;0,001841207;0,000574926;14;0,95;Up
185,820007;188,65;185,49;187,74;4816500;169,637075;0,009741591;Up;0,760009;2,222;1,6082;1,82;0,010332542;3,16;-18,102925;-17,827444;0,042713024;0,000853352;0,000734554;9,06E-05;15;0,95;Up
185,059998;186,428;183,8818;185,92;4619200;167,992563;0,009511498;Up;-1,199997;-0,522;0,0218;1,76;0,004647152;2,5462;-17,927437;-18,657721;-0,201479766;-0,002607402;0,000262484;-0,000981743;16;0,95;Up
186,259995;186,95;183,86;184,16;5784700;166,402277;-0,016693034;Down;-2,050003;-1,62;-2,42;-3,1;-0,011274536;3,09;-17,757723;-17,056645;0,438121519;-0,006825807;-0,002293398;-0,002293398;17;0,95;Up
188,309998;188,57;186,28;187,26;4022400;169,20335;-0,000640669;Down;-0,710006;-0,93;-0,27;-0,12;-0,005575901;2,29;-18,05665;-18,99821;-0,069169;-0,004332876;-0,000236307;-0,000236307;18;0,95;Down
189,020004;189,5;186,55;187,38;4321300;169,311788;-0,003143718;Down;-0,309998;0,0825;-0,71;-0,59;-0,008676352;2,95;-18,068212;-19,17511;-0,061341964;0,002463997;-0,000168913;-0,000168913;19;0,95;Down
189,330002;189,4175;187,26;187,97;4603700;169,844894;-0,00921424;Down;2,940003;-0,9325;0,88;-1,74;-0,007183236;2,1575;-18,125106;-17,912884;-0,223960353;0,00236692;0,000426048;0,000426048;20;0,95;Down
186,389999;190,35;186,38;189,71;5932300;171,417118;0,01974995;Up;-0,759995;2,995;1,08;3,71;0,01781212;3,97;-18,292882;-18,325148;0,458355868;0,007426679;0,00283612;0,00283612;21;0,95;Down
187,149994;187,355;185,3;186;4067800;168,064851;-0,00343495;Down;1,319992;0,005;0;-0,64;-0,006144772;2,055;-17,935149;-18,506856;0,001132113;-0,002801824;-0,002801824;-0,002801824;22;0,95;Up
185,830002;187,35;185,3;186,64;4063200;168,643138;0,005965036;Up;-1,380005;-0,05;0,1;1,11;0,004358812;2,05;-17,996862;-18,189832;-0,106301551;-0,002485261;-0,002485261;-0,002485261;23;0,95;Down
187,210007;187,4;185,2;185,53;4546500;167,64017;-0,010935557;Down;187,210007;187,4;185,2;185,53;-0,008973917;2,2;-17,88983;-187,210007;#DIV/0!;-0,010935557;-0,010935557;-0,010935557;24;0,95;Up
