Returns;3d_m.a.high_change;3d_m.a.low_change;3d_m.a.close_change;10d_m.a.high_change;10d_m.a.low_change;10d_m.a.close_change;daily_price_percent_change;open(t)-adj.close(t-1);vol_percent_change;adj.close-close;high-low;days_to-next-dividend;3d_m.a.return;30d_m.a.return;Y
Down;Up;Up;Up;Down;Down;Down;Down;17^Class;9^Class;52^Class;7^Class;21^Class;Up;Down;Down
Down;Up;Up;Up;Up;Up;Up;Down;17^Class;5^Class;52^Class;4^Class;22^Class;Up;Up;Down
Up;Up;Up;Up;Up;Up;Up;Up;19^Class;11^Class;52^Class;10^Class;23^Class;Up;Up;Down
Down;Down;Up;Down;Down;Down;Down;Down;16^Class;19^Class;52^Class;7^Class;24^Class;Down;Down;Up
Down;Up;Up;Up;Up;Down;Up;Down;17^Class;1^Class;52^Class;1^Class;25^Class;Up;Down;Down
Up;Up;Up;Up;Down;Up;Up;Up;19^Class;10^Class;52^Class;4^Class;25^Class;Up;Up;Down
Up;Down;Down;Up;Down;Down;Down;Up;18^Class;5^Class;52^Class;16^Class;26^Class;Up;Up;Up
Up;Down;Down;Down;Down;Down;Down;Down;20^Class;3^Class;53^Class;10^Class;27^Class;Down;Down;Up
Down;Down;Down;Down;Up;Up;Up;Down;17^Class;23^Class;53^Class;17^Class;28^Class;Down;Up;Up
Down;Up;Up;Up;Up;Up;Up;Down;18^Class;7^Class;53^Class;22^Class;29^Class;Up;Up;Down
Up;Up;Up;Up;Up;Up;Up;Up;21^Class;8^Class;52^Class;10^Class;29^Class;Up;Up;Down
Up;Up;Up;Up;Up;Up;Up;Up;21^Class;6^Class;52^Class;9^Class;30^Class;Up;Up;Up
Up;Down;Down;Down;Up;Up;Up;Up;19^Class;8^Class;53^Class;12^Class;31^Class;Down;Up;Up
Down;Down;Down;Down;Down;Down;Down;Down;13^Class;9^Class;53^Class;7^Class;32^Class;Down;Down;Up
Up;Down;Down;Down;Up;Up;Up;Down;19^Class;8^Class;53^Class;13^Class;33^Class;Down;Up;Down
Down;Down;Down;Down;Down;Up;Up;Down;16^Class;10^Class;53^Class;26^Class;34^Class;Down;Down;Up
Down;Down;Down;Down;Down;Down;Down;Down;14^Class;10^Class;52^Class;7^Class;34^Class;Down;Down;Down
Down;Down;Down;Down;Down;Down;Down;Down;17^Class;5^Class;52^Class;8^Class;35^Class;Down;Down;Down
Up;Down;Down;Down;Down;Down;Down;Up;16^Class;6^Class;52^Class;20^Class;36^Class;Down;Down;Down
Down;Up;Down;Down;Up;Down;Down;Down;19^Class;14^Class;52^Class;16^Class;37^Class;Down;Down;Up
Down;Up;Up;Up;Up;Up;Down;Down;17^Class;7^Class;52^Class;9^Class;38^Class;Up;Up;Down
Up;Up;Up;Up;Down;Up;Down;Up;18^Class;7^Class;52^Class;10^Class;39^Class;Up;Up;Down
Up;Up;Up;Up;Down;Down;Down;Up;18^Class;31^Class;52^Class;6^Class;39^Class;Up;Down;Up
Up;Down;Up;Prev;Up;Down;Down;Up;18^Class;2^Class;52^Class;8^Class;40^Class;Down;Up;Up
Down;Down;Up;Down;Down;Down;Up;Down;17^Class;7^Class;52^Class;3^Class;41^Class;Down;Down;Up
Up;Up;Up;Up;Down;Down;Down;Up;16^Class;4^Class;52^Class;12^Class;42^Class;Up;Down;Down
Down;Up;Up;Up;Down;Down;Down;Down;18^Class;8^Class;52^Class;9^Class;43^Class;Up;Down;Up
Up;Up;Up;Up;Down;Down;Down;Up;19^Class;9^Class;52^Class;8^Class;44^Class;Up;Down;Down
Up;Up;Up;Up;Down;Down;Down;Up;18^Class;9^Class;53^Class;9^Class;44^Class;Up;Down;Up
Up;Up;Up;Up;Down;Down;Down;Up;20^Class;13^Class;53^Class;8^Class;45^Class;Up;Down;Up
Up;Up;Up;Up;Down;Down;Down;Down;18^Class;4^Class;53^Class;7^Class;46^Class;Up;Down;Up
Up;Down;Down;Down;Down;Down;Down;Up;17^Class;7^Class;53^Class;14^Class;47^Class;Down;Down;Up
Down;Down;Down;Down;Down;Down;Down;Down;17^Class;8^Class;53^Class;6^Class;48^Class;Down;Down;Up
Down;Down;Down;Down;Down;Down;Down;Down;16^Class;13^Class;53^Class;9^Class;49^Class;Down;Down;Down
Down;Down;Down;Down;Down;Down;Down;Down;19^Class;5^Class;53^Class;9^Class;49^Class;Down;Down;Down
Up;Down;Down;Down;Down;Down;Down;Up;17^Class;3^Class;53^Class;8^Class;50^Class;Down;Down;Down
Down;Down;Down;Down;Down;Down;Down;Down;17^Class;15^Class;53^Class;22^Class;51^Class;Down;Down;Up
Down;Down;Down;Down;Down;Down;Down;Down;18^Class;7^Class;52^Class;9^Class;1^Class;Down;Down;Down
Down;Up;Up;Down;Down;Down;Down;Down;21^Class;13^Class;47^Class;18^Class;1^Class;Down;Down;Down
Down;Up;Up;Up;Down;Down;Down;Down;23^Class;6^Class;46^Class;6^Class;2^Class;Up;Down;Down
Up;Up;Up;Up;Down;Down;Down;Up;20^Class;9^Class;46^Class;19^Class;3^Class;Up;Down;Down
Up;Down;Up;Down;Down;Down;Down;Down;22^Class;7^Class;47^Class;2^Class;4^Class;Down;Down;Up
Down;Down;Up;Up;Down;Down;Down;Down;21^Class;9^Class;47^Class;6^Class;5^Class;Up;Down;Up
Down;Down;Down;Down;Down;Down;Down;Up;20^Class;2^Class;47^Class;10^Class;5^Class;Down;Down;Down
Up;Down;Down;Down;Down;Down;Down;Up;21^Class;3^Class;46^Class;27^Class;6^Class;Down;Down;Down
Down;Down;Down;Down;Down;Down;Down;Down;21^Class;42^Class;47^Class;51^Class;7^Class;Down;Down;Up
Down;Up;Up;Up;Down;Down;Down;Down;22^Class;4^Class;46^Class;10^Class;8^Class;Up;Down;Down
Up;Up;Up;Up;Up;Up;Up;Up;23^Class;7^Class;46^Class;10^Class;9^Class;Up;Up;Down
Up;Down;Down;Down;Down;Up;Down;Up;23^Class;6^Class;46^Class;24^Class;10^Class;Down;Down;Up
Up;Down;Down;Down;Down;Down;Down;Up;20^Class;2^Class;46^Class;23^Class;10^Class;Down;Down;Up
Down;Down;Down;Down;Down;Down;Down;Down;5^Class;18^Class;47^Class;17^Class;11^Class;Down;Down;Up
Down;Down;Down;Down;Up;Up;Up;Down;21^Class;21^Class;45^Class;8^Class;12^Class;Down;Up;Down
Up;Up;Up;Up;Up;Up;Up;Down;23^Class;8^Class;44^Class;11^Class;13^Class;Up;Up;Down
Up;Down;Down;Down;Up;Up;Up;Down;25^Class;8^Class;44^Class;17^Class;14^Class;Down;Up;Up
Up;Down;Down;Down;Up;Up;Up;Up;22^Class;6^Class;44^Class;8^Class;15^Class;Down;Up;Up
Down;Down;Down;Down;Up;Up;Up;Down;22^Class;10^Class;45^Class;8^Class;15^Class;Down;Up;Up
Down;Up;Up;Up;Up;Up;Up;Down;23^Class;7^Class;44^Class;9^Class;16^Class;Up;Up;Down
Up;Up;Up;Up;Up;Up;Up;Down;23^Class;5^Class;44^Class;10^Class;17^Class;Up;Up;Down
Up;Up;Up;Up;Up;Up;Up;Up;21^Class;14^Class;44^Class;27^Class;18^Class;Up;Up;Up
Up;Up;Up;Up;Up;Up;Up;Up;25^Class;8^Class;44^Class;10^Class;19^Class;Up;Up;Up
Down;Up;Up;Up;Up;Up;Up;Down;22^Class;4^Class;45^Class;8^Class;20^Class;Up;Up;Up
Up;Up;Up;Up;Down;Up;Up;Up;25^Class;15^Class;45^Class;30^Class;20^Class;Up;Up;Down
Up;Up;Down;Up;Down;Down;Down;Up;15^Class;6^Class;46^Class;29^Class;21^Class;Up;Up;Up
Down;Up;Down;Up;Up;Up;Down;Down;23^Class;8^Class;46^Class;30^Class;22^Class;Up;Down;Up
Up;Down;Down;Down;Down;Down;Down;Up;25^Class;6^Class;46^Class;12^Class;23^Class;Down;Down;Down
Down;Down;Down;Down;Down;Down;Down;Up;20^Class;9^Class;46^Class;7^Class;24^Class;Down;Down;Up
Down;Up;Down;Down;Down;Down;Down;Down;19^Class;10^Class;46^Class;19^Class;25^Class;Down;Down;Down
Up;Up;Up;Up;Up;Down;Up;Down;25^Class;9^Class;45^Class;9^Class;25^Class;Up;Up;Down
Up;Down;Down;Down;Down;Down;Up;Up;19^Class;10^Class;46^Class;21^Class;26^Class;Down;Up;Up
Down;Down;Down;Down;Up;Down;Up;Down;21^Class;5^Class;46^Class;10^Class;27^Class;Down;Down;Up
Down;Down;Down;Down;Down;Down;Down;Down;17^Class;7^Class;46^Class;5^Class;28^Class;Down;Down;Down
Up;Down;Down;Down;Down;Down;Down;Up;24^Class;2^Class;45^Class;12^Class;29^Class;Down;Down;Down
Down;Down;Down;Down;Down;Down;Down;Down;17^Class;18^Class;46^Class;15^Class;29^Class;Down;Down;Up
Down;Up;Up;Up;Down;Down;Down;Up;21^Class;12^Class;45^Class;15^Class;30^Class;Up;Down;Down
Up;Up;Up;Up;Down;Down;Down;Up;23^Class;8^Class;45^Class;6^Class;31^Class;Up;Down;Down
Up;Up;Up;Up;Down;Down;Down;Up;24^Class;6^Class;45^Class;13^Class;32^Class;Up;Down;Up
Down;Down;Up;Up;Down;Down;Down;Down;22^Class;8^Class;45^Class;11^Class;33^Class;Up;Down;Up
Up;Up;Up;Up;Down;Down;Down;Up;21^Class;7^Class;45^Class;10^Class;34^Class;Up;Down;Down
Up;Up;Up;Up;Down;Down;Down;Up;24^Class;8^Class;45^Class;17^Class;34^Class;Up;Down;Up
Down;Up;Down;Down;Down;Down;Down;Down;26^Class;7^Class;46^Class;31^Class;35^Class;Down;Down;Up
Up;Up;Up;Up;Down;Down;Down;Up;27^Class;7^Class;45^Class;9^Class;36^Class;Up;Down;Down
Down;Up;Up;Up;Down;Down;Down;Down;16^Class;10^Class;46^Class;12^Class;37^Class;Up;Down;Up
Up;Down;Down;Down;Down;Down;Down;Up;24^Class;6^Class;45^Class;14^Class;38^Class;Down;Down;Down
Up;Down;Down;Down;Down;Down;Down;Up;27^Class;6^Class;46^Class;10^Class;39^Class;Down;Down;Up
Down;Down;Down;Down;Down;Down;Down;Down;14^Class;11^Class;46^Class;21^Class;39^Class;Down;Down;Up
Down;Up;Up;Up;Down;Down;Down;Up;21^Class;8^Class;45^Class;13^Class;40^Class;Up;Down;Down
Down;Up;Up;Up;Down;Down;Down;Up;20^Class;6^Class;45^Class;3^Class;41^Class;Up;Down;Down
Up;Up;Up;Up;Down;Down;Down;Up;27^Class;6^Class;45^Class;23^Class;42^Class;Up;Down;Down
Up;Down;Down;Down;Down;Down;Down;Up;29^Class;7^Class;45^Class;36^Class;43^Class;Down;Down;Up
Down;Down;Down;Down;Down;Down;Down;Down;30^Class;5^Class;46^Class;51^Class;44^Class;Down;Down;Up
Down;Down;Down;Down;Down;Down;Down;Down;8^Class;12^Class;46^Class;42^Class;44^Class;Down;Down;Down
Down;Down;Down;Down;Down;Down;Down;Down;20^Class;17^Class;45^Class;33^Class;45^Class;Down;Down;Down
Down;Down;Down;Down;Down;Down;Down;Down;20^Class;7^Class;44^Class;6^Class;46^Class;Down;Down;Down
Down;Down;Down;Down;Down;Down;Down;Down;21^Class;19^Class;44^Class;14^Class;47^Class;Down;Down;Down
Down;Up;Up;Up;Down;Down;Down;Up;21^Class;7^Class;43^Class;5^Class;48^Class;Up;Down;Down
Up;Up;Up;Up;Down;Down;Down;Up;22^Class;5^Class;43^Class;11^Class;49^Class;Up;Down;Down
Up;Up;Down;Up;Down;Down;Down;Up;23^Class;11^Class;43^Class;8^Class;49^Class;Up;Down;Up
Down;Down;Down;Down;Down;Down;Down;Down;23^Class;5^Class;43^Class;9^Class;50^Class;Down;Down;Up
Up;Up;Down;Up;Down;Down;Down;Up;20^Class;9^Class;43^Class;16^Class;51^Class;Up;Down;Down
Down;Down;Down;Down;Down;Down;Down;Down;21^Class;5^Class;43^Class;4^Class;52^Class;Down;Down;Up
Up;Down;Down;Down;Down;Down;Down;Down;27^Class;10^Class;43^Class;6^Class;53^Class;Up;Down;Down
Down;Down;Down;Down;Down;Down;Down;Down;22^Class;11^Class;43^Class;11^Class;53^Class;Down;Down;Up
Down;Down;Down;Down;Down;Down;Down;Down;25^Class;6^Class;43^Class;6^Class;1^Class;Down;Down;Down
Up;Down;Down;Down;Down;Down;Down;Down;31^Class;4^Class;37^Class;12^Class;1^Class;Down;Down;Down
Down;Down;Down;Down;Down;Down;Down;Down;26^Class;9^Class;38^Class;11^Class;2^Class;Down;Down;Up
Down;Up;Down;Down;Down;Down;Down;Down;27^Class;11^Class;37^Class;29^Class;3^Class;Down;Down;Down
Up;Up;Up;Up;Down;Down;Down;Up;28^Class;16^Class;36^Class;6^Class;4^Class;Up;Down;Down
Down;Up;Up;Up;Down;Down;Down;Up;26^Class;4^Class;37^Class;8^Class;5^Class;Up;Down;Up
Up;Down;Down;Up;Down;Down;Down;Up;27^Class;10^Class;37^Class;12^Class;5^Class;Up;Down;Down
Up;Down;Down;Down;Down;Down;Down;Up;29^Class;5^Class;37^Class;9^Class;6^Class;Down;Down;Up
Down;Down;Down;Down;Down;Down;Down;Up;25^Class;8^Class;37^Class;8^Class;7^Class;Down;Down;Up
Down;Down;Down;Down;Down;Down;Down;Down;26^Class;5^Class;37^Class;16^Class;8^Class;Down;Down;Down
Up;Down;Down;Down;Down;Down;Down;Up;27^Class;5^Class;36^Class;19^Class;9^Class;Down;Down;Down
Down;Down;Down;Down;Down;Down;Down;Down;27^Class;3^Class;37^Class;23^Class;10^Class;Down;Down;Up
Down;Down;Down;Down;Down;Down;Down;Down;6^Class;17^Class;36^Class;32^Class;10^Class;Down;Down;Down
Up;Up;Up;Up;Up;Up;Up;Up;30^Class;15^Class;33^Class;8^Class;11^Class;Up;Up;Down
Up;Up;Up;Up;Up;Up;Up;Up;27^Class;10^Class;34^Class;15^Class;12^Class;Up;Up;Up
Up;Up;Up;Up;Up;Up;Up;Up;31^Class;16^Class;34^Class;11^Class;13^Class;Up;Up;Up
Down;Up;Up;Up;Up;Up;Up;Up;28^Class;4^Class;35^Class;5^Class;14^Class;Up;Up;Up
Down;Up;Up;Up;Up;Up;Up;Down;29^Class;5^Class;35^Class;5^Class;15^Class;Up;Down;Down
Up;Up;Up;Up;Down;Down;Down;Up;31^Class;7^Class;34^Class;15^Class;15^Class;Up;Up;Down
Up;Up;Up;Up;Down;Down;Down;Up;32^Class;9^Class;35^Class;10^Class;16^Class;Up;Up;Up
Up;Up;Up;Down;Prev;Down;Up;Down;33^Class;13^Class;36^Class;10^Class;17^Class;Down;Down;Up
Down;Down;Down;Down;Down;Down;Down;Down;25^Class;6^Class;36^Class;14^Class;18^Class;Down;Down;Up
Up;Down;Down;Up;Down;Down;Down;Up;28^Class;9^Class;36^Class;21^Class;19^Class;Up;Down;Down
Down;Up;Up;Up;Down;Down;Down;Up;25^Class;9^Class;36^Class;9^Class;20^Class;Up;Down;Up
Up;Down;Up;Up;Down;Down;Down;Up;29^Class;7^Class;36^Class;2^Class;20^Class;Up;Down;Down
Up;Down;Down;Down;Down;Down;Down;Up;31^Class;7^Class;36^Class;11^Class;21^Class;Down;Down;Up
Down;Down;Down;Down;Down;Down;Down;Down;30^Class;9^Class;36^Class;10^Class;22^Class;Down;Down;Up
Down;Down;Down;Down;Down;Down;Down;Down;24^Class;1^Class;36^Class;15^Class;23^Class;Down;Down;Down
Down;Down;Down;Down;Down;Down;Down;Down;28^Class;36^Class;35^Class;8^Class;24^Class;Down;Down;Down
Down;Down;Down;Down;Down;Down;Down;Down;30^Class;5^Class;35^Class;12^Class;25^Class;Down;Down;Down
Down;Up;Up;Down;Down;Down;Down;Down;29^Class;7^Class;35^Class;11^Class;25^Class;Down;Down;Down
Up;Up;Up;Up;Down;Down;Down;Up;30^Class;14^Class;35^Class;15^Class;26^Class;Up;Down;Down
Up;Up;Up;Up;Down;Down;Down;Up;30^Class;1^Class;35^Class;4^Class;27^Class;Up;Down;Up
Down;Up;Up;Up;Down;Down;Down;Down;27^Class;20^Class;35^Class;8^Class;28^Class;Up;Down;Up
Up;Up;Up;Up;Down;Down;Down;Up;28^Class;10^Class;35^Class;8^Class;29^Class;Up;Down;Down
Up;Down;Down;Up;Down;Down;Down;Up;28^Class;7^Class;35^Class;9^Class;29^Class;Up;Down;Up
Up;Down;Down;Down;Down;Down;Down;Up;28^Class;5^Class;35^Class;7^Class;30^Class;Down;Down;Up
Down;Down;Down;Down;Down;Down;Down;Down;28^Class;12^Class;35^Class;13^Class;31^Class;Down;Down;Up
Down;Up;Up;Up;Down;Down;Down;Down;27^Class;7^Class;35^Class;8^Class;32^Class;Up;Down;Down
Down;Up;Up;Up;Down;Down;Down;Down;29^Class;5^Class;35^Class;10^Class;33^Class;Up;Down;Down
Up;Up;Down;Up;Down;Down;Down;Up;30^Class;12^Class;35^Class;23^Class;34^Class;Up;Down;Down
Up;Down;Down;Down;Down;Down;Down;Up;28^Class;7^Class;35^Class;17^Class;34^Class;Down;Down;Up
Down;Down;Down;Down;Down;Down;Down;Down;28^Class;10^Class;36^Class;14^Class;35^Class;Down;Down;Up
Down;Down;Down;Down;Down;Down;Down;Down;28^Class;8^Class;35^Class;9^Class;36^Class;Down;Down;Down
Down;Down;Down;Down;Down;Down;Down;Down;28^Class;13^Class;35^Class;17^Class;37^Class;Down;Down;Down
Up;Up;Down;Up;Down;Down;Down;Down;31^Class;6^Class;34^Class;11^Class;38^Class;Up;Down;Down
Down;Down;Down;Down;Down;Down;Down;Down;27^Class;6^Class;34^Class;12^Class;39^Class;Down;Down;Up
Up;Down;Down;Down;Down;Down;Down;Down;30^Class;5^Class;34^Class;11^Class;39^Class;Down;Down;Down
Down;Down;Up;Down;Down;Down;Down;Down;28^Class;22^Class;34^Class;9^Class;40^Class;Down;Down;Up
Down;Down;Down;Down;Up;Down;Up;Up;27^Class;4^Class;34^Class;4^Class;41^Class;Down;Up;Down
Up;Down;Down;Down;Up;Up;Up;Up;31^Class;5^Class;34^Class;11^Class;42^Class;Down;Up;Down
Down;Down;Down;Down;Up;Up;Up;Down;29^Class;12^Class;34^Class;20^Class;43^Class;Down;Up;Up
Down;Down;Up;Down;Up;Up;Up;Down;28^Class;10^Class;34^Class;4^Class;44^Class;Down;Up;Down
Down;Up;Up;Up;Up;Up;Up;Up;28^Class;8^Class;33^Class;3^Class;44^Class;Up;Up;Down
Up;Up;Down;Up;Up;Up;Up;Up;29^Class;7^Class;33^Class;11^Class;45^Class;Up;Up;Down
Up;Down;Down;Down;Up;Up;Up;Up;29^Class;11^Class;33^Class;10^Class;46^Class;Down;Up;Up
Down;Up;Up;Up;Up;Up;Up;Down;30^Class;5^Class;34^Class;4^Class;47^Class;Up;Up;Up
Down;Up;Up;Up;Up;Up;Up;Down;29^Class;10^Class;33^Class;10^Class;48^Class;Up;Up;Down
Up;Up;Up;Up;Up;Up;Up;Up;32^Class;8^Class;33^Class;4^Class;49^Class;Up;Up;Down
Up;Down;Down;Down;Up;Up;Up;Up;30^Class;6^Class;34^Class;11^Class;49^Class;Down;Up;Up
Down;Down;Down;Down;Up;Up;Up;Down;27^Class;9^Class;34^Class;17^Class;50^Class;Down;Up;Up
Down;Down;Up;Up;Up;Up;Up;Down;29^Class;6^Class;34^Class;13^Class;51^Class;Up;Up;Down
Up;Down;Up;Down;Up;Up;Up;Down;34^Class;11^Class;34^Class;3^Class;52^Class;Up;Up;Down
Up;Down;Down;Down;Up;Up;Up;Up;27^Class;5^Class;34^Class;20^Class;53^Class;Down;Up;Up
Down;Up;Down;Down;Up;Up;Up;Down;32^Class;8^Class;34^Class;40^Class;1^Class;Down;Up;Up
Down;Down;Up;Up;Up;Up;Up;Down;31^Class;7^Class;28^Class;14^Class;1^Class;Up;Up;Down
Up;Up;Up;Down;Up;Up;Up;Down;34^Class;10^Class;28^Class;17^Class;2^Class;Down;Up;Down
Up;Down;Up;Down;Up;Up;Up;Up;37^Class;4^Class;28^Class;8^Class;3^Class;Down;Up;Up
Down;Up;Prev;Up;Up;Up;Up;Down;31^Class;9^Class;29^Class;29^Class;4^Class;Up;Up;Up
Up;Up;Up;Up;Up;Up;Up;Up;31^Class;6^Class;28^Class;14^Class;5^Class;Up;Up;Down
Up;Up;Up;Up;Up;Up;Up;Up;32^Class;17^Class;28^Class;35^Class;5^Class;Up;Up;Up
Up;Up;Up;Up;Up;Up;Up;Down;35^Class;6^Class;29^Class;4^Class;6^Class;Up;Up;Up
Down;Up;Up;Up;Up;Up;Up;Down;32^Class;2^Class;29^Class;12^Class;7^Class;Up;Up;Up
Up;Up;Up;Up;Up;Up;Up;Up;31^Class;19^Class;29^Class;53^Class;8^Class;Up;Up;Down
Up;Up;Up;Up;Up;Up;Up;Up;31^Class;2^Class;31^Class;21^Class;9^Class;Up;Up;Up
Down;Up;Up;Up;Up;Up;Up;Down;31^Class;8^Class;31^Class;23^Class;10^Class;Up;Up;Up
Up;Up;Down;Up;Up;Up;Up;Up;34^Class;21^Class;30^Class;36^Class;10^Class;Up;Up;Down
Down;Down;Down;Down;Up;Up;Up;Down;27^Class;12^Class;32^Class;10^Class;11^Class;Down;Up;Up
Down;Down;Up;Up;Up;Up;Up;Down;29^Class;7^Class;31^Class;6^Class;12^Class;Up;Up;Down
Up;Up;Up;Up;Up;Up;Up;Up;31^Class;11^Class;31^Class;15^Class;13^Class;Up;Up;Down
Down;Up;Up;Down;Up;Up;Up;Down;30^Class;5^Class;31^Class;11^Class;14^Class;Down;Up;Up
Down;Up;Up;Up;Up;Up;Up;Up;29^Class;13^Class;31^Class;8^Class;15^Class;Up;Up;Down
Up;Down;Down;Up;Up;Up;Up;Up;30^Class;9^Class;31^Class;12^Class;15^Class;Up;Up;Down
Up;Down;Up;Up;Up;Up;Up;Up;30^Class;7^Class;31^Class;9^Class;16^Class;Up;Up;Up
Down;Up;Up;Up;Up;Up;Up;Up;29^Class;6^Class;32^Class;16^Class;17^Class;Up;Up;Up
Up;Up;Up;Up;Up;Up;Up;Up;29^Class;7^Class;31^Class;13^Class;18^Class;Up;Up;Down
Up;Up;Down;Up;Down;Up;Down;Up;28^Class;5^Class;32^Class;30^Class;19^Class;Up;Up;Up
Up;Down;Down;Down;Down;Up;Up;Up;31^Class;11^Class;32^Class;26^Class;20^Class;Down;Down;Up
Down;Down;Down;Down;Down;Down;Down;Down;29^Class;7^Class;32^Class;13^Class;20^Class;Down;Down;Up
Down;Up;Up;Down;Down;Up;Up;Down;26^Class;8^Class;32^Class;11^Class;21^Class;Down;Down;Down
Up;Up;Up;Up;Up;Up;Up;Up;32^Class;10^Class;31^Class;14^Class;22^Class;Up;Up;Down
Down;Down;Down;Down;Down;Down;Down;Down;31^Class;6^Class;32^Class;8^Class;23^Class;Down;Down;Up
Up;Down;Down;Down;Down;Down;Down;Up;30^Class;6^Class;32^Class;14^Class;24^Class;Down;Down;Down
Down;Up;Down;Down;Up;Down;Down;Down;31^Class;10^Class;32^Class;28^Class;25^Class;Down;Down;Up
Down;Up;Up;Up;Up;Up;Up;Down;31^Class;5^Class;31^Class;11^Class;25^Class;Up;Down;Down
Up;Up;Up;Up;Down;Up;Up;Up;30^Class;4^Class;31^Class;17^Class;26^Class;Up;Up;Down
Up;Up;Up;Up;Down;Down;Down;Up;33^Class;22^Class;31^Class;17^Class;27^Class;Up;Up;Up
Prev;Up;Up;Up;Down;Down;Down;Up;30^Class;5^Class;32^Class;12^Class;28^Class;Up;Down;Up
Up;Up;Up;Up;Down;Down;Down;Up;29^Class;16^Class;32^Class;37^Class;29^Class;Up;Down;None
Down;Down;Down;Down;Down;Down;Down;Up;27^Class;7^Class;33^Class;11^Class;29^Class;Down;Down;Up
Up;Down;Down;Up;Down;Down;Down;Up;31^Class;4^Class;33^Class;14^Class;30^Class;Up;Down;Down
Down;Down;Down;Down;Down;Down;Down;Down;28^Class;11^Class;34^Class;30^Class;31^Class;Down;Down;Up
Up;Down;Down;Down;Down;Up;Up;Up;28^Class;6^Class;33^Class;15^Class;32^Class;Down;Up;Down
Down;Down;Down;Down;Up;Up;Up;Down;32^Class;10^Class;33^Class;22^Class;33^Class;Down;Up;Up
Down;Down;Down;Down;Up;Up;Up;Down;27^Class;7^Class;33^Class;15^Class;34^Class;Down;Up;Down
Up;Up;Down;Up;Up;Up;Up;Up;29^Class;9^Class;32^Class;20^Class;34^Class;Up;Up;Down
Down;Down;Down;Down;Up;Up;Up;Down;28^Class;10^Class;33^Class;24^Class;35^Class;Down;Up;Up
Up;Down;Down;Up;Up;Up;Up;Up;31^Class;8^Class;32^Class;10^Class;36^Class;Up;Up;Down
Down;Down;Down;Down;Up;Up;Up;Down;29^Class;9^Class;32^Class;10^Class;37^Class;Down;Up;Up
Up;Down;Up;Up;Up;Up;Up;Up;29^Class;3^Class;32^Class;9^Class;38^Class;Up;Up;Down
Down;Down;Down;Down;Up;Up;Up;Down;30^Class;11^Class;32^Class;12^Class;39^Class;Down;Up;Up
Up;Down;Down;Down;Up;Up;Up;Up;30^Class;4^Class;32^Class;13^Class;39^Class;Down;Up;Down
Down;Down;Down;Down;Up;Up;Up;Down;33^Class;16^Class;32^Class;32^Class;40^Class;Down;Up;Up
Down;Up;Up;Down;Up;Up;Up;Down;31^Class;6^Class;31^Class;15^Class;41^Class;Down;Up;Down
Up;Up;Up;Up;Up;Up;Up;Up;29^Class;16^Class;31^Class;24^Class;42^Class;Up;Up;Down
Down;Up;Up;Up;Up;Up;Up;Down;32^Class;6^Class;31^Class;10^Class;43^Class;Up;Up;Up
Down;Up;Up;Up;Up;Up;Up;Up;30^Class;7^Class;31^Class;14^Class;44^Class;Up;Up;Down
Up;Up;Up;Up;Up;Up;Up;Up;30^Class;6^Class;31^Class;21^Class;44^Class;Up;Up;Down
Up;Up;Up;Up;Up;Up;Up;Up;32^Class;13^Class;31^Class;10^Class;45^Class;Up;Up;Up
Up;Up;Up;Up;Up;Up;Up;Up;28^Class;6^Class;32^Class;9^Class;46^Class;Up;Up;Up
Up;Up;Up;Up;Up;Up;Up;Up;30^Class;9^Class;32^Class;13^Class;47^Class;Up;Up;Up
Up;Up;Up;Up;Up;Down;Up;Down;31^Class;7^Class;33^Class;6^Class;48^Class;Up;Up;Up
Down;Up;Up;Up;Down;Down;Up;Up;28^Class;6^Class;33^Class;11^Class;49^Class;Up;Up;Up
Up;Down;Down;Up;Down;Down;Down;Up;32^Class;13^Class;33^Class;24^Class;49^Class;Up;Up;Down
Down;Down;Down;Down;Down;Down;Down;Down;27^Class;7^Class;33^Class;12^Class;50^Class;Down;Up;Up
Down;Down;Up;Down;Up;Up;Up;Down;31^Class;4^Class;33^Class;10^Class;1^Class;Down;Up;Down
Up;Up;Up;Up;Down;Down;Up;Up;33^Class;12^Class;28^Class;6^Class;1^Class;Up;Down;Down
Down;Up;Up;Up;Down;Down;Down;Down;29^Class;4^Class;29^Class;11^Class;2^Class;Up;Down;Up
Up;Up;Up;Up;Down;Down;Down;Up;32^Class;10^Class;28^Class;28^Class;3^Class;Up;Down;Down
Up;Up;Down;Up;Down;Down;Down;Up;33^Class;5^Class;29^Class;22^Class;4^Class;Up;Down;Up
Down;Up;Up;Down;Down;Down;Down;Down;28^Class;6^Class;30^Class;13^Class;5^Class;Down;Down;Up
Up;Down;Down;Down;Down;Down;Down;Up;31^Class;17^Class;29^Class;47^Class;5^Class;Down;Down;Down
Down;Down;Down;Down;Down;Down;Down;Down;32^Class;6^Class;30^Class;20^Class;6^Class;Down;Down;Up
Down;Down;Up;Down;Down;Down;Down;Down;28^Class;5^Class;30^Class;16^Class;7^Class;Down;Down;Down
Up;Up;Up;Up;Down;Down;Down;Down;38^Class;14^Class;29^Class;26^Class;8^Class;Up;Down;Down
Up;Up;Up;Down;Down;Down;Down;Up;31^Class;6^Class;29^Class;18^Class;9^Class;Down;Down;Up
Up;Down;Down;Down;Down;Down;Down;Up;31^Class;3^Class;29^Class;29^Class;10^Class;Down;Down;Up
Down;Down;Down;Down;Down;Down;Down;Down;22^Class;12^Class;30^Class;24^Class;10^Class;Down;Up;Up
Down;Up;Up;Up;Up;Up;Up;Up;31^Class;13^Class;29^Class;23^Class;11^Class;Up;Up;Down
Up;Down;Down;Up;Up;Up;Up;Up;30^Class;12^Class;29^Class;27^Class;12^Class;Up;Up;Down
Down;Down;Down;Down;Up;Up;Up;Down;34^Class;7^Class;29^Class;19^Class;13^Class;Down;Down;Up
Down;Down;Down;Down;Down;Down;Down;Up;27^Class;9^Class;29^Class;18^Class;14^Class;Down;Down;Down
Up;Up;Up;Down;Down;Down;Down;Down;34^Class;8^Class;29^Class;32^Class;15^Class;Down;Down;Down
Down;Up;Up;Up;Down;Down;Down;Down;32^Class;7^Class;29^Class;25^Class;15^Class;Up;Down;Up
Up;Up;Up;Up;Down;Down;Down;Up;32^Class;9^Class;28^Class;21^Class;16^Class;Up;Down;Down
Up;Down;Down;Down;Down;Down;Down;Up;35^Class;7^Class;28^Class;25^Class;17^Class;Down;Down;Up
Down;Down;Down;Down;Down;Down;Down;Down;35^Class;5^Class;29^Class;22^Class;18^Class;Down;Down;Up
Down;Down;Down;Down;Down;Down;Down;Down;33^Class;11^Class;29^Class;36^Class;19^Class;Down;Down;Down
Down;Up;Down;Down;Down;Down;Down;Down;31^Class;7^Class;28^Class;12^Class;20^Class;Down;Down;Down
Up;Up;Up;Up;Down;Up;Down;Up;35^Class;12^Class;27^Class;14^Class;20^Class;Up;Up;Down
Up;Down;Down;Down;Down;Down;Down;Up;34^Class;12^Class;28^Class;4^Class;21^Class;Down;Down;Up
Down;Down;Down;Down;Down;Down;Down;Up;31^Class;6^Class;28^Class;3^Class;22^Class;Down;Down;Up
Down;Down;Down;Down;Up;Up;Down;Down;32^Class;16^Class;28^Class;19^Class;23^Class;Down;Down;Down
Up;Up;Up;Up;Down;Down;Up;Up;34^Class;8^Class;27^Class;3^Class;24^Class;Up;Up;Down
Down;Up;Up;Up;Up;Down;Up;Down;35^Class;2^Class;27^Class;6^Class;25^Class;Up;Up;Up
Up;Up;Up;Up;Up;Up;Up;Up;35^Class;6^Class;27^Class;5^Class;25^Class;Up;Up;Down
Up;Up;Up;Up;Down;Up;Down;Up;32^Class;3^Class;27^Class;25^Class;26^Class;Up;Up;Up
Up;Up;Up;Up;Down;Down;Down;Up;32^Class;10^Class;28^Class;19^Class;27^Class;Up;Down;Up
Up;Up;Up;Up;Down;Down;Down;Up;35^Class;12^Class;28^Class;32^Class;28^Class;Up;Down;Up
Up;Down;Down;Down;Down;Down;Down;Up;31^Class;5^Class;30^Class;13^Class;29^Class;Down;Down;Up
Down;Down;Down;Down;Down;Down;Down;Down;29^Class;8^Class;30^Class;32^Class;29^Class;Down;Down;Up
Down;Down;Down;Down;Down;Down;Down;Down;33^Class;5^Class;30^Class;28^Class;30^Class;Down;Down;Down
Down;Down;Down;Down;Down;Down;Down;Down;31^Class;20^Class;29^Class;39^Class;31^Class;Down;Down;Down
Up;Down;Down;Down;Down;Down;Down;Up;34^Class;8^Class;27^Class;15^Class;32^Class;Down;Down;Down
Down;Down;Down;Down;Up;Down;Down;Down;33^Class;8^Class;28^Class;23^Class;33^Class;Down;Down;Up
Up;Down;Down;Down;Down;Up;Down;Up;30^Class;12^Class;27^Class;13^Class;34^Class;Down;Up;Down
Down;Down;Down;Down;Up;Up;Up;Down;33^Class;7^Class;27^Class;9^Class;34^Class;Down;Up;Up
Down;Up;Up;Up;Up;Up;Up;Down;32^Class;6^Class;27^Class;8^Class;35^Class;Up;Up;Down
Down;Up;Up;Up;Down;Up;Up;Up;32^Class;4^Class;26^Class;7^Class;36^Class;Up;Up;Down
Up;Up;Up;Up;Down;Down;Down;Up;33^Class;17^Class;26^Class;16^Class;37^Class;Up;Up;Down
Up;Up;Up;Up;Down;Down;Down;Up;35^Class;6^Class;27^Class;3^Class;38^Class;Up;Down;Up
Down;Down;Down;Down;Down;Down;Down;Down;32^Class;16^Class;27^Class;11^Class;39^Class;Down;Down;Up
Up;Down;Up;Up;Down;Down;Down;Down;35^Class;4^Class;27^Class;11^Class;39^Class;Up;Down;Down
Up;Up;Up;Up;Down;Down;Down;Up;33^Class;8^Class;27^Class;3^Class;40^Class;Up;Up;Up
Down;Up;Up;Up;Up;Up;Down;Down;34^Class;4^Class;27^Class;11^Class;41^Class;Up;Up;Up
Up;Up;Up;Up;Down;Up;Down;Up;34^Class;14^Class;27^Class;18^Class;42^Class;Up;Up;Down
Up;Down;Down;Down;Down;Down;Down;Down;36^Class;8^Class;27^Class;4^Class;43^Class;Down;Up;Up
Down;Down;Down;Down;Down;Down;Down;Down;32^Class;9^Class;27^Class;9^Class;44^Class;Down;Down;Up
Down;Down;Down;Down;Down;Down;Down;Down;33^Class;5^Class;27^Class;4^Class;44^Class;Down;Down;Down
Down;Up;Up;Down;Down;Down;Down;Down;35^Class;9^Class;27^Class;19^Class;45^Class;Down;Down;Down
Prev;Up;Up;Up;Down;Down;Down;Down;33^Class;8^Class;26^Class;5^Class;46^Class;Up;Down;Down
Up;Up;Down;Up;Down;Down;Down;Up;31^Class;13^Class;26^Class;18^Class;47^Class;Up;Down;None
Up;Down;Up;Down;Down;Down;Down;Up;33^Class;7^Class;27^Class;3^Class;48^Class;Down;Down;Up
Down;Up;Up;Down;Down;Down;Down;Down;31^Class;7^Class;27^Class;5^Class;49^Class;Down;Down;Up
Down;Up;Up;Up;Down;Down;Down;Down;34^Class;5^Class;27^Class;5^Class;49^Class;Up;Down;Down
Up;Up;Up;Up;Down;Down;Down;Up;33^Class;12^Class;27^Class;19^Class;50^Class;Up;Down;Down
Up;Down;Down;Down;Down;Down;Down;Up;33^Class;6^Class;27^Class;6^Class;51^Class;Up;Down;Up
Up;Down;Down;Down;Down;Down;Down;Up;34^Class;8^Class;27^Class;7^Class;1^Class;Down;Down;Up
Down;Down;Down;Down;Down;Down;Down;Down;37^Class;8^Class;23^Class;11^Class;1^Class;Down;Down;Up
Down;Down;Down;Down;Down;Down;Down;Down;36^Class;7^Class;23^Class;12^Class;2^Class;Down;Down;Down
Down;Down;Up;Up;Down;Down;Down;Up;36^Class;6^Class;22^Class;4^Class;3^Class;Up;Down;Down
Up;Up;Up;Up;Down;Down;Down;Down;39^Class;13^Class;22^Class;11^Class;4^Class;Up;Down;Down
Up;Up;Up;Up;Down;Down;Down;Up;36^Class;6^Class;22^Class;8^Class;5^Class;Up;Down;Up
Down;Up;Up;Up;Down;Down;Down;Down;38^Class;4^Class;22^Class;10^Class;5^Class;Up;Down;Up
Up;Up;Up;Up;Down;Down;Down;Up;36^Class;14^Class;22^Class;10^Class;6^Class;Up;Down;Down
Down;Down;Up;Up;Down;Down;Down;Down;35^Class;5^Class;23^Class;3^Class;7^Class;Up;Down;Up
Down;Down;Down;Down;Down;Down;Down;Down;35^Class;7^Class;23^Class;2^Class;8^Class;Down;Down;Down
Up;Down;Down;Down;Down;Down;Down;Up;36^Class;5^Class;23^Class;5^Class;9^Class;Down;Down;Down
Down;Down;Down;Down;Down;Down;Down;Down;34^Class;3^Class;23^Class;32^Class;10^Class;Down;Down;Up
Down;Down;Down;Down;Down;Down;Down;Down;30^Class;7^Class;22^Class;38^Class;10^Class;Down;Down;Down
Down;Down;Down;Down;Down;Down;Down;Up;1^Class;53^Class;20^Class;26^Class;11^Class;Down;Down;Down
Up;Down;Down;Down;Down;Down;Down;Up;43^Class;6^Class;16^Class;17^Class;12^Class;Down;Down;Down
Down;Down;Down;Down;Down;Down;Down;Up;35^Class;6^Class;17^Class;18^Class;13^Class;Down;Down;Up
Down;Down;Down;Down;Down;Down;Down;Down;37^Class;16^Class;16^Class;38^Class;14^Class;Down;Down;Down
Up;Down;Down;Down;Down;Down;Down;Down;44^Class;9^Class;15^Class;13^Class;15^Class;Down;Down;Down
Down;Down;Down;Down;Down;Down;Down;Down;39^Class;5^Class;15^Class;22^Class;15^Class;Down;Down;Up
Down;Down;Down;Up;Down;Down;Down;Up;39^Class;18^Class;15^Class;17^Class;16^Class;Up;Down;Down
Down;Down;Down;Down;Down;Down;Down;Down;41^Class;7^Class;14^Class;24^Class;17^Class;Down;Down;Down
Up;Up;Down;Up;Down;Down;Down;Up;41^Class;8^Class;13^Class;29^Class;18^Class;Up;Down;Down
Down;Up;Down;Down;Down;Down;Down;Down;38^Class;12^Class;15^Class;16^Class;19^Class;Down;Down;Up
Up;Up;Up;Up;Down;Down;Down;Down;44^Class;5^Class;13^Class;13^Class;20^Class;Up;Down;Down
Up;Down;Down;Down;Down;Down;Down;Up;44^Class;11^Class;14^Class;10^Class;20^Class;Down;Down;Up
Down;Down;Down;Down;Down;Down;Down;Down;42^Class;4^Class;14^Class;7^Class;21^Class;Down;Down;Up
Down;Up;Down;Down;Down;Down;Down;Down;42^Class;11^Class;14^Class;26^Class;22^Class;Down;Down;Down
Up;Down;Up;Up;Down;Down;Down;Up;41^Class;11^Class;13^Class;9^Class;23^Class;Up;Down;Down
Down;Down;Down;Down;Down;Down;Down;Up;37^Class;7^Class;13^Class;10^Class;24^Class;Down;Down;Up
Up;Down;Down;Down;Down;Down;Down;Up;41^Class;4^Class;13^Class;9^Class;25^Class;Down;Down;Down
Down;Down;Down;Down;Up;Down;Down;Down;41^Class;12^Class;13^Class;25^Class;25^Class;Down;Down;Up
Up;Down;Down;Down;Down;Up;Down;Up;40^Class;7^Class;12^Class;16^Class;26^Class;Down;Up;Down
Down;Down;Down;Down;Up;Up;Up;Down;41^Class;8^Class;13^Class;7^Class;27^Class;Down;Up;Up
Down;Up;Up;Up;Up;Up;Up;Down;42^Class;1^Class;12^Class;7^Class;28^Class;Up;Up;Down
Up;Up;Up;Up;Up;Up;Up;Down;44^Class;29^Class;12^Class;10^Class;29^Class;Up;Up;Down
Up;Up;Up;Up;Up;Up;Up;Up;42^Class;7^Class;12^Class;6^Class;29^Class;Up;Up;Up
Down;Up;Up;Up;Up;Up;Up;Down;43^Class;11^Class;12^Class;6^Class;30^Class;Up;Up;Up
Up;Up;Up;Up;Up;Up;Up;Up;40^Class;8^Class;12^Class;18^Class;31^Class;Up;Up;Down
Up;Up;Up;Up;Up;Up;Up;Up;42^Class;6^Class;13^Class;11^Class;32^Class;Up;Up;Up
Down;Up;Up;Up;Up;Up;Up;Down;41^Class;11^Class;13^Class;3^Class;33^Class;Up;Up;Up
Up;Up;Up;Up;Up;Up;Up;Up;41^Class;6^Class;13^Class;17^Class;34^Class;Up;Up;Down
Up;Up;Up;Up;Up;Up;Up;Up;42^Class;9^Class;13^Class;12^Class;34^Class;Up;Up;Up
Down;Down;Down;Down;Up;Up;Up;Down;42^Class;7^Class;13^Class;2^Class;35^Class;Down;Up;Up
Down;Down;Down;Down;Up;Up;Up;Down;41^Class;9^Class;13^Class;9^Class;36^Class;Down;Up;Down
Up;Down;Down;Down;Up;Up;Up;Up;41^Class;6^Class;13^Class;8^Class;37^Class;Down;Up;Down
Down;Down;Down;Down;Up;Up;Up;Down;41^Class;14^Class;13^Class;17^Class;38^Class;Down;Up;Up
Up;Up;Up;Down;Up;Up;Up;Down;44^Class;5^Class;12^Class;3^Class;39^Class;Down;Up;Down
Down;Down;Down;Down;Up;Up;Up;Down;43^Class;7^Class;13^Class;12^Class;39^Class;Down;Up;Up
Up;Down;Up;Down;Down;Down;Down;Up;43^Class;18^Class;12^Class;8^Class;40^Class;Down;Down;Down
Down;Up;Down;Up;Down;Down;Down;Up;40^Class;5^Class;12^Class;8^Class;41^Class;Up;Down;Up
Down;Up;Up;Up;Down;Down;Down;Down;42^Class;5^Class;12^Class;16^Class;42^Class;Up;Down;Down
Up;Up;Up;Up;Down;Down;Down;Up;41^Class;17^Class;12^Class;16^Class;43^Class;Up;Down;Down
Up;Up;Up;Up;Down;Down;Down;Down;44^Class;7^Class;13^Class;3^Class;44^Class;Up;Down;Up
Down;Up;Up;Up;Down;Down;Down;Down;41^Class;6^Class;13^Class;8^Class;44^Class;Up;Down;Up
Up;Up;Up;Up;Down;Down;Down;Up;44^Class;9^Class;13^Class;8^Class;45^Class;Up;Down;Down
Up;Up;Up;Up;Down;Down;Down;Up;41^Class;9^Class;13^Class;4^Class;46^Class;Up;Up;Up
Up;Up;Up;Up;Down;Down;Up;Up;43^Class;6^Class;13^Class;2^Class;47^Class;Up;Down;Up
Up;Up;Up;Up;Down;Down;Down;Up;43^Class;6^Class;13^Class;12^Class;48^Class;Up;Down;Up
Down;Up;Down;Up;Down;Down;Down;Down;41^Class;13^Class;14^Class;12^Class;49^Class;Up;Down;Up
Down;Down;Up;Up;Down;Down;Down;Up;40^Class;9^Class;14^Class;5^Class;49^Class;Up;Up;Down
Up;Up;Up;Up;Down;Down;Down;Down;43^Class;8^Class;14^Class;4^Class;50^Class;Up;Down;Down
Down;Up;Up;Up;Down;Down;Down;Down;41^Class;5^Class;14^Class;10^Class;51^Class;Up;Up;Up
Up;Up;Up;Up;Up;Up;Down;Down;44^Class;7^Class;14^Class;12^Class;52^Class;Up;Up;Down
Up;Down;Down;Down;Down;Down;Down;Up;41^Class;8^Class;14^Class;21^Class;53^Class;Up;Down;Up
Down;Down;Down;Down;Down;Down;Down;Down;42^Class;5^Class;15^Class;21^Class;53^Class;Down;Down;Up
Down;Down;Down;Down;Down;Down;Down;Up;39^Class;10^Class;15^Class;15^Class;1^Class;Down;Down;Down
Down;Down;Down;Down;Up;Up;Down;Down;42^Class;14^Class;10^Class;18^Class;1^Class;Down;Down;Down
Up;Down;Down;Down;Up;Up;Up;Up;44^Class;2^Class;9^Class;6^Class;2^Class;Down;Up;Down
Down;Down;Down;Down;Up;Up;Up;Down;41^Class;10^Class;9^Class;17^Class;3^Class;Down;Up;Up
Down;Down;Down;Down;Up;Up;Up;Down;42^Class;9^Class;8^Class;18^Class;4^Class;Down;Up;Down
Down;Up;Down;Down;Up;Up;Up;Down;47^Class;10^Class;7^Class;21^Class;5^Class;Down;Up;Down
Down;Up;Up;Down;Up;Up;Up;Down;44^Class;8^Class;7^Class;6^Class;5^Class;Down;Up;Down
Up;Up;Up;Up;Up;Up;Up;Up;45^Class;7^Class;7^Class;18^Class;6^Class;Up;Up;Down
Down;Up;Up;Up;Up;Up;Up;Down;45^Class;7^Class;7^Class;12^Class;7^Class;Up;Up;Up
Up;Up;Up;Up;Up;Up;Up;Up;46^Class;8^Class;7^Class;10^Class;8^Class;Up;Up;Down
Down;Up;Up;Up;Up;Up;Up;Down;45^Class;5^Class;7^Class;5^Class;9^Class;Up;Up;Up
Up;Down;Down;Up;Up;Up;Up;Up;46^Class;10^Class;7^Class;22^Class;10^Class;Up;Up;Down
Down;Down;Down;Down;Up;Up;Up;Down;42^Class;3^Class;8^Class;15^Class;10^Class;Down;Up;Up
Up;Up;Up;Up;Up;Up;Up;Up;43^Class;7^Class;8^Class;24^Class;11^Class;Up;Up;Down
Up;Up;Up;Up;Up;Up;Up;Up;45^Class;9^Class;8^Class;29^Class;12^Class;Up;Up;Up
Up;Up;Up;Up;Up;Up;Up;Up;53^Class;14^Class;8^Class;17^Class;13^Class;Up;Up;Up
Down;Up;Up;Up;Up;Up;Up;Down;43^Class;9^Class;9^Class;10^Class;14^Class;Up;Up;Up
Up;Up;Up;Up;Up;Up;Up;Up;45^Class;17^Class;9^Class;11^Class;15^Class;Up;Up;Down
Up;Up;Up;Up;Up;Up;Up;Up;44^Class;5^Class;10^Class;8^Class;15^Class;Up;Up;Up
Down;Down;Down;Down;Up;Up;Up;Up;39^Class;7^Class;10^Class;10^Class;16^Class;Down;Up;Up
Up;Up;Down;Down;Up;Up;Up;Up;45^Class;8^Class;9^Class;11^Class;17^Class;Down;Up;Down
Down;Down;Up;Down;Up;Up;Up;Down;43^Class;9^Class;10^Class;9^Class;18^Class;Down;Up;Up
Down;Up;Up;Up;Up;Up;Up;Up;41^Class;10^Class;10^Class;1^Class;19^Class;Up;Up;Down
Up;Up;Up;Up;Up;Up;Up;Up;44^Class;2^Class;9^Class;7^Class;20^Class;Up;Up;Down
Up;Up;Up;Up;Up;Up;Up;Up;43^Class;5^Class;9^Class;19^Class;20^Class;Up;Up;Up
Up;Up;Up;Up;Down;Up;Down;Up;43^Class;14^Class;10^Class;43^Class;21^Class;Up;Up;Up
Down;Up;Up;Up;Down;Down;Down;Down;41^Class;7^Class;12^Class;8^Class;22^Class;Up;Down;Up
Up;Down;Down;Up;Down;Down;Down;Up;40^Class;12^Class;12^Class;18^Class;23^Class;Up;Down;Down
Down;Down;Down;Down;Down;Down;Down;Down;42^Class;10^Class;12^Class;12^Class;24^Class;Down;Down;Up
Down;Down;Down;Down;Down;Down;Down;Up;40^Class;5^Class;12^Class;2^Class;25^Class;Down;Down;Down
Down;Down;Down;Down;Down;Down;Down;Down;41^Class;10^Class;12^Class;14^Class;25^Class;Down;Down;Down
Up;Down;Down;Down;Down;Down;Down;Up;43^Class;1^Class;12^Class;5^Class;26^Class;Down;Down;Down
Down;Down;Down;Down;Down;Down;Down;Down;42^Class;29^Class;12^Class;5^Class;27^Class;Down;Down;Up
Down;Up;Up;Up;Down;Down;Down;Down;44^Class;7^Class;11^Class;12^Class;28^Class;Up;Down;Down
Up;Up;Up;Up;Down;Down;Down;Up;42^Class;14^Class;11^Class;10^Class;29^Class;Up;Down;Down
Down;Up;Up;Up;Down;Down;Down;Up;41^Class;5^Class;12^Class;5^Class;29^Class;Up;Down;Up
Down;Down;Down;Up;Down;Down;Down;Down;42^Class;11^Class;12^Class;7^Class;30^Class;Up;Down;Down
Up;Down;Down;Down;Down;Down;Down;Up;44^Class;4^Class;12^Class;7^Class;31^Class;Down;Down;Down
Down;Down;Down;Down;Down;Down;Down;Down;43^Class;9^Class;12^Class;8^Class;32^Class;Down;Down;Up
Down;Down;Down;Down;Down;Down;Down;Down;41^Class;8^Class;12^Class;13^Class;33^Class;Down;Down;Down
Down;Up;Down;Down;Down;Down;Down;Down;43^Class;13^Class;11^Class;15^Class;34^Class;Down;Down;Down
Down;Up;Up;Up;Down;Down;Down;Down;43^Class;6^Class;10^Class;9^Class;34^Class;Up;Down;Down
Up;Up;Up;Up;Down;Down;Down;Down;45^Class;10^Class;10^Class;9^Class;35^Class;Up;Down;Down
Up;Down;Down;Up;Down;Down;Down;Up;43^Class;10^Class;10^Class;13^Class;36^Class;Up;Down;Up
Up;Up;Up;Up;Down;Down;Down;Down;44^Class;7^Class;11^Class;5^Class;37^Class;Up;Down;Up
Down;Up;Up;Up;Down;Down;Down;Down;43^Class;6^Class;11^Class;8^Class;38^Class;Up;Down;Up
Up;Up;Up;Up;Down;Down;Down;Up;44^Class;5^Class;10^Class;8^Class;39^Class;Up;Down;Down
Up;Down;Down;Down;Down;Down;Down;Up;42^Class;15^Class;11^Class;12^Class;39^Class;Down;Down;Up
Up;Down;Down;Down;Down;Down;Down;Up;44^Class;5^Class;11^Class;7^Class;40^Class;Down;Down;Up
Down;Down;Down;Down;Down;Down;Down;Down;42^Class;6^Class;11^Class;11^Class;41^Class;Down;Down;Up
Down;Down;Down;Down;Down;Down;Down;Down;40^Class;17^Class;11^Class;9^Class;42^Class;Down;Down;Down
Up;Down;Up;Up;Down;Down;Down;Up;44^Class;10^Class;10^Class;1^Class;43^Class;Up;Down;Down
Down;Down;Down;Down;Down;Down;Down;Down;43^Class;5^Class;10^Class;6^Class;44^Class;Down;Down;Up
Up;Down;Down;Down;Down;Down;Down;Up;45^Class;8^Class;10^Class;13^Class;44^Class;Down;Down;Down
Down;Down;Down;Down;Down;Down;Down;Down;42^Class;7^Class;11^Class;11^Class;45^Class;Down;Down;Up
Down;Down;Down;Down;Down;Down;Down;Up;42^Class;6^Class;10^Class;3^Class;46^Class;Down;Down;Down
Up;Down;Down;Down;Down;Down;Down;Up;43^Class;7^Class;10^Class;7^Class;47^Class;Down;Down;Down
Down;Down;Down;Down;Down;Down;Down;Down;45^Class;6^Class;10^Class;19^Class;48^Class;Down;Down;Up
Down;Up;Down;Down;Down;Down;Down;Down;44^Class;22^Class;9^Class;27^Class;49^Class;Down;Down;Down
Down;Up;Up;Up;Down;Down;Down;Down;45^Class;4^Class;8^Class;5^Class;49^Class;Up;Down;Down
Up;Up;Up;Up;Down;Down;Down;Up;47^Class;15^Class;8^Class;12^Class;50^Class;Up;Down;Down
Up;Down;Down;Up;Down;Down;Down;Up;44^Class;7^Class;9^Class;13^Class;51^Class;Up;Down;Up
Down;Down;Down;Down;Down;Down;Down;Down;44^Class;4^Class;9^Class;14^Class;52^Class;Down;Down;Up
Up;Down;Down;Down;Down;Down;Down;Down;45^Class;10^Class;9^Class;23^Class;1^Class;Down;Down;Down
Down;Down;Down;Down;Down;Down;Down;Down;46^Class;12^Class;5^Class;9^Class;1^Class;Down;Down;Up
Down;Down;Down;Down;Down;Down;Down;Up;46^Class;5^Class;4^Class;9^Class;2^Class;Down;Down;Down
Down;Down;Down;Down;Down;Down;Down;Down;48^Class;6^Class;4^Class;17^Class;3^Class;Down;Down;Down
Down;Up;Up;Up;Up;Up;Up;Down;48^Class;7^Class;3^Class;25^Class;4^Class;Up;Up;Down
Up;Up;Up;Up;Up;Up;Up;Up;46^Class;7^Class;2^Class;16^Class;5^Class;Up;Up;Down
Up;Up;Up;Up;Up;Up;Up;Up;49^Class;6^Class;3^Class;16^Class;5^Class;Up;Up;Up
Up;Up;Up;Up;Down;Up;Up;Up;51^Class;13^Class;3^Class;24^Class;6^Class;Up;Up;Up
Down;Down;Down;Down;Down;Down;Down;Down;48^Class;7^Class;5^Class;7^Class;7^Class;Down;Down;Up
Down;Down;Up;Down;Up;Down;Up;Down;48^Class;7^Class;4^Class;13^Class;8^Class;Down;Up;Down
Down;Up;Up;Up;Up;Up;Up;Down;46^Class;10^Class;4^Class;14^Class;9^Class;Up;Up;Down
Down;Down;Down;Down;Up;Up;Up;Up;47^Class;5^Class;4^Class;10^Class;10^Class;Down;Up;Down
Up;Down;Down;Down;Up;Up;Up;Up;46^Class;3^Class;4^Class;21^Class;10^Class;Down;Up;Down
Down;Down;Down;Down;Up;Up;Up;Up;25^Class;11^Class;5^Class;26^Class;11^Class;Down;Up;Up
Down;Up;Up;Up;Up;Up;Up;Down;51^Class;14^Class;2^Class;26^Class;12^Class;Up;Up;Down
Down;Down;Down;Up;Up;Up;Up;Up;44^Class;8^Class;2^Class;11^Class;13^Class;Up;Up;Down
Up;Up;Up;Up;Up;Up;Up;Up;51^Class;9^Class;2^Class;15^Class;14^Class;Up;Up;Down
Down;Up;Up;Up;Up;Up;Up;Up;46^Class;3^Class;3^Class;18^Class;15^Class;Up;Up;Up
Down;Up;Up;Up;Up;Up;Up;Down;47^Class;13^Class;2^Class;25^Class;15^Class;Up;Up;Down
Up;Up;Up;Up;Up;Up;Up;Up;49^Class;9^Class;2^Class;24^Class;16^Class;Up;Up;Down
Down;Up;Up;Up;Up;Up;Up;Down;46^Class;5^Class;3^Class;7^Class;17^Class;Up;Up;Up
Up;Up;Down;Up;Up;Up;Up;Up;47^Class;9^Class;3^Class;27^Class;18^Class;Up;Up;Down
Down;Down;Down;Down;Up;Up;Up;Down;48^Class;13^Class;4^Class;17^Class;19^Class;Down;Up;Up
Down;Down;Up;Up;Up;Up;Up;Down;47^Class;6^Class;3^Class;3^Class;20^Class;Up;Up;Down
Down;Up;Up;Up;Up;Up;Up;Down;47^Class;7^Class;3^Class;11^Class;20^Class;Up;Up;Down
Up;Up;Up;Up;Up;Up;Up;Up;49^Class;4^Class;3^Class;14^Class;21^Class;Up;Up;Down
Up;Down;Down;Down;Up;Up;Up;Up;50^Class;15^Class;4^Class;15^Class;22^Class;Down;Up;Up
Up;Down;Up;Down;Up;Up;Up;Up;47^Class;5^Class;4^Class;25^Class;23^Class;Down;Up;Up
Down;Up;Up;Up;Up;Up;Up;Down;46^Class;8^Class;5^Class;23^Class;24^Class;Up;Up;Up
Down;Up;Up;Up;Up;Up;Up;Down;48^Class;4^Class;4^Class;26^Class;25^Class;Up;Up;Down
Up;Up;Up;Up;Up;Up;Up;Up;48^Class;17^Class;3^Class;53^Class;25^Class;Up;Up;Down
Up;Up;Up;Up;Up;Up;Up;Up;48^Class;2^Class;5^Class;12^Class;26^Class;Up;Up;Up
Down;Up;Up;Down;Up;Up;Up;Down;48^Class;23^Class;6^Class;14^Class;27^Class;Down;Up;Up
Up;Up;Up;Up;Up;Up;Up;Up;45^Class;10^Class;5^Class;30^Class;28^Class;Up;Up;Down
Down;Up;Up;Up;Up;Up;Up;Down;43^Class;9^Class;7^Class;22^Class;29^Class;Up;Up;Up
Up;Up;Up;Up;Up;Up;Up;Up;46^Class;6^Class;6^Class;15^Class;29^Class;Up;Up;Down
Up;Down;Down;Down;Up;Up;Up;Up;46^Class;7^Class;6^Class;26^Class;30^Class;Down;Up;Up
Down;Down;Down;Down;Up;Up;Up;Down;45^Class;9^Class;8^Class;12^Class;31^Class;Down;Up;Up
Down;Down;Down;Down;Up;Up;Up;Down;46^Class;8^Class;7^Class;23^Class;32^Class;Down;Up;Down
Down;Down;Down;Down;Up;Up;Up;Up;44^Class;9^Class;6^Class;7^Class;33^Class;Down;Up;Down
Up;Up;Down;Down;Up;Up;Up;Down;49^Class;7^Class;6^Class;15^Class;34^Class;Down;Up;Down
Down;Up;Down;Down;Up;Up;Up;Down;46^Class;9^Class;6^Class;16^Class;34^Class;Down;Up;Up
Up;Up;Up;Up;Up;Up;Up;Down;48^Class;9^Class;5^Class;9^Class;35^Class;Up;Up;Down
Up;Up;Up;Up;Up;Up;Up;Up;47^Class;9^Class;5^Class;7^Class;36^Class;Up;Up;Up
Up;Up;Up;Up;Up;Up;Up;Up;46^Class;5^Class;6^Class;7^Class;37^Class;Up;Up;Up
Up;Up;Up;Up;Up;Up;Up;Up;49^Class;10^Class;6^Class;7^Class;38^Class;Up;Up;Up
Down;Down;Down;Up;Up;Up;Up;Up;41^Class;6^Class;7^Class;10^Class;39^Class;Up;Up;Up
Down;Up;Up;Up;Up;Up;Up;Down;46^Class;10^Class;6^Class;16^Class;39^Class;Up;Up;Down
Up;Up;Up;Up;Up;Up;Up;Up;45^Class;8^Class;6^Class;13^Class;40^Class;Up;Up;Down
Up;Down;Up;Up;Up;Up;Up;Up;47^Class;7^Class;7^Class;9^Class;41^Class;Up;Up;Up
Down;Down;Up;Down;Up;Up;Up;Down;45^Class;6^Class;7^Class;9^Class;42^Class;Down;Up;Up
Up;Down;Up;Up;Up;Up;Up;Up;45^Class;6^Class;7^Class;14^Class;43^Class;Up;Up;Down
Down;Up;Up;Down;Up;Up;Up;Down;45^Class;9^Class;7^Class;21^Class;44^Class;Down;Down;Up
Up;Up;Up;Up;Down;Down;Down;Up;45^Class;9^Class;7^Class;12^Class;44^Class;Up;Down;Down
Down;Up;Up;Up;Down;Down;Down;Up;44^Class;8^Class;7^Class;22^Class;45^Class;Up;Down;Up
Down;Up;Up;Up;Down;Down;Down;Up;44^Class;7^Class;7^Class;9^Class;46^Class;Up;Down;Down
Up;Up;Up;Up;Down;Down;Down;Up;43^Class;8^Class;7^Class;24^Class;47^Class;Up;Down;Down
Up;Up;Up;Up;Down;Down;Down;Up;39^Class;9^Class;8^Class;33^Class;48^Class;Up;Down;Up
Up;Up;Up;Up;Down;Down;Down;Up;44^Class;6^Class;8^Class;11^Class;49^Class;Up;Down;Up
Up;Up;Up;Up;Down;Down;Down;Up;43^Class;11^Class;9^Class;25^Class;49^Class;Up;Down;Up
Down;Up;Up;Up;Down;Down;Down;Up;43^Class;5^Class;10^Class;6^Class;50^Class;Up;Down;Up
Up;Up;Up;Up;Down;Down;Down;Up;46^Class;9^Class;9^Class;16^Class;51^Class;Up;Down;Down
Up;Down;Up;Up;Down;Down;Down;Up;45^Class;7^Class;10^Class;3^Class;1^Class;Up;Down;Up
Up;Down;Down;Down;Down;Down;Down;Up;43^Class;9^Class;7^Class;18^Class;1^Class;Down;Down;Up
Down;Down;Down;Down;Down;Down;Down;Down;47^Class;4^Class;8^Class;6^Class;2^Class;Down;Down;Up
Down;Down;Down;Down;Down;Down;Down;Down;44^Class;12^Class;8^Class;23^Class;3^Class;Down;Down;Down
Down;Down;Down;Down;Down;Down;Down;Up;43^Class;9^Class;6^Class;16^Class;4^Class;Down;Down;Down
Up;Down;Down;Down;Down;Down;Down;Up;48^Class;8^Class;6^Class;7^Class;5^Class;Down;Down;Down
Down;Down;Down;Down;Down;Down;Down;Up;44^Class;7^Class;6^Class;17^Class;5^Class;Down;Down;Up
Down;Down;Down;Down;Down;Down;Down;Down;47^Class;8^Class;6^Class;14^Class;6^Class;Down;Down;Down
Down;Down;Down;Down;Down;Down;Down;Down;47^Class;5^Class;5^Class;11^Class;7^Class;Down;Down;Down
Down;Down;Down;Down;Down;Down;Down;Down;44^Class;8^Class;5^Class;22^Class;8^Class;Down;Down;Down
Up;Down;Down;Down;Down;Down;Down;Up;45^Class;3^Class;4^Class;20^Class;9^Class;Down;Down;Down
Down;Down;Down;Down;Down;Down;Down;Up;30^Class;10^Class;4^Class;28^Class;10^Class;Down;Down;Up
Down;Up;Up;Up;Up;Up;Up;Down;50^Class;13^Class;1^Class;25^Class;10^Class;Up;Up;Down
Up;Up;Up;Up;Up;Up;Up;Up;47^Class;14^Class;1^Class;20^Class;11^Class;Up;Up;Down
Up;Up;Up;Up;Up;Up;Up;Up;48^Class;8^Class;1^Class;13^Class;12^Class;Up;Up;Up
Up;Up;Down;Up;Down;Up;Down;Up;48^Class;8^Class;1^Class;22^Class;13^Class;Up;Up;Up
Up;Down;Down;Down;Down;Down;Down;Up;50^Class;6^Class;2^Class;16^Class;14^Class;Down;Down;Up
Down;Down;Down;Down;Down;Down;Down;Down;46^Class;12^Class;3^Class;21^Class;15^Class;Down;Down;Up
Down;Down;Down;Down;Up;Up;Down;Down;51^Class;7^Class;2^Class;14^Class;15^Class;Down;Down;Down
Down;Up;Up;Up;Up;Up;Up;Down;51^Class;7^Class;2^Class;20^Class;16^Class;Up;Down;Down
Down;Up;Up;Up;Up;Up;Up;Down;48^Class;6^Class;1^Class;13^Class;17^Class;Up;Up;Down
Up;Up;Up;Up;Down;Up;Up;Up;49^Class;13^Class;1^Class;29^Class;18^Class;Up;Up;Down
Down;Down;Down;Down;Up;Down;Down;Down;50^Class;8^Class;2^Class;12^Class;19^Class;Down;Down;Up
Up;Down;Down;Down;Down;Down;Down;Up;49^Class;7^Class;2^Class;12^Class;20^Class;Down;Down;Down
Down;Down;Down;Down;Up;Down;Down;Down;48^Class;11^Class;2^Class;13^Class;20^Class;Down;Down;Up
