Returns;3d_m.a.high_change;3d_m.a.low_change;3d_m.a.close_change;10d_m.a.high_change;10d_m.a.low_change;10d_m.a.close_change;daily_price_percent_change;high-low;adj.close-close;open(t)-adj.close(t-1);vol_percent_change;3d_m.a.return;30d_m.a.return;days_to-next-dividend;Y
-0,012420733;0,351666667;0,343333333;0,003333333;-0,024285476;-0,10952381;-0,095714286;-0,010426454;1,53;-6,091602;5,897742;0,151836489;Up;Down;25;Down
-0,003152784;0,52;0,37;0,363333333;0,046190524;0,025714286;0,033333333;-0,001719458;1,22;-6,167735;5,987211;-0,241980881;Up;Up;26;Down
0,015646151;0,251666667;0,03;0,413333333;0,011904762;0,05952381;0,047142857;0,011066908;1,86;-6,187209;6,731155;0,254596933;Up;Up;27;Down
-0,004640042;-0,048333333;0,296666667;-0,106666667;-0,029999524;-0,018333333;-0,039761905;-0,000943843;1,505;-6,091155;5,609489;1,102327448;Down;Down;28;Up
-0,002095403;1,016666667;1,363333333;0,916666667;0,03714281;-0,021904762;0,038095238;-0,001300246;0,77;-6,119484;6,02232;-0,710507464;Up;Down;29;Down
0,00441279;0,781666667;1,28;1,213333333;-0,01095219;0,020714286;0,047142857;0,001735336;1,195;-6,132327;6,47533;0,211337305;Up;Up;30;Down
0,017774611;-0,436666667;-0,219166667;0,393333333;-0,070951905;-0,03452381;-0,076190476;0,015086804;2,54;-6,105327;6,377763;-0,240979083;Up;Up;31;Up
0,004437926;-1,273333333;-1,256666667;-1,263333333;-0,018095476;-0,090738095;-0,094761905;-0,002429522;1,81;-5,997758;6,901208;-0,439712351;Down;Down;32;Up
-0,013620726;-0,67;-1,003333333;-0,963333333;0,077143381;0,05;0,00047619;-0,011069599;2,69;-5,971206;5,713092;1,451668908;Down;Up;33;Up
-0,018403599;1,12;0,7625;0,273333333;0,244285952;0,222857143;0,142738095;-0,018658098;3,1925;-6,053088;6,225531;-0,058911518;Up;Up;34;Down
0,010827303;1,403333333;1,293333333;1,573333333;0,349047714;0,264761905;0,285714286;0,001222003;1,86;-6,165525;7,429124;0,02524478;Up;Up;35;Down
0,013590747;0,373333333;0,519966667;0,336666667;0,211904619;0,284285714;0,268095238;0,002838472;1,69;-6,099129;7,486793;-0,175998289;Up;Up;36;Up
0,010055429;-1,233333333;-0,736666667;-0,226666667;0,029047667;0,068571429;0,048095238;0,004582086;2,12;-6,016799;6,696584;-0,035621883;Down;Up;37;Up
-0,016289226;-1,206666667;-1,206666667;-1,16;-0,040952381;-0,036190476;-0,028095238;-0,004880544;1,53;-5,956586;4,504413;0,121771683;Down;Down;38;Up
0,001243636;-0,853333333;-1,029966667;-0,923333333;0,079523714;0,100714286;0,076195238;-0,001824411;2,1299;-6,054417;6,46689;0,030292524;Down;Up;39;Down
-0,01048581;-0,393333333;-0,586666667;-1,273333333;-0,025713952;0,083809524;0,064285714;-0,005604928;3,61;-6,046891;5,440633;0,181757656;Down;Down;40;Up
-0,01080702;-0,556666667;-0,22;-0,29;-0,015238429;-0,023333333;-0,016190476;-0,001663285;1,53;-6,110628;4,907023;0,19082759;Down;Down;41;Down
-0,006286111;-0,266666667;-0,23;-0,05;-0,069047476;-0,093809524;-0,039047619;-0,004352197;1,6;-6,177024;5,94599;-0,28265815;Down;Down;42;Down
0,010810883;-0,126666667;-0,53;-0,283333333;-0,212381286;-0,077619048;-0,157619048;0,0169455;3,03;-6,215986;5,319139;-0,226411263;Down;Down;43;Down
-0,00559903;0,276666667;-0,11;-0,166666667;0,003809619;-0,098571429;-0,081428571;-0,008422598;2,54;-6,149143;6,583676;0,586299458;Down;Down;44;Up
-0,011246485;0,8;0,763333333;0,413333333;0,020475857;0,03302381;-0,003333333;-0,008727688;1,71;-6,18367;5,903598;-0,111963958;Up;Up;45;Down
0,013252783;0,99;0,735;1,093333333;-0,040952381;0,003333333;-0,015238095;0,012179381;1,82;-6,253605;6,331277;-0,077107533;Up;Up;46;Down
0,00690942;0,186666667;0,403333333;0,273333333;-0,083333333;-0,043809524;-0,023814286;0,005843727;1,38;-6,171275;6,278774;2,210622969;Up;Down;47;Up
0,003327838;-0,02;0,03;0;0,003809619;-0,115238095;-0,013809524;0,003333333;1,6;-6,128773;6,108418;-0,562781792;Down;Up;48;Up
-0,004338442;-0,161666667;0,041666667;-0,166666667;-0,244761905;-0,257142857;0,002142857;-0,002673954;1,055;-6,108418;5,904966;-0,049740294;Down;Down;49;Up
0,001010603;0,534833333;0,433333333;0,62;-0,338095524;-0,26952381;-0,280952381;0,006901606;2,03;-6,134971;5,318767;-0,33675237;Up;Down;50;Down
-0,000288802;0,986666667;0,953333333;0,88;-0,289523905;-0,315238095;-0,313333333;-0,000505298;1,75;-6,128773;6,160549;-0,007437601;Up;Down;51;Up
0,012788971;1,365;1,313333333;1,56;-0,208095714;-0,293095238;-0,208095238;0,008225996;1,665;-6,13055;6,682635;0,088943117;Up;Down;52;Down
0,006750823;1,215166667;1,406666667;1,01;-0,192380619;-0,2345;-0,156666667;0,003890999;1,7255;-6,05264;6,401923;0,145666635;Up;Down;53;Up
0,014834864;0,97;0,87;1,356666667;-0,366667238;-0,331904762;-0,286190476;0,007641569;1,65;-6,011916;6,893381;0,473908565;Up;Down;54;Up
0,000822346;0,04;0,1;0,26;-0,744285952;-0,721428571;-0,717619048;-0,002980189;1,51;-5,923388;6,428521;-0,328266679;Up;Down;55;Up
0,014767137;-0,703333333;-0,903333333;-0,436666667;-0,888571619;-0,814761905;-0,831904762;0,014568686;2,3;-5,91852;5,871762;-0,091681477;Down;Down;56;Up
-0,009743596;-0,911666667;-0,823333333;-1,24;-0,855238429;-0,868571429;-0,806190476;-0,009025927;1,35;-5,831769;5,798873;-0,018632748;Down;Down;57;Up
-0,014773163;-1,126666667;-0,623333333;-0,756666667;-0,709524238;-0,75952381;-0,762380952;-0,01232366;1,69;-5,888876;5,656505;0,485528311;Down;Down;58;Down
-0,003327281;-1,116666667;-1,123333333;-1,076666667;-0,699523952;-0,694285714;-0,699047619;-0,007862415;1,7;-5,976508;6,616425;-0,299946912;Down;Down;59;Down
0,001181804;-2,215;-1,836666667;-1,473333333;-0,811428238;-0,802142857;-0,796666667;0,00081264;1,615;-5,996429;6,039352;-0,440190203;Down;Down;60;Down
-0,02149522;-1,523333333;-2,14;-2,106666667;-0,692381381;-0,71747619;-0,78047619;-0,018924;3,2;-5,989351;5,789482;0,701953677;Down;Down;61;Up
-0,002456269;-1,083333333;-0,676666667;-1,21;-0,528095048;-0,641380952;-0,543809524;-0,002525296;1,68;-6,119484;6,144543;-0,069061586;Down;Down;0;Down
-0,012361663;0,621166667;0,02;-0,16;-0,40142819;-0,397619048;-0,439357143;-0,012146042;2,75;-7,434537;7,507006;0,449259291;Down;Down;1;Down
-0,00176361;0,44;0,466666667;0,516666667;-0,309999762;-0,357142857;-0,342380952;-0,006453897;1,35;-7,527005;8,210294;-0,191405711;Up;Down;2;Down
0,01069991;0,66;0,2933;0,443333333;-0,276190619;-0,337738095;-0,281904762;0,013283788;2,9;-7,540291;7,110055;0,137931034;Up;Down;3;Down
0,002068055;-0,237833333;0,69;-0,153333333;-0,026190619;-0,19397619;-0,047142857;-0,000925267;0,9465;-7,460051;7,864632;-0,04061245;Down;Down;4;Up
-0,00334962;-0,833333333;0,856666667;0,74;-0,231904571;-0,206666667;-0,08047619;-0,002563386;1,43;-7,444632;7,359611;0,07373868;Up;Down;5;Up
-0,001990183;-1,393333333;-1,396633333;-1,036666667;-0,158571476;-0,232857143;-0,220947619;0,001353655;1,7999;-7,469609;7,014492;-0,564067016;Down;Down;6;Down
0,021314822;-1,42;-2,066666667;-1,283333333;-0,193809857;-0,068095238;-0,173814286;0,021099203;3,73;-7,484491;7,386648;-0,432894693;Down;Down;7;Down
-0,041210737;-0,413333333;-1,43;-2,076666667;-0,043333476;-0,073809524;-0,244761905;-0,039370045;6,5;-7,32665;7,484887;3,301169255;Down;Down;8;Up
-0,007074934;0,78;1,303333333;0,913333333;-0,038095381;-0,06047619;-0,062857143;-0,007530225;1,79;-7,634892;7,759111;-0,35025324;Up;Down;9;Down
0,004086273;0,87;1,143333333;1,346666667;0,095714048;0,02;0,083333333;0,000484054;1,79;-7,689111;8,177752;-0,038114343;Up;Up;10;Down
0,02224574;-1,633333333;-2,253333333;-1,71;-0,117619143;0,023809524;-0,053809524;0,016579617;3,45;-7,657751;8,309283;-0,201327497;Down;Down;11;Up
0,00198891;-2,846666667;-3,32;-3,156666667;-0,208095;-0,114285714;-0,212852381;0,004777184;3,36;-7,489278;7,084396;-0,561134549;Down;Down;12;Up
-0,059218309;-2,786666667;-2,77;-3,15;-0,138094952;-0,195238095;-0,221428571;-0,012983402;2,61;-7,474396;1,200388;1,00243881;Down;Down;13;Up
-0,007810181;-0,226666667;-0,213333333;-0,263333333;0,180952524;0,170714286;0,20952381;-0,004204244;1,59;-7,930383;7,452571;1,283405575;Down;Up;14;Down
0,001996832;0,14;0,026666667;0,256666667;0,111904333;0,072380952;0,093333333;-0,000398784;1,94;-7,992565;8,336622;0,002157528;Up;Up;15;Down
0,000533167;-0,446666667;-0,756666667;-0,35;0,146190857;0,111904762;0,04952381;-0,005433729;2,66;-7,976625;8,872379;0,036743215;Down;Up;16;Up
0,002603204;-0,832333333;-0,75;-0,793333333;0,142857143;0,12952381;0,155238095;0,002740601;1,63;-7,972375;7,931653;-0,143703552;Down;Up;17;Up
-0,010107836;-0,746333333;-0,036666667;-0,886666667;0,162381143;0,162380952;0,17952381;-0,007693321;1,6;-7,951647;7,672424;0,213192465;Down;Up;18;Up
-0,008236465;0,616666667;0,6645;0,35;0,309047143;0,241904762;0,246666667;-0,008267677;1,73;-8,032425;8,108851;-0,085950554;Up;Up;19;Down
0,000722093;0,999;0,926666667;1,203333333;0,314761952;0,285095238;0,321904762;-0,000459183;1,877;-8,098857;8,273018;-0,263494911;Up;Up;20;Down
0,014485837;1,042166667;1,156666667;1,08;0,045237952;0,18947619;0,211428571;0,017302411;3,729;-8,093011;7,576627;0,608427268;Up;Up;21;Up
0,008766393;2,046666667;2,7655;1,836666667;0,199047238;0,161428571;0,152214286;0,000333291;1,8735;-7,976625;9,166995;-0,012358769;Up;Up;22;Up
-0,001745985;1,493333333;2,3;1,73;0,213809095;0,226190476;0,246190476;-0,001878425;1,66;-7,907002;7,940823;-0,41188277;Up;Up;23;Up
0,030381677;1,394166667;0,72;1,356666667;-0,01095219;0,088690476;0,002380952;0,02208197;4,0725;-7,920825;8,923794;0,680133578;Up;Up;24;Down
0,006871009;0,643333333;-0,1967;0,703333333;-0,175714381;-0,023333333;-0,124761905;0,025026565;4,03;-7,683787;5,091181;-0,212966065;Up;Up;25;Up
-0,009564837;0,096666667;-0,293333333;0,356666667;0,019047333;0,032857143;-0,012380952;-0,011836749;4,08;-7,631178;8,044513;-0,016547565;Up;Down;26;Up
0,017395373;-0,186666667;-0,29;-0,15;-0,175714429;-0,128095238;-0,123809524;0,008908052;2,05;-7,704515;8,791653;-0,171575522;Down;Down;27;Down
-0,000350914;-0,803333333;-0,266633333;-0,646666667;-0,274285476;-0,263809524;-0,287138095;0,003380484;1,5099;-7,571651;7,04431;0,103351632;Down;Down;28;Up
-0,020143724;0,27;-0,093333333;-0,38;-0,19428581;-0,170952381;-0,151904762;-0,013156059;2,91;-7,574305;6,728431;0,242603039;Down;Down;29;Down
0,006969595;0,403333333;0,253366667;0,33;0,069524143;-0,033809524;0,113809524;-0,000893184;1,74;-7,728433;8,814754;0,059171417;Up;Up;30;Down
0,005207081;-0,636666667;-0,99;-0,69;-0,206666476;-0,097142857;0,063333333;0,012692805;3,12;-7,674751;6,574898;0,226647222;Down;Up;31;Up
-0,005345492;-0,605;-0,41;-0,283333333;0,035238381;-0,151904762;0,02047619;-0,003813931;1,82;-7,634892;7,455831;-0,249684352;Down;Down;32;Up
-0,014093958;-1,54;-1,1767;-1,236666667;-0,327619286;-0,387142857;-0,234766667;-0,001313753;1,2901;-7,675824;5,924765;-0,06820915;Down;Down;33;Down
0,013540197;-0,636666667;-0,873333333;-0,643333333;-0,350000286;-0,33;-0,360952381;0,007497084;2,06;-7,78477;8,560073;-0,520424283;Down;Down;34;Down
-0,024809096;-0,515;-0,593333333;-1,006666667;-0,433332905;-0,442142857;-0,449047619;-0,010544354;2,405;-7,680074;5,782991;0,992455658;Down;Down;35;Up
-0,001820972;0,77;0,63;0,83;-0,352856619;-0,325714286;-0,378571429;0,000270047;2,38;-7,872988;7,577339;0,430051443;Up;Down;36;Down
0,005947205;0,463333333;0,623333333;0,346666667;-0,350476238;-0,371428571;-0,340952381;0,003855547;1,35;-7,887333;8,150566;0,030216039;Up;Down;37;Down
0,012825096;0,256666667;0,416666667;0,443333333;-0,399999714;-0,394285714;-0,42;0,006343751;2,17;-7,84057;8,690667;-0,157932253;Up;Down;38;Up
-0,011739958;-0,556666667;0,186666667;0,2;-0,413809667;-0,415238095;-0,424147619;-0,01167127;1,96;-7,740661;7,832065;0,035825495;Up;Down;39;Up
0,007970872;0,053333333;0,003333333;0,046666667;-0,397618619;-0,42952381;-0,394285714;0,01000614;1,83;-7,83207;7,479892;-0,100124216;Up;Down;40;Down
0,007896996;0,586666667;0,396666667;0,833333333;-0,481428619;-0,42047619;-0,492857143;0,002399685;2,65;-7,769888;8,508771;0,015816656;Up;Down;41;Up
-0,014917432;0,336666667;-0,306666667;-0,576666667;-0,382380905;-0,4012;-0,536666667;-0,024808423;4,19;-7,708765;9,334634;-0,133602827;Down;Down;42;Up
0,02426819;0,753333333;0,826666667;0,726666667;-0,477618952;-0,424285714;-0,413095238;0,009392561;1,68;-7,824629;9,797025;-0,06374521;Up;Down;43;Down
-0,021207092;0,14;0,49;0,34;-0,598095143;-0,578095238;-0,612380952;-0,006017894;2,08;-7,637024;5,590717;0,165838768;Up;Down;44;Up
0,011856334;-0,123333333;-0,163333333;-0,37;-0,621428714;-0,548095238;-0,557619048;0,004998268;2,26;-7,80071;8,708768;-0,152516463;Down;Down;45;Down
0,016474217;-1,04;-1,333333333;-0,976666667;-0,650475667;-0,654285714;-0,651904762;0,002141737;1,9;-7,708765;9,642824;-0,193474962;Down;Down;46;Up
-0,035864435;-1,33;-1,27;-1,953333333;-0,799523476;-0,803333333;-0,764285714;-0,015388889;3,13;-7,582819;4,879706;0,288021304;Down;Down;47;Up
-0,000608355;0,473333333;1,373333333;0,396666667;-0,667618524;-0,65047619;-0,684285714;0,003460408;2,14;-7,859702;7,264493;0,004121385;Up;Down;48;Down
-0,003777135;0,363333333;2,186666667;2,34;-0,607142857;-0,628571429;-0,598571429;0,001556684;1,02;-7,864488;7,104252;-0,180906643;Up;Down;49;Down
0,012464575;0,403333333;1,113333333;1,69;-0,547619048;-0,596666667;-0,653809524;0,00026936;3,31;-7,894252;9,596461;-0,200135009;Up;Down;50;Down
0,039913454;-2,07;-2,186666667;-0,716666667;-0,753333714;-0,629047619;-0,779047619;0,018113707;4,84;-7,796461;10,621392;-0,120369847;Down;Down;51;Up
-0,017649757;-2,266666667;-3,96;-3,9;-0,574285619;-0,622380952;-0,856190476;-0,040696896;6,49;-7,491396;11,094798;-0,305848062;Down;Down;52;Up
-0,036813163;-2,636666667;-3,696666667;-3,49;-0,848571048;-0,674761905;-0,813809524;-6,97E-09;5,44;-7,624796;2,530716;0,384075196;Down;Down;53;Down
-0,025274122;-1,11;-2,183333333;-2,386666667;-0,417619238;-0,455238095;-0,53;-0,017491749;4,49;-7,910715;6,953202;0,83524866;Down;Down;54;Down
-0,008349685;-0,926666667;-0,733333333;-1,216666667;-0,475713857;-0,436166667;-0,342857143;-0,000523799;1,41;-8,113202;6,981234;-0,03964473;Down;Down;55;Down
-0,01335714;-0,18;-0,39;-0,603333333;-0,437619143;-0,508571429;-0,41;-0,007798866;2,26;-8,181229;7,431242;1,069613041;Down;Down;56;Down
-0,001921125;0,143333333;0,310966667;0,313333333;-0,822857048;-0,821904762;-0,804285714;0,00321526;1,27;-8,291248;7,507184;-0,102818279;Up;Down;57;Down
0,003589041;0,056666667;0,25;0,05;-0,720476429;-0,753809524;-0,733333333;0,007152081;1,99;-8,307189;7,727422;-0,302752294;Up;Down;58;Down
0,004375482;0,073333333;-0,093333333;0,08;-0,689047667;-0,708571429;-0,694285714;0,00483871;1,63;-8,277425;8,171279;0,273545433;Up;Down;59;Up
-0,007004472;-0,4584;-0,600966667;-0,56;-0,591428476;-0,627619048;-0,651566667;-0,006343701;1,7729;-8,241279;8,199209;-0,28843075;Down;Down;60;Up
0,00417115;0,09;-0,128333333;0,346666667;-0,722380857;-0,62;-0,68047619;0,0123169;2,57;-8,299211;7,014671;0,124151432;Up;Down;61;Down
-0,007942179;-0,516666667;-0,44;-0,27;-0,569999333;-0,661904762;-0,602857143;-0,0028854;1,13;-8,264676;7,540578;-0,313499805;Down;Down;62;Up
0,010453198;-0,6916;-0,453333333;-0,383333333;-0,423333333;-0,473085714;-0,447380952;-0,000127601;1,3452;-8,330571;9,893952;0,215684208;Up;Down;63;Down
-0,007706257;-0,856666667;-0,845;-0,826666667;-0,449999857;-0,440952381;-0,445952381;-0,004939374;1,915;-8,243948;7,87771;0,262945953;Down;Down;64;Up
-0,001789506;-1,436666667;-0,573333333;-0,796666667;-0,327142619;-0,352380952;-0,30952381;-0,005154999;1,36;-8,307711;8,85261;-0,134761576;Down;Down;0;Down
0,001901672;-0,84;-1,05;-1,363333333;-0,278095048;-0,276666667;-0,226271429;-0,007542464;2,06;-9,622605;11,104318;-0,339847166;Down;Down;1;Down
-0,007018464;-0,86;-0,96;-1,12;-0,25857181;-0,305238095;-0,316666667;-0,005050467;1,95;-9,604312;9,36195;0,139718786;Down;Down;2;Up
-0,020455959;0,116666667;-0,496666667;-0,793333333;-0,159524095;-0,165238095;-0,31047619;-0,018491015;3,95;-9,671956;9,581841;0,289229652;Down;Down;3;Down
0,006378707;0,623333333;0,71;0,646666667;-0,122381286;-0,169047619;-0,141428571;0,003655552;1,43;-9,871844;10,249067;0,794856369;Up;Down;4;Down
-0,000807264;0,406666667;0,383333333;0,63;-0,166190714;-0,123809524;-0,112857143;0,002866044;1,65;-9,809073;9,227005;-0,409572579;Up;Down;5;Up
0,006476907;-0,143333333;-0,006666667;0,446666667;-0,186666571;-0,183333333;-0,166666667;0,0068125;2,11;-9,817005;9,70362;0,241602352;Up;Down;6;Down
0,006141884;-0,853333333;-0,443333333;-0,56;-0,300952;-0,315314286;-0,32047619;0,000875467;1,69;-9,75362;10,533898;-0,265824834;Down;Down;7;Up
-0,004265689;-0,963166667;-0,366666667;-0,426666667;-0,419047762;-0,378571429;-0,356190476;0,000440252;1,58;-9,693894;8,985341;-0,019056694;Down;Down;8;Up
-0,012318161;-1,473333333;-0,87;-1,106666667;-0,353334;-0,329047619;-0,353338095;-0,009547976;2,52;-9,735341;9,416001;-0,249493465;Down;Down;9;Down
0,008569291;-3,676666667;-4,103333333;-3,83;-0,386190524;-0,343809524;-0,368714286;0,009109602;2,92;-9,856008;9,691904;-0,299033668;Down;Down;10;Down
-0,016820641;-3,150166667;-3,466666667;-4,053333333;-0,234285619;-0,25097619;-0,357142857;-0,014625429;3,3695;-9,7719;9,597654;-0,477774627;Down;Down;11;Up
-0,060382868;-1,58;-2,38;-2,643333333;-0,156190429;-0,098571429;-0,226190476;-0,007727857;4,33;-9,937658;1,676212;0,864010952;Down;Down;12;Down
0,004107295;1,503333333;1,38;1,563333333;0,273332857;0,240952381;0,242380952;0,002488611;1,64;-10,556216;10,792947;0,693554311;Up;Up;13;Down
0,008791619;0,993333333;0,62;1,3;0,158571524;0,222495238;0,19047619;0,012798673;2,42;-10,512954;9,75093;0,23414261;Up;Up;14;Up
0,014549791;0,4;0,546666667;0,54;0,149523762;0,175714286;0,154761905;0,009028141;1,93;-10,420928;11,210406;0,766716717;Up;Up;15;Up
-0,000474595;0,623333333;0,828333333;0,526666667;0,070951952;0,134761905;0,178571429;0,000296795;1,27;-10,270405;10,145274;-0,339569629;Up;Up;16;Up
-0,004556379;1,343333333;1,513333333;1,586666667;0,057142714;0,059047619;0,073809524;-0,004839716;1,3;-10,275278;10,372192;-0,284629936;Up;Down;17;Down
0,014450395;1,65;1,613333333;2,073333333;-0,063333429;-0,026190476;-0,048571429;0,008634592;2,37;-10,322199;11,154113;-0,068153273;Up;Up;18;Down
0,018742936;0,683333333;1,094433333;0,65;-0,039523857;-0,094761905;-0,025952381;0,007787009;1,885;-10,17412;11,795198;0,09660505;Up;Up;19;Up
0,004220069;0,093333333;0,06;-0,293333333;0;-0,024285714;0,015714286;-0,009011709;1,81;-9,985194;12,123142;0,490653027;Down;Down;20;Up
-0,011214131;-0,126666667;-0,58;-0,643333333;-0,150952286;-0,111428571;-0,111428571;-0,005121951;2,26;-9,943146;9,055282;-0,217921632;Down;Down;21;Up
0,001637724;-0,086666667;-0,4561;0,17;-0,157618952;-0,169538095;-0,236585714;0,000363757;3,1183;-10,055282;10,248833;0,152639782;Up;Down;22;Down
-0,002183009;0,41;0,466666667;0,69;-0,271428429;-0,255714286;-0,21;0,005493487;1,71;-10,038831;8,800772;0,079608792;Up;Down;23;Up
0,003640941;-0,01;0,51;0,706666667;-0,259523667;-0,297147619;-0,248095238;0,000242333;0,9;-10,06077;10,584199;-0,112552497;Up;Down;24;Down
0,011187659;-0,400533333;-0,543333333;-0,323333333;-0,270952524;-0,23047619;-0,23;0,003171306;2,01;-10,024196;11,222677;-0,106413143;Down;Down;25;Up
-0,001903987;-1,376666667;-1,32;-1,14;-0,296190571;-0,335238095;-0,329047619;-0,008110281;1,88;-9,912676;10,951575;0,085256584;Down;Down;26;Up
-0,015163373;-1,163333333;-1,313366667;-1,333333333;-0,353809905;-0,285714286;-0,321904762;-0,005795498;2,46;-9,93157;8,543306;-0,629476861;Down;Down;27;Down
-0,003740097;-1,0528;-0,781;-1,053333333;-0,248571476;-0,239447619;-0,258571429;-0,004632112;1,5816;-10,083308;10,271092;2,713728258;Down;Down;28;Down
-0,005344553;-0,07;-0,373333333;-0,55;-0,160000048;-0,207142857;-0,21;-0,010250316;2,05;-10,121096;11,005337;-0,32107325;Down;Down;29;Down
-0,009833468;0,14;0,020033333;-0,006666667;-0,161904476;-0,156190476;-0,109519048;-0,010313597;2,0099;-10,175334;10,3659;-0,041468554;Down;Down;30;Down
0,005292116;0,416666667;0,174333333;0,123333333;-0,22190419;-0,162857143;-0,219857143;0,001425318;2,397;-10,275893;10,87166;0,58472472;Up;Down;31;Down
0,004421552;0,164133333;0,366666667;0,186666667;-0,270000619;-0,276190476;-0,277857143;0,00047722;1,14;-10,221655;10,836543;-0,669804919;Up;Down;32;Up
-0,007517005;0,34;0,286666667;0,05;-0,271905095;-0,286666667;-0,270952381;-0,003758472;1,65;-10,176549;9,623335;1,123750338;Up;Down;33;Up
0,006439719;0,76;0,933333333;0,663333333;-0,281904667;-0,23952381;-0,232380952;0,00718346;1,67;-10,25334;10,067528;0,163429969;Up;Down;34;Down
0,001976006;-0,1508;-0,196666667;0,06;-0,306666762;-0,268685714;-0,295238095;0,001017964;1,7476;-10,187525;10,327417;-0,119022709;Up;Down;35;Up
0,003482447;-1,013333333;-0,876666667;-0,646666667;-0,360952476;-0,333809524;-0,318571429;0,003066182;1,49;-10,167417;10,202074;-0,234566738;Down;Down;36;Up
-0,004381166;-0,983333333;-0,603333333;-0,886666667;-0,309999762;-0,379047619;-0,427142857;-0,004371549;2,19;-10,132072;10,176554;0,385175035;Down;Down;37;Up
-0,01066212;0,76;1,106666667;0,436666667;-0,143333762;-0,211428571;-0,193333333;-0,007370838;1,61;-10,176549;9,735636;-0,115155889;Up;Down;38;Down
-0,000829137;1,053333333;1,173333333;1,146666667;-0,061428952;-0,049995238;-0,014285714;-0,002835844;1,9;-10,28564;10,634167;-0,259908129;Up;Down;39;Down
0,019367046;0,1599;-0,38;0,506666667;-0,29333281;-0,171428571;-0,228571429;0,014595441;3,33;-10,294172;10,906733;0,37827969;Up;Down;40;Down
0,002054238;-1,526666667;-1,52;-0,9;-0,361905048;-0,348095238;-0,422380952;0,002056393;2,65;-10,096728;10,076001;-0,096522734;Down;Down;41;Up
-0,012382184;-1,4267;-1,536666667;-1,526666667;-0,11714319;-0,223809524;-0,191428571;-0,010946928;2,26;-10,076005;9,971544;0,212288341;Down;Down;42;Up
-0,005837237;-0,513233333;-0,41;-0,75;-0,221428286;-0,244747619;-0,079047619;-0,005052006;1,7103;-10,201546;10,131258;0,006884682;Down;Down;43;Down
-0,009104372;-0,146666667;-0,366666667;-0,6;-0,189523619;-0,172857143;-0,191904762;-0,006783454;2,67;-10,261258;9,965112;0,446903487;Down;Down;44;Down
0,001590273;0,070033333;-0,006666667;0,09;-0,189047667;-0,225709524;-0,193809524;-0,00340176;1,9301;-10,355113;11,188663;-0,172357471;Up;Down;45;Down
-0,003119202;-0,463333333;-0,743333333;-0,686666667;-0,168571095;-0,169047619;-0,19;-5,90E-05;2,02;-10,338663;9,850967;-0,138703735;Down;Down;46;Up
0,003119202;-0,48;-0,486666667;-0,606666667;-0,169523667;-0,154285714;-0,06047619;-0,000176294;2,01;-10,370963;10,89867;-0,27040567;Down;Down;47;Down
-0,012069589;-0,256666667;0,173333333;-0,16;-0,097618476;-0,180014286;-0,15;-0,009921249;1,7;-10,338663;10,104196;1,363405337;Down;Down;48;Up
-0,001687432;-0,516666667;-0,51;-0,17;0,029523571;-0,135714286;0,03047619;0,001516495;1,18;-10,46419;9,931866;-0,373679641;Down;Up;49;Down
0,0109316;-0,553333333;-0,848333333;-0,446666667;0,012857381;0,047142857;0,009047619;0,004907665;1,99;-10,481869;11,397909;-0,282756473;Down;Up;50;Down
-0,012209859;-0,773333333;-1,11;-1,21;0,089524048;0,06047619;0,018571429;-0,011504276;2,99;-10,367905;10,385276;0,352493245;Down;Up;51;Up
-0,006482224;-0,12;0,086666667;-0,42;0,371904619;0,07047619;0,335714286;-0,004738748;1,2;-10,495275;10,263527;0,241374804;Down;Up;52;Down
-0,002420042;0,216666667;0,245;0,093333333;0,425238476;0,387619048;0,483095238;0,000115353;1,105;-10,563534;10,149138;-0,002043212;Up;Up;53;Down
0,001612709;0,01;-0,046666667;0,166666667;0,345714048;0,336190476;0,40047619;0,002480805;1,98;-10,589131;10,422068;-0,088267935;Up;Up;54;Down
0,002423953;-0,216666667;-0,43;-0,19;0,51761881;0,338571429;0,477619048;0,002948482;1,82;-10,572066;10,45647;0,280320715;Down;Up;55;Up
-0,001154984;0,25;0,516666667;0,26;0,556666762;0,553809524;0,584285714;-0,002190971;1,19;-10,546469;10,738662;-0,324350271;Up;Up;56;Up
-0,004549304;0,973366667;1,253333333;0,903333333;0,50476219;0,496666667;0,479047619;-0,003737588;1,81;-10,55866;10,4668;0,195768931;Up;Up;57;Down
0,010221577;0,47;0,786666667;0,976666667;0,51761881;0,44952381;0,51047619;0,003170029;1,18;-10,606796;11,718934;-0,007487284;Up;Up;58;Down
0,010092527;-0,196666667;-0,496666667;-0,133333333;0,420000333;0,476419048;0,474285714;0,006073318;1,99;-10,498934;11,083507;-0,170436133;Down;Up;59;Up
-0,003336509;-0,163366667;-0,066666667;-0,146666667;0,38952419;0,356661905;0,308571429;-1,76E-08;2,6499;-10,393502;9,858249;0,11326569;Down;Up;60;Up
-0,009075095;-0,353333333;0,666666667;0,356666667;0,490952286;0,46;0,457619048;-0,008861825;2,13;-10,428246;10,49331;-0,139558947;Up;Up;61;Down
0,009835024;-0,3;0,093333333;-0,133333333;0,535238333;0,517142857;0,548571429;-0,001503423;1,09;-10,523316;12,370316;0,25105178;Up;Up;62;Down
0,005512574;-1,44;-1,553333333;-0,993333333;0,376666857;0,401428571;0,382380952;0,00801742;2,94;-10,420314;9,943036;-0,315728284;Down;Up;63;Up
-0,010122065;0,016666667;-1,186666667;-1,206666667;0,534761714;0,486190476;0,344761905;-0,016483482;5,19;-10,363031;11,588455;0,005287177;Down;Up;0;Up
-0,005128949;-0,016666667;0,553333333;0,596666667;0,658094905;0,544285714;0,631333333;-0,002478215;2,27;-11,768461;11,368972;-0,107845084;Up;Up;1;Down
0,001725944;0,3899;0,3;-0,143333333;0,711904619;0,655238095;0,705238095;-0,002865828;2,6;-11,828977;12,608583;0,216146855;Down;Up;2;Down
0,013798949;-0,23;0,8;-0,083333333;0,617619095;0,637142857;0,668095238;0,002713643;1,58;-11,808582;13,556757;-0,345809714;Down;Up;3;Up
-0,017993495;0,93;0;0,186666667;0,60428581;0,569047619;0,471428571;-0,014271761;3,98;-11,64676;11,228225;0,120507259;Up;Up;4;Up
0,002756065;1,426766667;1,353333333;1,54;0,575714095;0,549061905;0,55;0,005767047;2,3303;-11,858221;11,305574;-0,223202159;Up;Up;5;Down
0,018512075;0,926666667;1,626666667;1,226666667;0,478095667;0,656666667;0,513809524;0,018088146;4,67;-11,82558;11,708682;0,835731869;Up;Up;6;Up
0,005579865;1,83;2,47;1,79;0,553333095;0,487619048;0,542380952;-0,000936269;1,19;-11,60868;12,654082;-0,1851147;Up;Up;7;Up
-0,002705765;1,156666667;1,563333333;1,84;0,340475905;0,37;0,454285714;-0,002643459;2,11;-11,544083;11,56535;-0,52785468;Up;Up;8;Up
0,029084319;1,756666667;1,08;1,36;0,020952524;0,334285714;0,106666667;0,030321395;6,77;-11,575354;11,113542;1,046213476;Up;Up;9;Down
0,006674415;1,38;0,953333333;1,563333333;0,077142619;0,030952381;0,007619048;0,005900608;3,11;-11,243546;11,298757;-0,584369449;Up;Up;10;Up
-0,011500695;1,133333333;0,503333333;0,376666667;0,24381;0,208571429;0,176190476;-0,01089906;3,33;-11,168758;11,207946;0,00774258;Up;Up;11;Up
0,03359864;0,56;-0,2;0,676666667;0,114286143;0,272380952;0,147142857;0,02504623;4,74;-11,297939;12,354661;1,227239014;Up;Up;12;Down
-0,015194897;-0,291733333;-0,253333333;-0,543333333;0,233333048;0,055238095;0,201428571;-0,006676971;1,83;-10,924655;9,711915;0,375370589;Down;Up;13;Up
-0,00611137;-0,006666667;0,06;0,25;0,338571476;0,318571429;0,341428571;-0,001102186;1,44;-11,091915;10,339907;-0,103435464;Up;Up;14;Down
0,011212333;0,543333333;0,416666667;0,423333333;0,360952476;0,374761905;0,366666667;0,009223359;2,46;-11,159909;11,365486;0,286654654;Up;Up;15;Down
-0,000492803;0,0884;0,023333333;-0,013333333;0,236190048;0,248342857;0,351904762;-0,000738813;1,9452;-11,035481;11,080917;-0,297138722;Down;Up;16;Up
-0,002951644;0,15;0,45;0,176666667;0,290475762;0,251428571;0,29;6,16E-05;1,64;-11,040919;10,583555;0,537901976;Up;Up;17;Down
0,003198062;-0,17;-0,123333333;0,263333333;0,179523286;0,19952381;0,253095238;0,003203179;2,08;-11,07356;11,038203;0,111420367;Up;Up;18;Down
0,003022863;-0,11;0,672666667;0,1;0,099999571;0,106666667;0,138571429;0,003957965;1,75;-11,038207;10,854878;-0,103315771;Up;Up;19;Up
-0,001358372;0,336666667;0,706666667;0,466666667;0,167619238;0,114285714;0,133809524;0,000803852;2,54;-11,004881;10,669839;-0,198125794;Up;Up;20;Up
0,000185214;1,073333333;1,076666667;0,963333333;0,070476;0,114285714;0,16952381;0,002474188;2,22;-11,019838;10,64781;-0,091669793;Up;Up;21;Down
0,009860825;0,156666667;-0,566;0,513333333;-0,00809519;0,061904762;-0,047666667;0,014716;4,098;-11,017812;10,149699;-0,258134258;Up;Up;22;Up
0,007946756;-0,353333333;-0,786666667;-0,74;-0,048570905;0,094285714;0,008095238;0,005829965;3,65;-10,909697;11,163352;0,26232166;Down;Down;23;Up
-0,008258349;-0,093333333;-0,28;-0,406666667;-0,001905143;-0,053809524;-0,076666667;-0,006553055;2,23;-10,823348;10,64309;-0,130328524;Down;Down;24;Up
-0,013429651;0,36;0,496666667;-0,03;-0,040952381;0,020952381;0,028090476;-0,003600708;1,93;-10,913094;9,470646;0,028371194;Down;Down;25;Down
0,014052935;0,173333333;0,683333333;1,156666667;0,020952524;0,062380952;0,051904762;0,008430984;2,35;-11,060644;11,816298;0,189798442;Up;Up;26;Down
-0,001183851;-1,33;-1,223333333;-0,866666667;-0,140476762;-0,154285714;-0,025714286;-0,002425481;1,67;-10,9063;11,11921;-0,208848954;Down;Down;27;Up
0,008693254;-1,366666667;-1,273333333;-1,346666667;-0,269999905;-0,176666667;-0,174761905;0,008287788;2,34;-10,919217;10,894708;-0,190259537;Down;Down;28;Down
-0,023588945;0,026666667;-0,383333333;-1,226666667;0,028095095;-0,090952381;-0,11;-0,023792016;3,88;-10,824704;11,163082;0,24914291;Down;Down;29;Up
-0,009950362;1,323333333;1,363333333;1,063333333;0,026666524;0,023333333;0,019047619;-0,010862268;1,99;-11,08308;11,353899;-0,267111853;Up;Down;30;Down
0,010686799;1,55;2,31;1,606666667;-0,041428333;0,048095238;0,03047619;0,011427142;2,62;-11,193906;10,96492;-0,341568218;Up;Up;31;Down
0,019028168;1,903333333;1,66;1,973333333;-0,052381238;-0,070952381;-0,051904762;0,011991321;2,65;-11,074916;12,006177;1,322074976;Up;Up;32;Up
0;1,276666667;1,336666667;0,91;-0,102857333;-0,073809524;-0,087142857;0,00068881;2,11;-10,86618;10,756177;-0,32414442;Up;Down;33;Up
0,017994559;1,06;0,8;1,843333333;-0,138094952;-0,033809524;-0,187142857;0,018871494;4,9;-10,86618;10,562394;0,732886433;Up;Down;34;None
-0,000764202;-0,476666667;-0,3;-0,34;-0,122857238;-0,167142857;-0,155714286;0,004865576;1,92;-10,672388;9,800549;-0,11678579;Down;Down;35;Up
0,017986111;-0,683333333;-0,378333333;0,093333333;-0,17476181;-0,114761905;-0,156666667;0,013092531;2,29;-10,680552;11,260173;-0,381672466;Up;Down;36;Down
-0,02369929;-0,903333333;-1,47;-1,176666667;-0,014285143;-0,074761905;-0,17952381;-0,020195649;4,12;-10,49017;10,221759;0,327720973;Down;Down;37;Up
0,007497289;-0,81;-0,643333333;-0,93;-0,022381;0,007619048;0,056666667;0,010942573;2,45;-10,741752;10,131516;-0,200108583;Down;Up;38;Down
-0,006420631;-0,766666667;-0,708333333;-0,566666667;0,122381286;0,078095238;0,02547619;-0,011162306;3,205;-10,661512;11,490199;0,241012823;Down;Up;39;Up
-0,018583037;-0,423333333;-0,631;-1,123333333;0,107619524;0,102380952;0,075238095;-0,011215576;2,42;-10,730192;9,761455;-0,114153141;Down;Up;40;Down
0,0142202;0,196666667;-0,173333333;0,45;0,043333524;0,121904762;0,049995238;0,016245278;2,95;-10,931449;10,477102;0,143980441;Up;Up;41;Down
-0,016767112;-0,103333333;-0,646666667;-0,843333333;0,141904524;0,13;0,064761905;-0,010549984;3,38;-10,777105;9,969339;0,197404858;Down;Up;42;Up
0,010979491;-0,13;-0,0357;0,233333333;0,243333381;0,138095238;0,235857143;0,008257219;1,797;-10,959337;11,279663;0,043510568;Up;Up;43;Down
-0,01004846;-0,576666667;-0,48;-0,84;0,311428238;0,280952381;0,343333333;-0,006976411;1,84;-10,839662;10,459125;0,123423201;Down;Up;44;Up
0,003421378;-0,796666667;0,076666667;0,053333333;0,302857143;0,31;0,331428571;0,004741973;1,75;-10,949132;10,701742;-0,453454773;Up;Up;45;Down
-0,00905661;-1,023333333;-0,9233;-0,776666667;0,502857;0,30047619;0,490004762;-0,009015697;2,0799;-10,911738;11,011006;0,341927438;Down;Up;46;Up
0,006629357;-0,9;-0,45;-0,963333333;0,327142619;0,36952381;0,41;0,006651365;2,13;-11,011004;10,938252;-0,379816617;Down;Up;47;Down
-0,011987312;-0,086666667;-0,91;-0,68;0,419047762;0,430952381;0,341904762;-0,017527818;4,37;-10,938257;12,000168;0,775657993;Down;Up;48;Up
-0,012330787;0,206666667;0,163333333;-0,28;0,318095571;0,261904762;0,324285714;-0,012913799;2,38;-11,070163;11,31751;-0,148247405;Down;Up;49;Down
0,011716726;0,166666667;0,023333333;0,313333333;0,355238381;0,351904762;0,315238095;0,014400855;3,48;-11,207508;10,656962;0,732095491;Up;Up;50;Down
-0,00453204;0,643333333;0,62;0,24;0,58523781;0,413333333;0,511428571;-0,008037484;1,9;-11,076957;11,707278;-0,190456308;Up;Up;51;Up
-0,001465501;0,976666667;0,786666667;0,896666667;0,505238095;0,468571429;0,524761905;6,11E-05;2,25;-11,127282;10,893595;-0,043202831;Up;Up;52;Down
0,01042696;1,23;0,933333333;1,163333333;0,25476219;0,340952381;0,352857143;0,011354501;3,05;-11,143596;10,888005;-0,195943465;Up;Up;53;Down
0,007612574;0,99;0,85;1,223333333;0,382856857;0,23047619;0,324761905;0,002038793;1,83;-11,028002;11,844366;0,505752289;Up;Up;54;Up
0,003485271;0,773333333;0,853333333;0,92;0,14571419;0,211428571;0,265238095;0,007574335;1,68;-10,944365;10,2563;-0,219158866;Up;Up;55;Up
0,011789862;0,746666667;1,186666667;0,613333333;0,186666571;0,205238095;0,233333333;0,010202803;2,16;-10,9063;11,03846;0,11214785;Up;Up;56;Up
0,002020762;0,666666667;0,896666667;0,923333333;0,069524095;-0,022380952;0,114761905;-0,001260087;1,41;-10,778461;11,276711;-0,080955138;Up;Up;57;Up
-0,002273022;0,336666667;0,313333333;0,493333333;-0,059047857;-0,007619048;0,067142857;0,002789078;1,92;-10,75671;9,981182;-0,183286042;Up;Up;58;Up
0,0178809;-0,01;-0,690033333;0,216666667;-0,079999667;-0,084761905;-0,103333333;0,011611554;3,48;-10,781187;11,580126;0,452268045;Up;Up;59;Down
-0,006208626;-0,403333333;-0,433333333;-0,403333333;-0,01142881;-0,07352381;-0,007142857;-0,001602564;2,1;-10,590121;9,936074;-0,061047136;Down;Up;60;Up
-0,000574152;-0,173333333;0,493333333;-0,583333333;0,006666619;0,041904762;0,104761905;-0,003940486;1,85;-10,656074;11,192183;-0,380139333;Down;Up;0;Down
0,006034236;1,31;1,880033333;1,083333333;-0,113333571;-0,065238095;0,094290476;0,003941808;1,4399;-11,762187;12,021415;0,428190839;Up;Down;1;Down
-0,00957427;1,156666667;1,22;1,216666667;-0,19333319;-0,121904762;-0,118571429;-0,001590274;2,01;-11,691422;10,543909;-0,33593891;Up;Down;2;Up
0,024336122;1,006666667;1,743333333;0,996666667;-0,312380857;-0,224285714;-0,297619048;0,024038772;3,85;-11,803902;11,610105;0,175544332;Up;Down;3;Down
0,008767186;0,043333333;-0,013333333;1,036666667;-0,305238286;-0,325714286;-0,422380952;0,004285714;3,15;-11,520105;12,109554;-0,282070815;Up;Down;4;Up
-0,014055078;0,05;0,15;-0,12;-0,290952381;-0,265714286;-0,321428571;-0,003898408;2,2;-11,419554;10,011196;-0,211181617;Down;Down;5;Up
0,025601451;-1,293333333;-2,083333333;-0,293333333;-0,505714048;-0,321904762;-0,472857143;0,027084125;6,06;-11,581192;11,118457;0,850752908;Down;Down;6;Down
-0,013891805;-1,023333333;-1,113333333;-1,44;-0,393809714;-0,407619048;-0,498095238;-0,015909091;2,98;-11,288452;11,776369;-0,205615238;Down;Down;7;Up
-0,01735361;-0,21;0,276666667;-0,573333333;-0,378095381;-0,376190476;-0,42952381;-0,008196734;2,5;-11,446369;10,226738;-0,282514167;Down;Down;8;Down
0,003138745;1,653333333;1,566666667;1,423333333;-0,189047667;-0,163809524;-0,278095238;-0,012005529;3,69;-11,646736;14,000237;0,631525606;Up;Down;9;Down
0,003084217;0,09;0,286666667;-0,36;-0,157143;-0,205238095;-0,163809524;0,005418313;2,71;-11,610242;11,214484;-0,210012908;Down;Down;10;Up
0,021465649;-0,636666667;-0,686666667;-0,583333333;-0,264285857;-0,223333333;-0,272857143;0,022706318;3,96;-11,574485;11,178683;-0,48558052;Down;Down;11;Up
-0,031454835;-0,823333333;-1,03;-0,826666667;-0,026190619;-0,151428571;-0,106190476;-0,00614258;3,43;-11,328681;7,770685;0,41753646;Down;Up;12;Up
-0,001209861;0,28;0,096666667;0,383333333;0,246666333;0,19152381;0,139047619;0,001595424;3,3;-11,690686;11,264833;0,4580959;Up;Up;13;Down
0,016490009;-0,78;-0,62;0,11;0,085238476;0,13047619;0,158095238;0,021583623;3,81;-11,704836;10,763405;0,354863007;Up;Up;14;Down
-0,007926034;-0,76;-0,533333333;-0,623333333;0,036190905;0,011;0,062857143;-0,013529912;2,81;-11,513398;12,495023;-0,091717621;Down;Down;15;Up
-0,006461717;-1,283333333;-1,17;-1,103333333;-0,256666619;-0,190952381;-0,075714286;0,006069992;2,75;-11,605021;9,730258;0,068509423;Down;Down;16;Down
0,002362304;0,308666667;0,043333333;-0,536666667;-0,169524381;-0,140952381;-0,23047619;-0,002861472;4,29;-11,680257;12,472688;0,045348171;Down;Down;17;Down
-0,016923226;0,683333333;0,576666667;0,463333333;-0,190952143;-0,194285714;-0,203333333;-0,016100629;3,49;-11,652693;11,741574;-0,066996413;Up;Down;18;Up
0,004346065;0,126666667;0,693333333;1,013333333;-0,115238;-0,127619048;-0,169047619;0,004355523;3,09;-11,851574;11,800178;0,059360838;Up;Down;19;Down
0,021502061;-0,742;-1,213333333;-0,363333333;-0,335713714;-0,202190476;-0,285238095;0,013952861;3,494;-11,80018;12,739161;-0,098898294;Down;Down;20;Up
-0,006557009;-2,036666667;-2,323333333;-2,336666667;-0,305238286;-0,347619048;-0,422857143;-0,013676826;3,17;-11,549156;12,755125;-0,235069224;Down;Down;21;Up
-0,02180191;-0,513333333;-1,736666667;-1,456666667;-0,206666524;-0,216190476;-0,373333333;-0,02254649;4,79;-11,625128;12,041372;0,259466437;Down;Down;22;Down
-0,015860041;0,15;-0,2;-0,18;-0,057142714;-0,154761905;-0,133809524;-0,0109134;2,08;-11,881374;11,281316;-0,116749615;Down;Down;23;Down
0,010046572;0,323333333;0,516666667;0,516666667;-0,055238238;0,027619048;-0,03047619;0,004649445;2,31;-12,071312;12,820638;0,377277599;Up;Up;24;Down
0,002433766;-0,53;-0,543333333;-0,633333333;-0,05857119;-0,086428571;-0,046190476;0,000186996;1,12;-11,95064;12,281593;0,417682604;Down;Down;25;Up
-0,002869925;-0,723333333;-0,606666667;-0,59;-0,12999981;-0,121428571;-0,078571429;0,000187452;1,03;-11,921589;11,465865;-0,150639294;Down;Down;26;Up
-0,011336667;-0,186666667;-0,72;-0,576666667;0,003333667;0,011428571;-0,074285714;-0,009197531;2,89;-11,955861;11,75217;0,742390963;Down;Down;27;Down
0,003208229;0,393333333;1,226666667;0,3;-0,018094762;-0,01952381;0,021428571;0,000431355;1,08;-12,09217;12,503431;0,023606873;Up;Up;28;Down
-0,002592103;0,86;1,373333333;1,103333333;0,063810095;-0,041428571;0,026190476;-0,006507889;1,38;-12,053427;12,724718;-0,537976405;Up;Up;29;Up
0,004943179;1,74;2,77;1,52;0,019047333;0,045238095;0,040952381;6,17E-05;1,29;-12,084713;12,815122;-0,136508275;Up;Up;30;Down
0,018315928;2,867333333;2,406666667;3,17;-0,124761667;0,01952381;-0,07;0,019642506;3,58;-12,025126;11,62689;-0,471793252;Up;Up;31;Up
0,005250027;1,84;2,33;2,366666667;-0,217142762;-0,08047619;-0,165238095;0,00647657;2,92;-11,806888;11,55507;0,213970749;Up;Down;32;Up
0,037147779;0,313666667;0,153333333;1,54;-0,530952095;-0,336666667;-0,409047619;0,026696171;4,38;-11,745065;12,966769;0,42319236;Up;Down;33;Up
0,003428429;-2,397333333;-1,406666667;-1,15;-0,601904762;-0,555333333;-0,60047619;0,002705887;2,198;-11,316767;11,388028;-0,24350544;Down;Down;34;Up
-0,010838577;-2,68;-3,34;-3,22;-0,479524143;-0,457142857;-0,532857143;-0,004078136;4,39;-11,278024;10,370931;0,043428765;Down;Down;35;Up
-0,015043771;-2,197;-2,396666667;-2,483333333;-0,289047952;-0,288619048;-0,426666667;-0,018405651;3,899;-11,400932;12,123728;-0,245178072;Down;Down;36;Down
-0,035965337;-0,84;-1,823333333;-2,536666667;-0,096666619;-0,119047619;-0,306190476;-0,030390016;5,17;-11,573735;11,177562;1,158537197;Down;Down;37;Down
0,003482885;-0,12;-0,34;-0,263333333;-0,137142381;-0,046190476;-0,099047619;0,001554489;2,41;-11,997562;12,265868;-0,020428207;Down;Down;38;Down
-0,01533267;-0,39;-0,96;-0,92;0,05285719;-0,054285714;-0,075238095;-0,015336452;3,3;-11,955861;12,160573;0,054801616;Down;Down;39;Up
0,006957111;-0,493333333;-0,736666667;-0,353333333;-0,027619143;0,038719048;-0,002380952;0,013367347;2,22;-12,140578;11,036408;0,354331813;Down;Up;40;Down
-0,008673529;-0,41;-0,153333333;-0,886666667;0,095714;0,083809524;0,070952381;-0,008757383;1,75;-12,056412;12,181428;-0,053924009;Down;Up;41;Up
-0,004765978;0,59;0,423333333;0,2;0,022856952;0,045714286;0,064285714;-0,002078119;1,59;-12,161435;11,779537;-0,219179147;Up;Up;42;Down
-0,002860895;0,395;0,553333333;0,836666667;-0,015714333;0,006666667;0,036666667;0,000243918;1,49;-12,219536;11,744538;-0,399698247;Up;Up;43;Down
0,011308576;0,383333333;0,186666667;0,783333333;-0,084761857;-0,000952381;-0,06547619;0,012617708;2,52;-12,254543;11,91675;0,855065355;Up;Up;44;Down
0,006970845;0,21;0,21;0,24;-0,143333095;-0,136190476;-0,094119048;0,00123099;1,09;-12,116749;12,962584;-0,168577872;Up;Down;45;Up
-0,003892409;-0,061666667;-0,07;-0,073333333;-0,088571476;-0,062142857;-0,07952381;-0,000618653;1,965;-12,032583;11,549504;0,732862191;Down;Down;46;Up
0,001357529;-0,163333333;0,126666667;0,006666667;-0,07523819;-0,059285714;-0,062857143;-0,003563748;1,93;-12,079505;12,863119;-0,393469491;Up;Down;47;Down
0,001173907;0,05;0,086666667;0,343333333;-0,003333667;-0,071428571;-0,037619048;0,000123553;1,09;-12,063119;12,218962;-0,023729815;Up;Up;48;Up
-0,00240807;0,666666667;0,586666667;0,373333333;0,030952095;0,028095238;-0,011904762;-0,005471835;1,94;-12,048969;12,578014;-0,3862517;Up;Up;49;Up
0,007614456;0,586666667;0,033333333;0,24;-0,025714714;0,067619048;-0,018571429;0,003776198;2,8;-12,07802;12,60639;0,623537492;Up;Up;50;Down
0,001741506;-0,933333333;-0,38;-0,323333333;-0,01380919;-0,041904762;-0,037619048;-0,005623197;1,2;-11,986397;13,155542;-0,02538787;Down;Up;51;Up
-0,004905739;-1,156666667;-1,306666667;-1,173333333;-0,069524143;-0,186190476;-0,061904762;-0,001926045;1,7;-11,96554;11,544387;0,100063115;Down;Down;52;Up
-0,002845519;-0,796666667;-0,243333333;-0,91;-0,207142429;-0,218095238;-0,034285714;-0,003825998;1,14;-12,02439;12,218651;-0,297129443;Down;Down;53;Down
-0,013924494;0,65;0,03;-0,3;-0,100952857;-0,265761905;-0,228571429;-0,017240309;2,86;-12,058648;12,797725;0,127362521;Down;Down;54;Down
0;0,656666667;0,653333333;0,746666667;-0,813333381;-0,850952381;-0,785714286;-2,44E-08;1,25;-12,227729;12,227733;-0,036055761;Up;Down;55;Down
0,0083806;0,196666667;-0,303333333;0,286666667;-0,842857;-0,809047619;-0,80952381;0,012708167;2,8;-12,227729;11,435698;0,536685496;Up;Down;56;None
0,00535861;-0,556666667;0,063333333;-0,233333333;-0,974286048;-0,99952381;-0,807085714;0,004876543;1;-12,125692;12,140884;-0,040998165;Down;Down;57;Up
-0,008486644;0,264366667;0,303333333;-0,05;-1,076666667;-1,081904762;-1,03952381;-0,002218382;1,24;-12,060884;11,14367;-0,044194206;Down;Down;58;Up
-0,001162843;0,79;0,85;0,613333333;-1,037619429;-1,083333333;-0,991428571;-0,002443476;1,3;-12,163671;12,387818;-0,287160663;Up;Down;59;Down
0,008723473;0,31;0,016666667;0,556666667;-1,140952714;-1,108095238;-1,118571429;0,009820915;2,86;-12,177821;11,902042;0,418736408;Up;Down;60;Down
0,003770912;-0,7177;-0,463333333;-0,193333333;-1,319047476;-1,299671429;-1,201904762;0,004026775;1,3569;-12,072048;11,98661;-0,14082014;Up;Down;61;Up
0,004593761;-1,003333333;-1,108333333;-0,966666667;-1,175714381;-1,336666667;-1,217142857;0,001116078;1,48;-12,026612;12,531498;-0,009038419;Down;Down;0;Up
-0,005115965;-0,683333333;-0,6855;-0,86;-1,173333286;-1,17047619;-1,141904762;-0,008030436;1,98;-13,071499;13,618562;-0,033483247;Down;Down;1;Up
-0,010458528;-0,086666667;-0,26;-0,566666667;-1,207143143;-1,263333333;-1,26047619;-0,010283534;2,12;-13,138557;13,256678;-0,094129943;Down;Down;2;Down
-0,0002433;-0,025;0,205;0,3;-1,136190524;-1,182380952;-1,151666667;0,000669711;1,165;-13,276682;13,129919;-0,194190443;Up;Down;3;Down
0,000304109;0,663333333;0,6055;0,266666667;-1,056190857;-1,056666667;-1,077309524;-0,006526444;1,9735;-13,279919;14,405865;0,493326489;Up;Down;4;Down
0,005429984;0,57;0,403333333;0,826666667;-1,257619238;-1,227619048;-1,131904762;0,005198777;1,6;-13,275869;13,243976;-0,17793767;Up;Down;5;Up
-0,000856112;0,725;0,436666667;0,46;-1,205237952;-1,249285714;-1,256666667;-0,005294237;1,855;-13,203976;13,945287;-0,399731486;Up;Down;6;Up
0,010630947;0,256666667;0,086666667;0,473333333;-1,262380714;-1,255238095;-1,253333333;0,009876543;1,8;-13,215285;13,205549;0,582509872;Up;Down;7;Down
-0,001296533;-0,833333333;0,236666667;0,026666667;-1,282380619;-1,305714286;-1,276190476;-0,000802469;1,1;-13,075549;13,012507;-0,249996242;Up;Down;8;Up
-0,000616734;-1,413333333;-0,076666667;-0,383333333;-1,427142905;-1,431428571;-1,31047619;-1,23E-08;0,99;-13,092507;13,000595;-0,124654578;Down;Down;9;Down
0,002407628;-2,500333333;-1,716666667;-2,306666667;-1,375238333;-1,41047619;-1,34952381;0,000370127;1,29;-13,100593;13,399084;-0,314430572;Down;Down;10;Down
-0,008861068;-5,81;-6,373333333;-6,753333333;-1,444761714;-1,317142857;-1,448571429;-0,003817523;4,31;-13,069089;12,365411;-0,47088755;Down;Down;11;Up
-0,035330067;-4,933333333;-5,67;-5,536666667;-1,300952714;-1,307619048;-1,473809524;-0,019050445;5;-13,185407;10,959559;-0,105340252;Down;Down;12;Down
-0,073791104;-4,486333333;-4,0196;-4,216666667;-1,31857081;-1,174714286;-1,261904762;0,01348513;3,641;-13,659565;-0,494351;4,382855961;Down;Down;13;Down
0,012213847;-0,96;-1,123333333;-0,583333333;-0,549999429;-0,537619048;-0,594761905;0,004469184;2,62;-14,705643;15,927135;-0,220198616;Down;Down;14;Down
-0,010564568;-1,723333333;-1,576666667;-1,226666667;-0,639047524;-0,579047619;-0,648095238;0,000222453;2,79;-14,52713;12,731416;-0,191014821;Down;Down;15;Up
-0,011216111;-1,316666667;-2,117066667;-1,393333333;-0,418571095;-0,465714286;-0,574819048;-0,003891302;5,0412;-14,681413;13,507012;0,757026015;Down;Down;16;Down
0,00152455;-1,26;-0,833333333;-0,873333333;-0,310952333;-0,322380952;-0,332857143;-0,005895392;2,13;-14,847005;16,194385;0,091194706;Down;Down;17;Down
-0,013046542;-0,983333333;-0,73;-1,946666667;-0,284761714;-0,235714286;-0,34047619;-0,010620545;3,23;-14,824386;14,579077;-0,293406939;Down;Down;18;Up
-0,002631965;-0,126666667;-0,146666667;0,073333333;-0,248571476;-0,24;-0,239047619;0,000376622;2,64;-15,019072;14,498649;0,938828369;Up;Down;19;Down
-0,015647787;-0,463333333;-0,873333333;-0,873333333;-0,047619048;-0,126190476;-0,190952381;-0,014276624;3,41;-15,058648;15,056128;-0,120410078;Down;Down;20;Down
0,019463618;0,076666667;-0,65;0,23;-0,208095;-0,054285714;-0,198571429;0,018228741;3,99;-15,296133;15,261289;-0,002172968;Up;Down;21;Down
-0,017772246;0,113333333;-0,233333333;-0,4;-0,141904571;-0,146666667;-0,189047619;-0,01097089;2,58;-15,001288;14,000295;0,424767802;Down;Down;22;Up
0,001959152;0,163333333;0,64;0,623333333;-0,039999857;-0,040952381;-0,065714286;-0,003426654;2,18;-15,270291;16,260401;-0,316457757;Up;Down;23;Down
0,009372207;-0,493333333;-0,53;-0,386666667;-0,170476238;-0,158095238;-0,119047619;0,002976976;1,81;-15,240399;16,298225;0,34531996;Down;Down;24;Up
-0,001390044;-0,726666667;-0,626666667;-0,91;-0,225237857;-0,246190476;-0,267619048;-0,003996611;1,54;-15,098224;15,609236;-0,386790933;Down;Down;25;Up
-0,014111661;0,023333333;-0,606666667;-0,963333333;-0,131904238;-0,122380952;-0,197142857;-0,014427908;3,61;-15,119232;15,414102;0,269590125;Down;Down;26;Down
0,001001407;-0,55;0,06;0,273333333;-0,125714286;-0,09047619;-0,094761905;0,001001904;1,7;-15,334098;15,318751;0,255232633;Up;Down;27;Down
-0,002212261;-0,83;-0,586666667;-0,89;-0,140952667;-0,111361905;-0,120952381;0,005994404;1,84;-15,318752;13,802676;-0,063194194;Down;Down;28;Up
0,005539905;-0,913333333;-0,97;-0,52;-0,195238381;-0,181095238;-0,14047619;0,005981088;1,72;-15,352681;15,18786;-0,399262899;Down;Down;29;Down
-0,017308751;-0,546666667;-1,22;-1,366666667;0,049047571;-0,049047619;-0,097619048;-0,015829227;3,53;-15,267867;15,274434;0,346720301;Down;Down;30;Up
0,003594425;-0,85;-1,103333333;-0,563333333;-0,018571381;0,03047619;-0,03952381;0,006858639;2,57;-15,534431;14,858697;-0,066388031;Down;Up;31;Down
-0,007745761;-0,353333333;-0,396666667;-0,71;0,094285524;0,056666667;0,058571429;-0,005862516;1,55;-15,478697;15,239051;-0,004882459;Down;Up;32;Up
-0,004598181;0,166666667;0,11;0,103333333;0,134286048;0,098571429;0,101428571;-0,00314888;1,51;-15,599051;15,390945;-0,625169453;Up;Up;33;Down
0,001289494;0,476666667;0,79;0,346666667;0,222856762;0,21952381;0,187619048;-0,002775743;1,81;-15,670944;16,440743;1,987210205;Up;Up;34;Down
0,00491527;0,546666667;0,71;0,646666667;0,130952381;0,184761905;0,15952381;0,004979548;1,42;-15,65075;15,564001;-0,077083593;Up;Up;35;Up
-0,000829551;0,68;0,576666667;0,506666667;0,243809286;0,182380952;0,216190476;-0,002173693;1,34;-15,574008;15,84693;0,253484287;Up;Up;36;Up
0,005977659;0,263333333;0,233333333;0,413333333;0,161904476;0,223333333;0,191904762;0,008941176;2,75;-15,586929;14,934042;0,042786191;Up;Up;37;Down
0,002766972;0,113333333;0,16;0,09;0,183332905;0,205714286;0,173809524;0,002037415;1,91;-15,494042;15,591227;-0,153257497;Up;Up;38;Up
-0,002297664;0,286666667;0,263333333;0,43;0,165238143;0,148571429;0,152380952;-0,000992328;1,03;-15,451229;15,23677;0,262127474;Up;Up;39;Up
0,00093935;0,526666667;0,203333333;0,526666667;0,172857381;0,194761905;0,157619048;0,003349372;2,66;-15,486769;15,012238;-0,16841534;Up;Up;40;Down
0,008125162;0,133333333;0,003333333;0,113333333;0,109999857;0,18047619;0,181904762;0,007468993;2,05;-15,472236;15,477014;0,149941754;Up;Up;41;Up
-0,000789173;-0,65;-0,093333333;-0,23;0,282857238;0,193809524;0,295238095;-0,001838794;0,96;-15,347019;15,559137;-0,047777514;Down;Up;42;Up
-0,005559345;-0,583333333;-0,783333333;-0,603333333;0,195714333;0,215238095;0,282380952;-0,003197903;1,69;-15,359141;14,994768;0,116803823;Down;Up;43;Down
0,002723397;-0,406666667;-0,28;-0,12;0,246190381;0,231904762;0,269047619;0,003516512;1,66;-15,444768;15,252767;-0,211099476;Down;Up;44;Down
-0,006638315;-0,02;-0,36;-0,54;0,140000095;0,166380952;0,172380952;-0,005268934;2,63;-15,402768;15,245354;0,571757735;Down;Up;45;Up
0,002033843;0,217133333;0,4;-0,016666667;0,144761571;0,142857143;0,155238095;-0,002287016;1,09;-15,505352;16,303847;-0,319774602;Down;Up;46;Down
-0,003855604;-0,387666667;-0,21;-0,23;0,10380919;0,07;0,098571429;-0,00581271;2,04;-15,473848;15,913612;-0,078950986;Down;Up;47;Up
0,001561294;-0,26;0,04;-0,23;-0,026666524;-0,073333333;-0,019047619;0,00010402;1,61;-15,533619;15,789387;0,934956105;Down;Down;48;Down
-0,001301239;0,162866667;-0,016666667;0,28;-0,177618857;-0,175780952;-0,106666667;0,002768052;1,6386;-15,509388;14,749583;-0,313487353;Up;Down;49;Up
-0,003841793;0,751;0,423333333;0,613333333;-0,108095429;-0,083666667;-0,141904762;-0,004040818;2,573;-15,529582;15,629352;-0,310260125;Up;Down;50;Down
0,009527611;0,486666667;0,173333333;0,586666667;-0,156190429;-0,136666667;-0,125238095;0,010313035;2,51;-15,589353;15,301535;0,8423068;Up;Down;51;Down
0,003931129;0,473333333;0,486666667;0,353333333;-0,186190667;-0,194761905;-0,146671429;-0,001201729;1,1;-15,441531;16,360946;-0,11168376;Up;Down;52;Up
-0,004297205;0,543333333;0,31;0,113333333;-0,151428238;-0,178095238;-0,164761905;-0,00188711;1,59;-15,380947;14,987197;-0,222791909;Up;Down;53;Up
0,005926587;0,753333333;0,913333333;0,623333333;-0,152857476;-0,134761905;-0,146190476;0,001728685;1,57;-15,447193;16,155898;0,146445628;Up;Down;54;Down
0,00015782;0,503333333;0,82;0,906666667;-0,082380714;-0,206190476;-0,11;0,001264084;1,14;-15,355904;15,143481;0,067398657;Up;Up;55;Up
0,003742491;0,693333333;0,81;0,73;-0,060000476;-0,069047619;0,005238095;0,000157898;0,89;-15,35348;15,976126;-0,157087964;Up;Down;56;Up
0,010511305;0,443333333;0,13;0,47;-0,183809571;-0,172857143;-0,106666667;0,006698532;2,05;-15,296133;15,856195;-0,140152053;Up;Down;57;Up
-0,002664821;0,063333333;-0,006666667;0,013333333;-0,214761667;-0,336666667;-0,248095238;-0,002502028;2,09;-15,136189;15,146584;0,458823529;Up;Down;58;Up
-0,000372465;-0,063333333;0,216666667;0,136666667;-0,222380857;-0,247142857;-0,182380952;0,001652679;1,24;-15,176578;14,802247;0,074930362;Up;Up;59;Down
0,003250826;0,603333333;1,263333333;0,44;-0,073333;-0,076190476;-0,04;-0,000265957;1,11;-15,18224;15,792966;-0,034219305;Up;Down;60;Down
-0,000693715;0,67;1,076666667;1,013333333;-0,052381238;-0,083333333;-0,081904762;-0,000586807;1,88;-15,132966;15,123459;-0,26456157;Up;Up;61;Up
0,004490765;0,493333333;0,613333333;0,5;0,003809619;0,00047619;-0,020238095;-0,00181033;2,08;-15,143462;16,255603;-0,09142549;Up;Up;62;Down
0,012563193;-0,842;-0,953333333;-0,156666667;-0,097143238;-0,065714286;-0,125238095;0,012093308;3,09;-15,075605;14,987388;0,026914273;Up;Down;63;Up
-0,009020496;-1,09;-1,673333333;-1,78;-0,049523524;-0,105714286;-0,157619048;-0,0125375;3,1;-14,887394;15,692294;-0,295918898;Down;Down;64;Up
-0,000161335;-1,54;-1,473333333;-1,06;-0,109047286;-0,057142857;-0,091904762;0,003290888;2,44;-15,022295;14,384714;0,162973488;Down;Down;0;Down
-0,013484265;-1,698;-1,7;-1,523333333;0,054285667;0,044095238;-0,047619048;-0,008741722;2,756;-16,124713;15,453623;0,555999812;Down;Down;1;Down
0,002587212;-2,013333333;-1,433333333;-1,453333333;0,045714619;0,05447619;0,05952381;0,001531524;1,35;-16,343623;16,501404;-0,589681728;Down;Up;2;Down
-0,013234813;-1,463333333;-1,893333333;-1,806666667;0,198095429;0,11952381;0,128095238;-0,007086614;2,64;-16,301398;15,348574;0,231396316;Down;Up;3;Up
-0,012083027;-0,703333333;-0,703333333;-1,37;0,530476143;0,334285714;0,468571429;-0,006067185;2,75;-16,518574;15,559373;0,066864445;Down;Up;4;Down
-0,002933875;0,03;-0,2967;-0,133333333;0,660475952;0,66952381;0,601904762;-0,006147526;3,09;-16,719377;17,398491;0,208235042;Down;Up;5;Down
-0,006199537;0,09;0,263333333;-0,223333333;0,739523762;0,63952381;0,708571429;-0,003737855;1,35;-16,768494;16,392786;0,006692573;Down;Up;6;Down
0,007073714;0,5;0,026666667;0,716666667;0,63952419;0,715714286;0,684761905;0,007617071;2,75;-16,872783;16,653859;-0,039687241;Up;Up;7;Down
-0,004311742;0,393333333;0,743366667;0,103333333;0,71666681;0,710952381;0,653814286;-0,00460831;2,1099;-16,753856;16,886241;-0,065408143;Up;Up;8;Up
0,008280453;1,306666667;1,5;1,463333333;0,592857;0,600952381;0,623809524;0,006651214;1,87;-16,826238;17,007482;0,007951565;Up;Up;9;Down
-0,002372802;0,486666667;1,19;0,376666667;0,580476333;0,602380952;0,598571429;-0,00247283;1,33;-16,687485;16,747138;-0,261446528;Up;Up;10;Up
0,016834138;-0,41;-0,146666667;0,533333333;0,428571429;0,573809524;0,483809524;0,013048719;3,16;-16,727137;17,187893;0,16815906;Up;Up;11;Down
-0,00860834;-0,553333333;-0,503333333;-0,503333333;0,341905143;0,344285714;0,328285714;-0,002352342;2,45;-16,447897;15,390107;-0,491281348;Down;Up;12;Up
5,19E-05;1,12;0,596666667;1,336666667;0,472381619;0,468095238;0,390952381;0,002813049;3,44;-16,590104;16,059244;-0,079562233;Up;Up;1,30E+01;Down
0,000675609;1,836666667;1,156666667;0,876666667;0,498095571;0,625714286;0,497142857;0,000675811;3,95;-16,589237;16,578038;0,135639864;Up;Up;14;Up
0,020323636;1,67;1,351666667;1,453333333;0,468571952;0,507142857;0,453571429;0,000624194;2,6;-16,578037;19,994512;0,605977758;Up;Up;15;Up
-0,007241973;0,676666667;0,666666667;0,263333333;0,359047286;0,337142857;0,318571429;-0,005539691;1,87;-16,244507;16,042575;0,080780254;Up;Up;16;Up
0,009844997;0,513333333;0,546666667;0,48;0,289047952;0,375714286;0,362857143;0,006947743;1,91;-16,362582;16,752286;0,873506764;Up;Up;17;Down
0,001597035;0,09;0,111666667;0,26;0,196190238;0,197619048;0,223571429;0,001438257;1,645;-16,202283;16,206427;-0,243973818;Up;Up;18;Up
-0,003828578;-0,073333333;-0,41;-0,113333333;0,01142881;0,087147619;0,113809524;0,006758196;1,84;-16,176431;14,258483;-0,039823544;Down;Up;19;Up
0,006389105;0,031333333;-0,153333333;-0,036666667;0,069523429;0,06;0,044285714;0,003942919;2,01;-16,238481;16,595053;0,055660107;Down;Up;20;Down
-0,004370273;-0,303333333;0,066666667;-0,39;0,056190143;0,02047619;0,022380952;-0,002291468;1,71;-16,13506;15,81573;0,059620779;Down;Up;21;Up
-0,002602465;0,333333333;1,913333333;0,563333333;0,140476048;0,103809524;0,167619048;0,002291983;0,83;-16,205736;15,327962;0,221392008;Up;Up;22;Down
0,000742861;2,292;2,363333333;2,42;0,175237714;0,159809524;0,15;0,000743145;1,456;-16,247961;16,235894;-0,524366778;Up;Up;23;Down
0,010887615;2,176666667;2,17;2,226666667;0,037618714;0,153809524;0,097619048;0,011001417;2,82;-16,235895;16,050072;-0,233339856;Up;Up;24;Up
0,027639007;1,966666667;0,81;1,993333333;-0,14571419;0,047138095;-0,141428571;0,025591651;5,57;-16,060076;16,052269;0,572778067;Up;Up;25;Up
-0,002424391;0,32;0,066666667;0,183333333;-0,09761919;-0,125714286;-0,106190476;-0,000330899;1,67;-15,622272;15,280192;-0,076865916;Up;Down;26;Up
0,007401776;-0,18;-0,33;0,276666667;-0,184285476;-0,062857143;-0,127142857;0,010791545;2,8;-15,66019;14,94472;0,4041737;Up;Down;27;Down
-0,001938611;-0,293333333;-0,576666667;-0,59;-0,17190481;-0,167142857;-0,174761905;-0,002764389;2,1;-15,544716;15,724869;0,17941943;Down;Down;28;Up
-0,000884975;-0,566666667;-0,446666667;-0,276666667;-0,21666681;-0,222857143;-0,184285714;0,00260749;0,91;-15,574874;14,95866;-0,287092945;Down;Down;29;Down
-0,006941763;-0,49;-0,568666667;-0,646666667;-0,206666476;-0,14952381;-0,221909524;-0,003415978;2,35;-15,58866;15,057255;0,199183092;Down;Down;30;Down
0,003244504;-0,453333333;-0,263333333;-0,486666667;-0,215714238;-0,2;-0,191904762;0,001209334;1,25;-15,697255;16,016402;-0,697598907;Down;Down;31;Down
-0,006970986;-0,046666667;-0,053333333;-0,236666667;-0,155238571;-0,213809524;-0,169047619;-0,005695799;1,27;-15,646404;15,525848;2,009433697;Down;Down;32;Up
-0,004257411;0,586666667;0,373666667;0,156666667;-0,10142881;-0,106190476;-0,111619048;-0,007060586;2,114;-15,755852;16,34307;-0,096825881;Up;Down;33;Down
0,007325301;0,203333333;0,09;0,346666667;-0,217619429;-0,167619048;-0,202380952;0,008569584;1,82;-15,823075;15,487594;0,597708156;Up;Down;34;Down
-0,000493741;0,086666667;0,216666667;0,346666667;-0,208095714;-0,219047619;-0,208095238;0,001979142;1,25;-15,707601;15,265341;-0,3079973;Up;Down;35;Up
-0,001150923;-0,496666667;-0,258333333;0,033333333;-0,317619667;-0,303333333;-0,23547619;-0,00027409;1,475;-15,715347;15,573447;0,282160369;Up;Down;36;Down
0,007367101;-1,0733;-0,766666667;-0,576666667;-0,471904952;-0,428095238;-0,316666667;0,003076923;1,48;-15,733453;16,397965;-0,373240232;Down;Down;37;Down
-0,005667601;-1,696666667;-1,683333333;-1,666666667;-0,490952238;-0,499047619;-0,516666667;-0,006904845;1,64;-15,617965;15,93673;0,089519167;Down;Down;38;Up
-0,011131191;-1,15;-1,296666667;-1,373333333;-0,357618762;-0,42;-0,425238095;-0,007407009;2,19;-15,706734;15,202554;-0,022431346;Down;Down;39;Down
-0,010418214;0,0433;-0,033333333;-0,563333333;-0,132380905;-0,207880952;-0,216666667;-0,010257771;2,3999;-15,882553;16,028874;0,522833895;Down;Down;40;Down
-0,000805141;0,73;0,586666667;0,57;-0,140000143;-0,13952381;-0,108095238;-5,37E-09;1,68;-16,048877;15,911811;-0,172384506;Up;Down;41;Down
0,002094799;0,63;0,593333333;0,666666667;-0,136666429;-0,126190476;-0,049047619;-0,000536285;1,75;-16,06181;16,518199;0,155844611;Up;Down;42;Down
0,007935491;-0,063366667;-0,25;0,096666667;-0,298570905;-0,231428571;-0,253809524;0,007148251;2,17;-16,028198;16,051516;0,200016829;Up;Down;43;Up
0,000759046;0,293333333;0,57;0,05;-0,301904571;-0,287619048;-0,266666667;-0,001082816;1,25;-15,901512;16,229452;-0,055738747;Up;Down;44;Up
-0,007134048;0,66;0,596666667;0,203333333;-0,390476048;-0,384761905;-0,33952381;-0,006359488;1,64;-15,889445;15,863202;-0,213529136;Up;Down;45;Up
0,007188264;0,4667;0,576666667;0,87;-0,550000143;-0,498090476;-0,403809524;0,005033584;1,6101;-16,003199;16,288574;-0,307326047;Up;Down;46;Down
0,003259842;-0,36;-0,48;-0,14;-0,523809524;-0,585238095;-0,564761905;0,005344067;2,08;-15,888579;15,45688;0,674154861;Down;Down;47;Up
0,003707301;-0,786666667;-0,993366667;-0,726666667;-0,473809381;-0,579047619;-0,527619048;0,000653458;1,45;-15,836875;16,338263;-0,258410361;Down;Down;48;Up
-0,009242695;-0,523333333;-0,696666667;-0,866666667;-0,317143;-0,433809524;-0,363809524;-0,007588877;1,94;-15,778264;15,624773;-0,223663899;Down;Down;49;Up
-0,006258134;-0,503333333;-0,34;-0,536666667;-0,273332857;-0,239047619;-0,246666667;-0,000108241;1,72;-15,924777;14,884748;0,870459245;Down;Down;50;Down
0,001399335;-0,186666667;0,203366667;0,35;-0,303809762;-0,28952381;-0,224757143;0,000538119;0,8299;-16,024745;16,162343;0,155500451;Up;Down;51;Down
-0,003816529;-0,226666667;-0,336666667;-0,44;-0,254285524;-0,283809524;-0,241904762;-0,004129777;1,42;-16,002347;16,123527;-0,257697456;Down;Down;52;Up
0,008080196;-0,083333333;-0,326666667;-0,223333333;-0,29333281;-0,278095238;-0,297619048;0,002905537;2,21;-16,06353;16,894262;-0,012720965;Down;Down;53;Down
-0,011347562;-0,793333333;-0,493333333;-0,523333333;-0,169047762;-0,290714286;-0,24;-0,007302013;2;-15,934256;15,366101;-0,074662916;Down;Down;54;Up
-0,000320792;-1,62;-0,71;-0,573333333;-0,030476143;-0,17;-0,046190476;0,002089915;1,09;-16,116101;15,671275;-0,171869857;Down;Down;55;Down
0,003212632;-1,873333333;-1,943333333;-1,71;-0,560952333;-0,538095238;-0,431904762;0,004241134;1,48;-16,121274;15,87956;-0,060135167;Down;Down;56;Down
-0,012047668;-1,313333333;-1,586666667;-2,036666667;-0,329047095;-0,396666667;-0,44;-0,013804448;2,9;-16,069556;16,61434;-0,199809578;Down;Down;57;Up
-0,018220035;0,4682;-0,066666667;-0,453333333;-0,206190524;-0,297619048;-0,367142857;-0,016622396;3,82;-16,264333;16,283389;1,358528698;Down;Down;58;Down
-0,001975282;0,82;1,176666667;1,093333333;-0,107142857;-0,189047619;-0,11952381;-0,003112158;1,27;-16,563385;16,816123;-0,410546937;Up;Down;59;Down
0,013014717;0,906666667;1,336666667;1,09;-0,235238238;-0,294761905;-0,224761905;0,007586883;2,08;-16,59613;17,421536;0,670233463;Up;Down;60;Down
0,006174315;-0,121533333;-0,293333333;0,016666667;-0,233333762;-0,305457143;-0,249047619;0,005820743;2,2154;-16,381541;16,350702;-0,07002755;Up;Down;61;Up
-0,002062348;-0,306666667;-0,523333333;-0,783333333;-0,225237857;-0,171309524;-0,212371429;-0,001321654;2,34;-16,280706;16,174321;-0,363543575;Down;Down;62;Up
0,001956491;-1,18;-1,44;-0,713333333;-0,113333571;-0,23852381;-0,220952381;-0,000211239;3,37;-16,314317;16,692427;0,198293976;Down;Down;0;Down
-0,006451785;-1,93;-1,3;-1,166666667;-0,10428581;-0,143809524;-0,096666667;-0,004713733;1,7;-17,382431;17,164938;0,434993925;Down;Down;1;Up
-0,000940725;-1,79;-1,516666667;-1,736666667;-0,102380667;-0,09;-0,121428571;0,001099173;1,69;-17,494945;17,121406;-0,271418735;Down;Down;2;Down
-0,010858076;-0,7;-0,72;-1,223333333;-0,023333571;-0,031428571;-0,059047619;-0,011922581;2,59;-17,511403;17,922583;-0,169869352;Down;Down;3;Down
-0,015077219;0,916666667;0,856666667;0,13;0,151904905;0,076666667;0,017619048;-0,014161265;3,59;-17,702583;17,811507;-0,126652087;Up;Up;4;Down
0,006946246;2,063333333;1,746666667;2,28;0,130476476;0,147142857;0,14047619;0,010752109;2,51;-17,971509;17,117112;-0,090677215;Up;Up;5;Down
0,010148193;1,24;1,126666667;1,63;0,173809238;0,158095238;0,204761905;0,007851666;2,53;-17,847107;18,116904;-0,179486725;Up;Up;6;Up
0,018340485;0,526666667;0,156666667;0,47;-0,036666905;0,062857143;0,059904762;0,01046354;3,41;-17,666908;18,855836;0,456548695;Up;Up;7;Up
-0,003106477;-0,776666667;-0,696666667;-0,84;-0,211428714;-0,236190476;-0,135714286;-0,004775864;1,56;-17,345837;17,719801;-0,121644619;Down;Down;8;Up
-0,007906805;-0,195;0,096666667;-0,683333333;0,16476219;-0,151190476;0,063333333;-0,01040475;2,19;-17,399808;18,027937;-0,069525378;Down;Up;9;Down
-0,002188175;0,57;1,033333333;0,573333333;0,207619048;0,141428571;0,13047619;-0,000312806;2,3;-17,537936;17,216349;0,221162275;Up;Up;10;Down
-0,000624372;-1,903333333;-1,266666667;-1,416666667;0,167142619;0,204761905;0,228571429;0,000729155;1,8;-17,576356;17,327318;-0,284351532;Down;Up;11;Down
0,011823982;-1,535;-1,893333333;-1,583333333;0,253809619;0,216428571;0,265238095;0,013013683;3,065;-17,587323;17,170608;-0,518231759;Down;Up;12;Down
-0,03307669;-2,513333333;-2,956666667;-2,586666667;0,078571143;0,19047619;0,167138095;0,014739653;3,69;-17,380605;8,815112;0,319245248;Down;Up;13;Up
-0,003151905;0,57;0,243333333;0,403333333;0,574285619;0,514761905;0,45047619;-0,008331245;3,71;-17,965112;19,051818;0,593500645;Up;Up;14;Down
-0,003799493;-0,6;-0,08;0,446666667;0,634285333;0,526666667;0,607619048;0,005306684;1,99;-18,021815;16,300415;-0,014693156;Up;Up;15;Down
0,013131306;0,413333333;0,76;0,376666667;0,588095524;0,664285714;0,650952381;0,00779655;2,36;-18,090419;18,904428;0,123288521;Up;Up;16;Down
-0,00250718;0,944166667;0,526733333;0,633333333;0,410951857;0,476190476;0,502857143;0,000769109;2,73;-17,854423;17,259246;-0,42562872;Up;Up;17;Up
-0,004894008;1,300333333;1,363333333;0,386666667;0,478571571;0,56;0,465238095;-0,001938172;3,55;-17,899253;17,407058;0,536085108;Up;Up;18;Down
0,01718303;1,01;0,773333333;1,623333333;0,308095286;0,407142857;0,36;0,014235583;3,4;-17,98706;18,27064;0,069287805;Up;Up;19;Down
-0,006343394;0,2625;0,113266667;0,2;0,301904571;0,276071429;0,325752381;-0,003094533;1,4777;-17,680635;17,163134;-0,239670648;Up;Up;20;Up
0,014238248;0,269666667;-0,306666667;0,323333333;0,160475952;0,304238095;0,209047619;0,014604626;3,739;-17,793135;17,491588;0,106832625;Up;Up;21;Down
-0,004785933;-0,386666667;-0,5;-0,91;0,273809524;0,265714286;0,208571429;-0,006990447;2,69;-17,541587;18,055738;0,488572755;Down;Up;22;Up
-0,004453197;-0,13;0,316666667;0,066666667;0,31571381;0,258571429;0,283333333;-0,002639736;1,03;-17,625743;17,354406;-0,16916797;Up;Up;23;Down
-0,004896271;0,626666667;1,126666667;1,033333333;0,401428905;0,34952381;0,324285714;-0,003552332;2,01;-17,704409;17,531315;-0,087132237;Up;Up;24;Down
0,010387929;0,82;1,152666667;1,556666667;0,466190143;0,49952381;0,474285714;0,007145842;2,35;-17,79131;18,237441;-0,368172607;Up;Up;25;Down
0,010654557;-0,62;-0,186666667;-0,043333333;0,298094952;0,364285714;0,369047619;0,004435405;2,37;-17,607446;18,61085;0,643558448;Down;Up;26;Up
0,003260733;-0,925;0,136666667;-1,53;0,290952381;0,317619048;0,252380952;0,002685048;3,51;-17,420851;17,474136;-0,232471889;Down;Up;27;Up
-0,014590367;1,076666667;0,650666667;0,526666667;0,379523905;0,351904762;0,274380952;-0,010838434;3,348;-17,364134;16,909351;-0,012259731;Up;Up;28;Up
-0,01248532;2,31;1,853333333;1,983333333;0,545713905;0,525238095;0,432380952;-0,012103785;3,67;-17,619347;17,780707;-0,372135219;Up;Up;29;Down
0,035433766;2,378333333;1,51;2,38;0,282856571;0,487380952;0,28;0,033269788;6,695;-17,840711;17,729605;0,901664198;Up;Up;30;Down
0,008428519;0,913333333;1,289966667;1,18;0,151428238;0,177619048;0,226190476;0,004375004;2,07;-17,21961;17,835078;-0,542209139;Up;Up;31;Up
-0,006567529;0,266666667;0,286666667;-0,046666667;0,26380919;0,182861905;0,171904762;-0,009708223;2,3;-17,075085;17,7876;1,476039979;Down;Up;32;Up
0,017122813;0,636666667;0,503333333;0,696666667;0,082380762;0,124285714;0,083809524;0,018593804;4,09;-17,1876;16,655794;0,170841139;Up;Up;33;Down
-0,011304984;0,803333333;0,430033333;0,833333333;0,115238714;0,128571429;0,056195238;-0,004795291;3,1999;-16,895793;15,877898;0,091535607;Up;Up;34;Up
0,005367412;0,3;0,61;0,97;0,225238571;0,165238095;0,216666667;0,004408812;2,36;-17,087892;17,176425;-0,197808874;Up;Up;35;Down
0,019564726;-0,366666667;-1,076666667;-0,136666667;0,211428714;0,19;0,228571429;0,017245133;3,69;-16,99642;17,117116;-0,100577382;Down;Up;36;Up
-0,00923219;-1,386666667;-1,276666667;-1,516666667;0,208095;0,144761905;0,14047619;-0,009135891;2,08;-16,667112;16,811711;0,11745909;Down;Up;37;Up
-0,012536681;-0,456666667;-0,713;-0,83;0,457143143;0,314761905;0,329047619;-0,013464964;3,29;-16,821712;17,223924;0,016594248;Down;Up;38;Down
-0,002895564;-0,49;-0,43;-0,486666667;0,430475905;0,466666667;0,459047619;0,001128998;1,56;-17,03392;16,333316;0,142688261;Down;Up;39;Down
0,001983092;0,02;-0,286666667;-0,293333333;0,560476429;0,518571429;0,522380952;-0,003468353;2,41;-17,083321;18,069476;-0,078781147;Down;Up;40;Down
-0,006897097;0,14;-0,183666667;-0,25;0,646666762;0,643809524;0,574238095;-0,006185033;2,521;-17,049472;17,03748;0,114964301;Down;Up;41;Up
0,000213116;0,586666667;0,5;0,413333333;0,769524;0,664285714;0,713809524;-0,003557239;1,74;-17,167477;17,873818;0,078720562;Up;Up;42;Down
0,002668234;1,25;1,36;1,126666667;0,659047429;0,697142857;0,692380952;0,001441026;1,49;-17,163812;17,348071;0,095288649;Up;Up;43;Up
0,003747513;0,61;0,916666667;0,656666667;0,502381095;0,568095238;0,651428571;0,003055116;1,55;-17,118076;17,18405;-0,263638284;Up;Up;44;Up
0,01176171;0,403333333;0,623333333;0,39;0,461904619;0,444047619;0,492380952;0,003390571;1,48;-17,054043;18,404639;0,198197514;Up;Up;45;Up
-0,00492654;-0,213333333;-0,246666667;0,066666667;0,293333524;0,322857143;0,307619048;0,005072809;1,82;-16,854641;15,097879;-0,153773646;Up;Up;46;Up
-0,000539929;0,506666667;0,256666667;0,646666667;0,447619476;0,361428571;0,36952381;-0,001132835;2,47;-16,937877;17,057024;0,219473327;Up;Up;47;Down
0,006552466;0,263333333;0,33;0,606666667;0,275238048;0,357142857;0,364285714;0,007833313;2,14;-16,947019;16,606346;0,023284412;Up;Up;48;Down
0,004519608;-0,143333333;0,313333333;0,423333333;0,206190524;0,268095238;0,280952381;0,000652376;1,72;-16,836344;17,470426;-0,041411475;Up;Up;49;Up
-0,001199962;-0,086633333;0,03;-0,343333333;0,108095429;0,085042857;0,154285714;-0,001580231;1,72;-16,760424;16,850551;-0,150806259;Down;Up;50;Up
0,003604213;-0,163333333;0,136666667;0,166666667;0,066191143;0,068571429;0,10047619;0,003445974;2,34;-16,780547;16,750185;-0,193707999;Up;Up;51;Down
-0,008009856;0,57;0,1;-0,133333333;0,141428619;0,105238095;0,14047619;-0,007924016;3,09;-16,720178;16,844641;0,147155912;Down;Down;52;Up
0,007134903;0,1433;0,6;0,19;-0,346189952;-0,263338095;-0,19047619;0,00710534;2,0699;-16,854641;16,744818;0,06351279;Up;Down;53;Down
-0,001311006;1,096666667;1,516666667;0,37;-0,252380381;-0,245714286;-0,25952381;0,001149146;3,24;-16,734811;16,306764;0,053278319;Up;Down;54;Up
-0,002725689;0,916666667;1,02;0,983333333;-0,207143143;-0,237619048;-0,213333333;5,46E-05;1,68;-16,756759;16,292488;-0,048219919;Up;Down;55;Down
0,010122406;1,346666667;1,396666667;1,33;-0,217143429;-0,200952381;-0,214285714;0,013406185;3,44;-16,802495;16,053272;0,039692102;Up;Down;56;Down
0,008837836;1,57;0,536666667;1,566666667;-0,325714143;-0,193714286;-0,286752381;0,020311968;4,5;-16,633277;14,466915;0,12528245;Up;Down;57;Up
0,003000551;1,23;1,396666667;0,996666667;-0,320951952;-0,271428571;-0,219047619;0,004010673;1,99;-16,486914;16,257531;-0,142943214;Up;Down;58;Up
0,014348398;1,846666667;1,003333333;1,676666667;-0,547619048;-0,38952381;-0,451428571;0,016345241;3,59;-16,437527;15,873354;0,312648288;Up;Down;59;Up
-0,000620791;0,893333333;1,353333333;0,966666667;-0,573809667;-0,564285714;-0,49047619;0,000960609;1,4;-16,203356;15,933418;-0,245583754;Up;Down;60;Up
0,014662698;1,27;0,903333333;1,47;-0,651904905;-0,564642857;-0,58047619;0,009166483;2,49;-16,213417;16,94742;0,093355389;Up;Down;61;Down
0,007931927;-0,39;0,356666667;0,59;-0,591428476;-0,738095238;-0,59952381;0,004023676;1,06;-15,977421;16,531181;-0,089149672;Up;Down;0;Up
0,008067397;-0,955;-1,05;-0,813333333;-0,712380571;-0,589761905;-0,624285714;0,011905442;2,78;-16,80118;16,016194;0,083337165;Down;Down;1;Up
-0,000347066;-1,37;-1,333333333;-1,506666667;-0,585714429;-0,647619048;-0,616190476;-0,003976252;1,39;-16,666192;17,301979;-0,394751489;Down;Down;2;Up
-0,021626785;-0,836666667;-1,056666667;-1,166666667;-0,532857286;-0,541904762;-0,594285714;-0,017725281;3,3;-16,67198;16,376474;0,383833327;Down;Down;3;Down
-0,003841425;-0,205;-0,273333333;-0,056666667;-0,494285905;-0,474047619;-0,521904762;0,003236608;2,495;-17,03647;15,852033;0,069987844;Down;Down;4;Down
0,005427463;-0,596666667;-0,433333333;-0,18;-0,46600035;-0,4965;-0,497;0,001072428;1,5;-17,102032;17,779468;-0,023577219;Down;Down;5;Down
-0,002547844;-1,428033333;-1,25;-1,08;-0,553158368;-0,487368421;-0,547894737;0,002386658;2,64;-17,00947;16,182846;-0,067950425;Down;Down;6;Up
-0,005919609;-1,756666667;-1,516666667;-1,96;-0,468889;-0,518888889;-0,563333333;-0,006739697;2,29;-17,05285;17,304111;0,023941174;Down;Down;7;Down
-0,009733287;-1,283333333;-0,67;-1,45;-0,404706118;-0,478823529;-0,508235294;-0,009520634;1,99;-17,154108;17,291884;-0,244100659;Down;Down;8;Down
-0,01705478;-2,5253;-2,383333333;-2,93;-0,327500313;-0,31099375;-0,41625;-0,008882759;3,1741;-17,321883;16,139842;-0,011944536;Down;Down;9;Down
0,002630254;-2,363333333;-2,383333333;-2,453333333;-0,337334133;-0,271333333;-0,372666667;0,007165337;3,01;-17,619842;16,753546;-0,494502069;Down;Down;10;Down
-0,033347172;-1,83;-2,376666667;-2,17;-0,372143286;-0,306428571;-0,473571429;0,005350844;3,83;-17,573553;11,019469;0,245551312;Down;Down;11;Up
-0,008771079;0,58;0,433333333;0,23;0,287691615;0,2;0,037692308;-0,009462209;3,6;-18,16947;18,469529;0,448905109;Up;Up;12;Down
0,007021289;1,460666667;1,326066667;1,39;0,129165667;0,251666667;0,13;0,010901973;2,95;-18,329533;17,481282;0,602540721;Up;Up;13;Down
0,005418281;0,68;0,98;1,533333333;0,094544909;0,109090909;0,045454545;0,006558956;2,19;-18,201289;17,892924;-0,009592027;Up;Up;14;Up
0,009741591;0,026666667;-0,263333333;0,16;-0,0669998;0,086;-0,081;0,010332542;3,16;-18,102925;17,827444;0,042713024;Up;Up;15;Up
0,009511498;-1,024;-0,8894;-0,486666667;-0,158889667;-0,151333333;-0,268688889;0,004647152;2,5462;-17,927437;18,657721;-0,201479766;Down;Down;16;Up
-0,016693034;-0,8225;-1,133333333;-1,27;-0,02875125;-0,105;-0,305;-0,011274536;3,09;-17,757723;17,056645;0,438121519;Down;Down;17;Up
-0,000640669;-0,593333333;-0,033333333;-0,816666667;0,259999;0,111428571;-0,002857143;-0,005575901;2,29;-18,05665;18,99821;-0,069169;Down;Down;18;Down
-0,003143718;0,715;0,416666667;0,46;0,4216665;0,285;0,041666667;-0,008676352;2,95;-18,068212;19,17511;-0,061341964;Up;Down;19;Down
-0,00921424;0,689166667;0,653333333;0,443333333;0,5679994;0,3255;0,192;-0,007183236;2,1575;-18,125106;17,912884;-0,223960353;Up;Up;20;Down
0,01974995;0,983333333;0,393333333;1,393333333;-0,0250015;0,64;0,02;0,01781212;3,97;-18,292882;18,325148;0,458355868;Up;Up;21;Down
-0,00343495;-0,145;-0,333333333;-0,523333333;0,219996333;-0,145;-0,333333333;-0,006144772;2,055;-17,935149;18,506856;0,001132113;Down;Down;22;Up
0,005965036;-0,22;-0,5;-0,465;-0,3300015;-0,22;-0,5;0,004358812;2,05;-17,996862;18,189832;-0,106301551;Down;Down;23;Down
-0,010935557;-0,39;-1,1;-2,04;0,720002;-0,39;-1,1;-0,008973917;2,2;-17,88983;17,726538;0,256043319;Down;Down;24;Up
