Returns;3d_m.a.high_change;3d_m.a.low_change;3d_m.a.close_change;10d_m.a.high_change;10d_m.a.low_change;10d_m.a.close_change;daily_price_percent_change;open(t)-adj.close(t-1);vol_percent_change;adj.close-close;high-low;days_to-next-dividend;3d_m.a.return;30d_m.a.return;Y
Down;Up;Up;Up;Down;Down;Down;Down;5,897742;0,151836489;-6,091602;1,53;25;Up;Down;Down
Down;Up;Up;Up;Up;Up;Up;Down;5,987211;-0,241980881;-6,167735;1,22;26;Up;Up;Down
Up;Up;Up;Up;Up;Up;Up;Up;6,731155;0,254596933;-6,187209;1,86;27;Up;Up;Down
Down;Down;Up;Down;Down;Down;Down;Down;5,609489;1,102327448;-6,091155;1,505;28;Down;Down;Up
Down;Up;Up;Up;Up;Down;Up;Down;6,02232;-0,710507464;-6,119484;0,77;29;Up;Down;Down
Up;Up;Up;Up;Down;Up;Up;Up;6,47533;0,211337305;-6,132327;1,195;30;Up;Up;Down
Up;Down;Down;Up;Down;Down;Down;Up;6,377763;-0,240979083;-6,105327;2,54;31;Up;Up;Up
Up;Down;Down;Down;Down;Down;Down;Down;6,901208;-0,439712351;-5,997758;1,81;32;Down;Down;Up
Down;Down;Down;Down;Up;Up;Up;Down;5,713092;1,451668908;-5,971206;2,69;33;Down;Up;Up
Down;Up;Up;Up;Up;Up;Up;Down;6,225531;-0,058911518;-6,053088;3,1925;34;Up;Up;Down
Up;Up;Up;Up;Up;Up;Up;Up;7,429124;0,02524478;-6,165525;1,86;35;Up;Up;Down
Up;Up;Up;Up;Up;Up;Up;Up;7,486793;-0,175998289;-6,099129;1,69;36;Up;Up;Up
Up;Down;Down;Down;Up;Up;Up;Up;6,696584;-0,035621883;-6,016799;2,12;37;Down;Up;Up
Down;Down;Down;Down;Down;Down;Down;Down;4,504413;0,121771683;-5,956586;1,53;38;Down;Down;Up
Up;Down;Down;Down;Up;Up;Up;Down;6,46689;0,030292524;-6,054417;2,1299;39;Down;Up;Down
Down;Down;Down;Down;Down;Up;Up;Down;5,440633;0,181757656;-6,046891;3,61;40;Down;Down;Up
Down;Down;Down;Down;Down;Down;Down;Down;4,907023;0,19082759;-6,110628;1,53;41;Down;Down;Down
Down;Down;Down;Down;Down;Down;Down;Down;5,94599;-0,28265815;-6,177024;1,6;42;Down;Down;Down
Up;Down;Down;Down;Down;Down;Down;Up;5,319139;-0,226411263;-6,215986;3,03;43;Down;Down;Down
Down;Up;Down;Down;Up;Down;Down;Down;6,583676;0,586299458;-6,149143;2,54;44;Down;Down;Up
Down;Up;Up;Up;Up;Up;Down;Down;5,903598;-0,111963958;-6,18367;1,71;45;Up;Up;Down
Up;Up;Up;Up;Down;Up;Down;Up;6,331277;-0,077107533;-6,253605;1,82;46;Up;Up;Down
Up;Up;Up;Up;Down;Down;Down;Up;6,278774;2,210622969;-6,171275;1,38;47;Up;Down;Up
Up;Down;Up;Prev;Up;Down;Down;Up;6,108418;-0,562781792;-6,128773;1,6;48;Down;Up;Up
Down;Down;Up;Down;Down;Down;Up;Down;5,904966;-0,049740294;-6,108418;1,055;49;Down;Down;Up
Up;Up;Up;Up;Down;Down;Down;Up;5,318767;-0,33675237;-6,134971;2,03;50;Up;Down;Down
Down;Up;Up;Up;Down;Down;Down;Down;6,160549;-0,007437601;-6,128773;1,75;51;Up;Down;Up
Up;Up;Up;Up;Down;Down;Down;Up;6,682635;0,088943117;-6,13055;1,665;52;Up;Down;Down
Up;Up;Up;Up;Down;Down;Down;Up;6,401923;0,145666635;-6,05264;1,7255;53;Up;Down;Up
Up;Up;Up;Up;Down;Down;Down;Up;6,893381;0,473908565;-6,011916;1,65;54;Up;Down;Up
Up;Up;Up;Up;Down;Down;Down;Down;6,428521;-0,328266679;-5,923388;1,51;55;Up;Down;Up
Up;Down;Down;Down;Down;Down;Down;Up;5,871762;-0,091681477;-5,91852;2,3;56;Down;Down;Up
Down;Down;Down;Down;Down;Down;Down;Down;5,798873;-0,018632748;-5,831769;1,35;57;Down;Down;Up
Down;Down;Down;Down;Down;Down;Down;Down;5,656505;0,485528311;-5,888876;1,69;58;Down;Down;Down
Down;Down;Down;Down;Down;Down;Down;Down;6,616425;-0,299946912;-5,976508;1,7;59;Down;Down;Down
Up;Down;Down;Down;Down;Down;Down;Up;6,039352;-0,440190203;-5,996429;1,615;60;Down;Down;Down
Down;Down;Down;Down;Down;Down;Down;Down;5,789482;0,701953677;-5,989351;3,2;61;Down;Down;Up
Down;Down;Down;Down;Down;Down;Down;Down;6,144543;-0,069061586;-6,119484;1,68;0;Down;Down;Down
Down;Up;Up;Down;Down;Down;Down;Down;7,507006;0,449259291;-7,434537;2,75;1;Down;Down;Down
Down;Up;Up;Up;Down;Down;Down;Down;8,210294;-0,191405711;-7,527005;1,35;2;Up;Down;Down
Up;Up;Up;Up;Down;Down;Down;Up;7,110055;0,137931034;-7,540291;2,9;3;Up;Down;Down
Up;Down;Up;Down;Down;Down;Down;Down;7,864632;-0,04061245;-7,460051;0,9465;4;Down;Down;Up
Down;Down;Up;Up;Down;Down;Down;Down;7,359611;0,07373868;-7,444632;1,43;5;Up;Down;Up
Down;Down;Down;Down;Down;Down;Down;Up;7,014492;-0,564067016;-7,469609;1,7999;6;Down;Down;Down
Up;Down;Down;Down;Down;Down;Down;Up;7,386648;-0,432894693;-7,484491;3,73;7;Down;Down;Down
Down;Down;Down;Down;Down;Down;Down;Down;7,484887;3,301169255;-7,32665;6,5;8;Down;Down;Up
Down;Up;Up;Up;Down;Down;Down;Down;7,759111;-0,35025324;-7,634892;1,79;9;Up;Down;Down
Up;Up;Up;Up;Up;Up;Up;Up;8,177752;-0,038114343;-7,689111;1,79;10;Up;Up;Down
Up;Down;Down;Down;Down;Up;Down;Up;8,309283;-0,201327497;-7,657751;3,45;11;Down;Down;Up
Up;Down;Down;Down;Down;Down;Down;Up;7,084396;-0,561134549;-7,489278;3,36;12;Down;Down;Up
Down;Down;Down;Down;Down;Down;Down;Down;1,200388;1,00243881;-7,474396;2,61;13;Down;Down;Up
Down;Down;Down;Down;Up;Up;Up;Down;7,452571;1,283405575;-7,930383;1,59;14;Down;Up;Down
Up;Up;Up;Up;Up;Up;Up;Down;8,336622;0,002157528;-7,992565;1,94;15;Up;Up;Down
Up;Down;Down;Down;Up;Up;Up;Down;8,872379;0,036743215;-7,976625;2,66;16;Down;Up;Up
Up;Down;Down;Down;Up;Up;Up;Up;7,931653;-0,143703552;-7,972375;1,63;17;Down;Up;Up
Down;Down;Down;Down;Up;Up;Up;Down;7,672424;0,213192465;-7,951647;1,6;18;Down;Up;Up
Down;Up;Up;Up;Up;Up;Up;Down;8,108851;-0,085950554;-8,032425;1,73;19;Up;Up;Down
Up;Up;Up;Up;Up;Up;Up;Down;8,273018;-0,263494911;-8,098857;1,877;20;Up;Up;Down
Up;Up;Up;Up;Up;Up;Up;Up;7,576627;0,608427268;-8,093011;3,729;21;Up;Up;Up
Up;Up;Up;Up;Up;Up;Up;Up;9,166995;-0,012358769;-7,976625;1,8735;22;Up;Up;Up
Down;Up;Up;Up;Up;Up;Up;Down;7,940823;-0,41188277;-7,907002;1,66;23;Up;Up;Up
Up;Up;Up;Up;Down;Up;Up;Up;8,923794;0,680133578;-7,920825;4,0725;24;Up;Up;Down
Up;Up;Down;Up;Down;Down;Down;Up;5,091181;-0,212966065;-7,683787;4,03;25;Up;Up;Up
Down;Up;Down;Up;Up;Up;Down;Down;8,044513;-0,016547565;-7,631178;4,08;26;Up;Down;Up
Up;Down;Down;Down;Down;Down;Down;Up;8,791653;-0,171575522;-7,704515;2,05;27;Down;Down;Down
Down;Down;Down;Down;Down;Down;Down;Up;7,04431;0,103351632;-7,571651;1,5099;28;Down;Down;Up
Down;Up;Down;Down;Down;Down;Down;Down;6,728431;0,242603039;-7,574305;2,91;29;Down;Down;Down
Up;Up;Up;Up;Up;Down;Up;Down;8,814754;0,059171417;-7,728433;1,74;30;Up;Up;Down
Up;Down;Down;Down;Down;Down;Up;Up;6,574898;0,226647222;-7,674751;3,12;31;Down;Up;Up
Down;Down;Down;Down;Up;Down;Up;Down;7,455831;-0,249684352;-7,634892;1,82;32;Down;Down;Up
Down;Down;Down;Down;Down;Down;Down;Down;5,924765;-0,06820915;-7,675824;1,2901;33;Down;Down;Down
Up;Down;Down;Down;Down;Down;Down;Up;8,560073;-0,520424283;-7,78477;2,06;34;Down;Down;Down
Down;Down;Down;Down;Down;Down;Down;Down;5,782991;0,992455658;-7,680074;2,405;35;Down;Down;Up
Down;Up;Up;Up;Down;Down;Down;Up;7,577339;0,430051443;-7,872988;2,38;36;Up;Down;Down
Up;Up;Up;Up;Down;Down;Down;Up;8,150566;0,030216039;-7,887333;1,35;37;Up;Down;Down
Up;Up;Up;Up;Down;Down;Down;Up;8,690667;-0,157932253;-7,84057;2,17;38;Up;Down;Up
Down;Down;Up;Up;Down;Down;Down;Down;7,832065;0,035825495;-7,740661;1,96;39;Up;Down;Up
Up;Up;Up;Up;Down;Down;Down;Up;7,479892;-0,100124216;-7,83207;1,83;40;Up;Down;Down
Up;Up;Up;Up;Down;Down;Down;Up;8,508771;0,015816656;-7,769888;2,65;41;Up;Down;Up
Down;Up;Down;Down;Down;Down;Down;Down;9,334634;-0,133602827;-7,708765;4,19;42;Down;Down;Up
Up;Up;Up;Up;Down;Down;Down;Up;9,797025;-0,06374521;-7,824629;1,68;43;Up;Down;Down
Down;Up;Up;Up;Down;Down;Down;Down;5,590717;0,165838768;-7,637024;2,08;44;Up;Down;Up
Up;Down;Down;Down;Down;Down;Down;Up;8,708768;-0,152516463;-7,80071;2,26;45;Down;Down;Down
Up;Down;Down;Down;Down;Down;Down;Up;9,642824;-0,193474962;-7,708765;1,9;46;Down;Down;Up
Down;Down;Down;Down;Down;Down;Down;Down;4,879706;0,288021304;-7,582819;3,13;47;Down;Down;Up
Down;Up;Up;Up;Down;Down;Down;Up;7,264493;0,004121385;-7,859702;2,14;48;Up;Down;Down
Down;Up;Up;Up;Down;Down;Down;Up;7,104252;-0,180906643;-7,864488;1,02;49;Up;Down;Down
Up;Up;Up;Up;Down;Down;Down;Up;9,596461;-0,200135009;-7,894252;3,31;50;Up;Down;Down
Up;Down;Down;Down;Down;Down;Down;Up;10,621392;-0,120369847;-7,796461;4,84;51;Down;Down;Up
Down;Down;Down;Down;Down;Down;Down;Down;11,094798;-0,305848062;-7,491396;6,49;52;Down;Down;Up
Down;Down;Down;Down;Down;Down;Down;Down;2,530716;0,384075196;-7,624796;5,44;53;Down;Down;Down
Down;Down;Down;Down;Down;Down;Down;Down;6,953202;0,83524866;-7,910715;4,49;54;Down;Down;Down
Down;Down;Down;Down;Down;Down;Down;Down;6,981234;-0,03964473;-8,113202;1,41;55;Down;Down;Down
Down;Down;Down;Down;Down;Down;Down;Down;7,431242;1,069613041;-8,181229;2,26;56;Down;Down;Down
Down;Up;Up;Up;Down;Down;Down;Up;7,507184;-0,102818279;-8,291248;1,27;57;Up;Down;Down
Up;Up;Up;Up;Down;Down;Down;Up;7,727422;-0,302752294;-8,307189;1,99;58;Up;Down;Down
Up;Up;Down;Up;Down;Down;Down;Up;8,171279;0,273545433;-8,277425;1,63;59;Up;Down;Up
Down;Down;Down;Down;Down;Down;Down;Down;8,199209;-0,28843075;-8,241279;1,7729;60;Down;Down;Up
Up;Up;Down;Up;Down;Down;Down;Up;7,014671;0,124151432;-8,299211;2,57;61;Up;Down;Down
Down;Down;Down;Down;Down;Down;Down;Down;7,540578;-0,313499805;-8,264676;1,13;62;Down;Down;Up
Up;Down;Down;Down;Down;Down;Down;Down;9,893952;0,215684208;-8,330571;1,3452;63;Up;Down;Down
Down;Down;Down;Down;Down;Down;Down;Down;7,87771;0,262945953;-8,243948;1,915;64;Down;Down;Up
Down;Down;Down;Down;Down;Down;Down;Down;8,85261;-0,134761576;-8,307711;1,36;0;Down;Down;Down
Up;Down;Down;Down;Down;Down;Down;Down;11,104318;-0,339847166;-9,622605;2,06;1;Down;Down;Down
Down;Down;Down;Down;Down;Down;Down;Down;9,36195;0,139718786;-9,604312;1,95;2;Down;Down;Up
Down;Up;Down;Down;Down;Down;Down;Down;9,581841;0,289229652;-9,671956;3,95;3;Down;Down;Down
Up;Up;Up;Up;Down;Down;Down;Up;10,249067;0,794856369;-9,871844;1,43;4;Up;Down;Down
Down;Up;Up;Up;Down;Down;Down;Up;9,227005;-0,409572579;-9,809073;1,65;5;Up;Down;Up
Up;Down;Down;Up;Down;Down;Down;Up;9,70362;0,241602352;-9,817005;2,11;6;Up;Down;Down
Up;Down;Down;Down;Down;Down;Down;Up;10,533898;-0,265824834;-9,75362;1,69;7;Down;Down;Up
Down;Down;Down;Down;Down;Down;Down;Up;8,985341;-0,019056694;-9,693894;1,58;8;Down;Down;Up
Down;Down;Down;Down;Down;Down;Down;Down;9,416001;-0,249493465;-9,735341;2,52;9;Down;Down;Down
Up;Down;Down;Down;Down;Down;Down;Up;9,691904;-0,299033668;-9,856008;2,92;10;Down;Down;Down
Down;Down;Down;Down;Down;Down;Down;Down;9,597654;-0,477774627;-9,7719;3,3695;11;Down;Down;Up
Down;Down;Down;Down;Down;Down;Down;Down;1,676212;0,864010952;-9,937658;4,33;12;Down;Down;Down
Up;Up;Up;Up;Up;Up;Up;Up;10,792947;0,693554311;-10,556216;1,64;13;Up;Up;Down
Up;Up;Up;Up;Up;Up;Up;Up;9,75093;0,23414261;-10,512954;2,42;14;Up;Up;Up
Up;Up;Up;Up;Up;Up;Up;Up;11,210406;0,766716717;-10,420928;1,93;15;Up;Up;Up
Down;Up;Up;Up;Up;Up;Up;Up;10,145274;-0,339569629;-10,270405;1,27;16;Up;Up;Up
Down;Up;Up;Up;Up;Up;Up;Down;10,372192;-0,284629936;-10,275278;1,3;17;Up;Down;Down
Up;Up;Up;Up;Down;Down;Down;Up;11,154113;-0,068153273;-10,322199;2,37;18;Up;Up;Down
Up;Up;Up;Up;Down;Down;Down;Up;11,795198;0,09660505;-10,17412;1,885;19;Up;Up;Up
Up;Up;Up;Down;Prev;Down;Up;Down;12,123142;0,490653027;-9,985194;1,81;20;Down;Down;Up
Down;Down;Down;Down;Down;Down;Down;Down;9,055282;-0,217921632;-9,943146;2,26;21;Down;Down;Up
Up;Down;Down;Up;Down;Down;Down;Up;10,248833;0,152639782;-10,055282;3,1183;22;Up;Down;Down
Down;Up;Up;Up;Down;Down;Down;Up;8,800772;0,079608792;-10,038831;1,71;23;Up;Down;Up
Up;Down;Up;Up;Down;Down;Down;Up;10,584199;-0,112552497;-10,06077;0,9;24;Up;Down;Down
Up;Down;Down;Down;Down;Down;Down;Up;11,222677;-0,106413143;-10,024196;2,01;25;Down;Down;Up
Down;Down;Down;Down;Down;Down;Down;Down;10,951575;0,085256584;-9,912676;1,88;26;Down;Down;Up
Down;Down;Down;Down;Down;Down;Down;Down;8,543306;-0,629476861;-9,93157;2,46;27;Down;Down;Down
Down;Down;Down;Down;Down;Down;Down;Down;10,271092;2,713728258;-10,083308;1,5816;28;Down;Down;Down
Down;Down;Down;Down;Down;Down;Down;Down;11,005337;-0,32107325;-10,121096;2,05;29;Down;Down;Down
Down;Up;Up;Down;Down;Down;Down;Down;10,3659;-0,041468554;-10,175334;2,0099;30;Down;Down;Down
Up;Up;Up;Up;Down;Down;Down;Up;10,87166;0,58472472;-10,275893;2,397;31;Up;Down;Down
Up;Up;Up;Up;Down;Down;Down;Up;10,836543;-0,669804919;-10,221655;1,14;32;Up;Down;Up
Down;Up;Up;Up;Down;Down;Down;Down;9,623335;1,123750338;-10,176549;1,65;33;Up;Down;Up
Up;Up;Up;Up;Down;Down;Down;Up;10,067528;0,163429969;-10,25334;1,67;34;Up;Down;Down
Up;Down;Down;Up;Down;Down;Down;Up;10,327417;-0,119022709;-10,187525;1,7476;35;Up;Down;Up
Up;Down;Down;Down;Down;Down;Down;Up;10,202074;-0,234566738;-10,167417;1,49;36;Down;Down;Up
Down;Down;Down;Down;Down;Down;Down;Down;10,176554;0,385175035;-10,132072;2,19;37;Down;Down;Up
Down;Up;Up;Up;Down;Down;Down;Down;9,735636;-0,115155889;-10,176549;1,61;38;Up;Down;Down
Down;Up;Up;Up;Down;Down;Down;Down;10,634167;-0,259908129;-10,28564;1,9;39;Up;Down;Down
Up;Up;Down;Up;Down;Down;Down;Up;10,906733;0,37827969;-10,294172;3,33;40;Up;Down;Down
Up;Down;Down;Down;Down;Down;Down;Up;10,076001;-0,096522734;-10,096728;2,65;41;Down;Down;Up
Down;Down;Down;Down;Down;Down;Down;Down;9,971544;0,212288341;-10,076005;2,26;42;Down;Down;Up
Down;Down;Down;Down;Down;Down;Down;Down;10,131258;0,006884682;-10,201546;1,7103;43;Down;Down;Down
Down;Down;Down;Down;Down;Down;Down;Down;9,965112;0,446903487;-10,261258;2,67;44;Down;Down;Down
Up;Up;Down;Up;Down;Down;Down;Down;11,188663;-0,172357471;-10,355113;1,9301;45;Up;Down;Down
Down;Down;Down;Down;Down;Down;Down;Down;9,850967;-0,138703735;-10,338663;2,02;46;Down;Down;Up
Up;Down;Down;Down;Down;Down;Down;Down;10,89867;-0,27040567;-10,370963;2,01;47;Down;Down;Down
Down;Down;Up;Down;Down;Down;Down;Down;10,104196;1,363405337;-10,338663;1,7;48;Down;Down;Up
Down;Down;Down;Down;Up;Down;Up;Up;9,931866;-0,373679641;-10,46419;1,18;49;Down;Up;Down
Up;Down;Down;Down;Up;Up;Up;Up;11,397909;-0,282756473;-10,481869;1,99;50;Down;Up;Down
Down;Down;Down;Down;Up;Up;Up;Down;10,385276;0,352493245;-10,367905;2,99;51;Down;Up;Up
Down;Down;Up;Down;Up;Up;Up;Down;10,263527;0,241374804;-10,495275;1,2;52;Down;Up;Down
Down;Up;Up;Up;Up;Up;Up;Up;10,149138;-0,002043212;-10,563534;1,105;53;Up;Up;Down
Up;Up;Down;Up;Up;Up;Up;Up;10,422068;-0,088267935;-10,589131;1,98;54;Up;Up;Down
Up;Down;Down;Down;Up;Up;Up;Up;10,45647;0,280320715;-10,572066;1,82;55;Down;Up;Up
Down;Up;Up;Up;Up;Up;Up;Down;10,738662;-0,324350271;-10,546469;1,19;56;Up;Up;Up
Down;Up;Up;Up;Up;Up;Up;Down;10,4668;0,195768931;-10,55866;1,81;57;Up;Up;Down
Up;Up;Up;Up;Up;Up;Up;Up;11,718934;-0,007487284;-10,606796;1,18;58;Up;Up;Down
Up;Down;Down;Down;Up;Up;Up;Up;11,083507;-0,170436133;-10,498934;1,99;59;Down;Up;Up
Down;Down;Down;Down;Up;Up;Up;Down;9,858249;0,11326569;-10,393502;2,6499;60;Down;Up;Up
Down;Down;Up;Up;Up;Up;Up;Down;10,49331;-0,139558947;-10,428246;2,13;61;Up;Up;Down
Up;Down;Up;Down;Up;Up;Up;Down;12,370316;0,25105178;-10,523316;1,09;62;Up;Up;Down
Up;Down;Down;Down;Up;Up;Up;Up;9,943036;-0,315728284;-10,420314;2,94;63;Down;Up;Up
Down;Up;Down;Down;Up;Up;Up;Down;11,588455;0,005287177;-10,363031;5,19;0;Down;Up;Up
Down;Down;Up;Up;Up;Up;Up;Down;11,368972;-0,107845084;-11,768461;2,27;1;Up;Up;Down
Up;Up;Up;Down;Up;Up;Up;Down;12,608583;0,216146855;-11,828977;2,6;2;Down;Up;Down
Up;Down;Up;Down;Up;Up;Up;Up;13,556757;-0,345809714;-11,808582;1,58;3;Down;Up;Up
Down;Up;Prev;Up;Up;Up;Up;Down;11,228225;0,120507259;-11,64676;3,98;4;Up;Up;Up
Up;Up;Up;Up;Up;Up;Up;Up;11,305574;-0,223202159;-11,858221;2,3303;5;Up;Up;Down
Up;Up;Up;Up;Up;Up;Up;Up;11,708682;0,835731869;-11,82558;4,67;6;Up;Up;Up
Up;Up;Up;Up;Up;Up;Up;Down;12,654082;-0,1851147;-11,60868;1,19;7;Up;Up;Up
Down;Up;Up;Up;Up;Up;Up;Down;11,56535;-0,52785468;-11,544083;2,11;8;Up;Up;Up
Up;Up;Up;Up;Up;Up;Up;Up;11,113542;1,046213476;-11,575354;6,77;9;Up;Up;Down
Up;Up;Up;Up;Up;Up;Up;Up;11,298757;-0,584369449;-11,243546;3,11;10;Up;Up;Up
Down;Up;Up;Up;Up;Up;Up;Down;11,207946;0,00774258;-11,168758;3,33;11;Up;Up;Up
Up;Up;Down;Up;Up;Up;Up;Up;12,354661;1,227239014;-11,297939;4,74;12;Up;Up;Down
Down;Down;Down;Down;Up;Up;Up;Down;9,711915;0,375370589;-10,924655;1,83;13;Down;Up;Up
Down;Down;Up;Up;Up;Up;Up;Down;10,339907;-0,103435464;-11,091915;1,44;14;Up;Up;Down
Up;Up;Up;Up;Up;Up;Up;Up;11,365486;0,286654654;-11,159909;2,46;15;Up;Up;Down
Down;Up;Up;Down;Up;Up;Up;Down;11,080917;-0,297138722;-11,035481;1,9452;16;Down;Up;Up
Down;Up;Up;Up;Up;Up;Up;Up;10,583555;0,537901976;-11,040919;1,64;17;Up;Up;Down
Up;Down;Down;Up;Up;Up;Up;Up;11,038203;0,111420367;-11,07356;2,08;18;Up;Up;Down
Up;Down;Up;Up;Up;Up;Up;Up;10,854878;-0,103315771;-11,038207;1,75;19;Up;Up;Up
Down;Up;Up;Up;Up;Up;Up;Up;10,669839;-0,198125794;-11,004881;2,54;20;Up;Up;Up
Up;Up;Up;Up;Up;Up;Up;Up;10,64781;-0,091669793;-11,019838;2,22;21;Up;Up;Down
Up;Up;Down;Up;Down;Up;Down;Up;10,149699;-0,258134258;-11,017812;4,098;22;Up;Up;Up
Up;Down;Down;Down;Down;Up;Up;Up;11,163352;0,26232166;-10,909697;3,65;23;Down;Down;Up
Down;Down;Down;Down;Down;Down;Down;Down;10,64309;-0,130328524;-10,823348;2,23;24;Down;Down;Up
Down;Up;Up;Down;Down;Up;Up;Down;9,470646;0,028371194;-10,913094;1,93;25;Down;Down;Down
Up;Up;Up;Up;Up;Up;Up;Up;11,816298;0,189798442;-11,060644;2,35;26;Up;Up;Down
Down;Down;Down;Down;Down;Down;Down;Down;11,11921;-0,208848954;-10,9063;1,67;27;Down;Down;Up
Up;Down;Down;Down;Down;Down;Down;Up;10,894708;-0,190259537;-10,919217;2,34;28;Down;Down;Down
Down;Up;Down;Down;Up;Down;Down;Down;11,163082;0,24914291;-10,824704;3,88;29;Down;Down;Up
Down;Up;Up;Up;Up;Up;Up;Down;11,353899;-0,267111853;-11,08308;1,99;30;Up;Down;Down
Up;Up;Up;Up;Down;Up;Up;Up;10,96492;-0,341568218;-11,193906;2,62;31;Up;Up;Down
Up;Up;Up;Up;Down;Down;Down;Up;12,006177;1,322074976;-11,074916;2,65;32;Up;Up;Up
Prev;Up;Up;Up;Down;Down;Down;Up;10,756177;-0,32414442;-10,86618;2,11;33;Up;Down;Up
Up;Up;Up;Up;Down;Down;Down;Up;10,562394;0,732886433;-10,86618;4,9;34;Up;Down;None
Down;Down;Down;Down;Down;Down;Down;Up;9,800549;-0,11678579;-10,672388;1,92;35;Down;Down;Up
Up;Down;Down;Up;Down;Down;Down;Up;11,260173;-0,381672466;-10,680552;2,29;36;Up;Down;Down
Down;Down;Down;Down;Down;Down;Down;Down;10,221759;0,327720973;-10,49017;4,12;37;Down;Down;Up
Up;Down;Down;Down;Down;Up;Up;Up;10,131516;-0,200108583;-10,741752;2,45;38;Down;Up;Down
Down;Down;Down;Down;Up;Up;Up;Down;11,490199;0,241012823;-10,661512;3,205;39;Down;Up;Up
Down;Down;Down;Down;Up;Up;Up;Down;9,761455;-0,114153141;-10,730192;2,42;40;Down;Up;Down
Up;Up;Down;Up;Up;Up;Up;Up;10,477102;0,143980441;-10,931449;2,95;41;Up;Up;Down
Down;Down;Down;Down;Up;Up;Up;Down;9,969339;0,197404858;-10,777105;3,38;42;Down;Up;Up
Up;Down;Down;Up;Up;Up;Up;Up;11,279663;0,043510568;-10,959337;1,797;43;Up;Up;Down
Down;Down;Down;Down;Up;Up;Up;Down;10,459125;0,123423201;-10,839662;1,84;44;Down;Up;Up
Up;Down;Up;Up;Up;Up;Up;Up;10,701742;-0,453454773;-10,949132;1,75;45;Up;Up;Down
Down;Down;Down;Down;Up;Up;Up;Down;11,011006;0,341927438;-10,911738;2,0799;46;Down;Up;Up
Up;Down;Down;Down;Up;Up;Up;Up;10,938252;-0,379816617;-11,011004;2,13;47;Down;Up;Down
Down;Down;Down;Down;Up;Up;Up;Down;12,000168;0,775657993;-10,938257;4,37;48;Down;Up;Up
Down;Up;Up;Down;Up;Up;Up;Down;11,31751;-0,148247405;-11,070163;2,38;49;Down;Up;Down
Up;Up;Up;Up;Up;Up;Up;Up;10,656962;0,732095491;-11,207508;3,48;50;Up;Up;Down
Down;Up;Up;Up;Up;Up;Up;Down;11,707278;-0,190456308;-11,076957;1,9;51;Up;Up;Up
Down;Up;Up;Up;Up;Up;Up;Up;10,893595;-0,043202831;-11,127282;2,25;52;Up;Up;Down
Up;Up;Up;Up;Up;Up;Up;Up;10,888005;-0,195943465;-11,143596;3,05;53;Up;Up;Down
Up;Up;Up;Up;Up;Up;Up;Up;11,844366;0,505752289;-11,028002;1,83;54;Up;Up;Up
Up;Up;Up;Up;Up;Up;Up;Up;10,2563;-0,219158866;-10,944365;1,68;55;Up;Up;Up
Up;Up;Up;Up;Up;Up;Up;Up;11,03846;0,11214785;-10,9063;2,16;56;Up;Up;Up
Up;Up;Up;Up;Up;Down;Up;Down;11,276711;-0,080955138;-10,778461;1,41;57;Up;Up;Up
Down;Up;Up;Up;Down;Down;Up;Up;9,981182;-0,183286042;-10,75671;1,92;58;Up;Up;Up
Up;Down;Down;Up;Down;Down;Down;Up;11,580126;0,452268045;-10,781187;3,48;59;Up;Up;Down
Down;Down;Down;Down;Down;Down;Down;Down;9,936074;-0,061047136;-10,590121;2,1;60;Down;Up;Up
Down;Down;Up;Down;Up;Up;Up;Down;11,192183;-0,380139333;-10,656074;1,85;0;Down;Up;Down
Up;Up;Up;Up;Down;Down;Up;Up;12,021415;0,428190839;-11,762187;1,4399;1;Up;Down;Down
Down;Up;Up;Up;Down;Down;Down;Down;10,543909;-0,33593891;-11,691422;2,01;2;Up;Down;Up
Up;Up;Up;Up;Down;Down;Down;Up;11,610105;0,175544332;-11,803902;3,85;3;Up;Down;Down
Up;Up;Down;Up;Down;Down;Down;Up;12,109554;-0,282070815;-11,520105;3,15;4;Up;Down;Up
Down;Up;Up;Down;Down;Down;Down;Down;10,011196;-0,211181617;-11,419554;2,2;5;Down;Down;Up
Up;Down;Down;Down;Down;Down;Down;Up;11,118457;0,850752908;-11,581192;6,06;6;Down;Down;Down
Down;Down;Down;Down;Down;Down;Down;Down;11,776369;-0,205615238;-11,288452;2,98;7;Down;Down;Up
Down;Down;Up;Down;Down;Down;Down;Down;10,226738;-0,282514167;-11,446369;2,5;8;Down;Down;Down
Up;Up;Up;Up;Down;Down;Down;Down;14,000237;0,631525606;-11,646736;3,69;9;Up;Down;Down
Up;Up;Up;Down;Down;Down;Down;Up;11,214484;-0,210012908;-11,610242;2,71;10;Down;Down;Up
Up;Down;Down;Down;Down;Down;Down;Up;11,178683;-0,48558052;-11,574485;3,96;11;Down;Down;Up
Down;Down;Down;Down;Down;Down;Down;Down;7,770685;0,41753646;-11,328681;3,43;12;Down;Up;Up
Down;Up;Up;Up;Up;Up;Up;Up;11,264833;0,4580959;-11,690686;3,3;13;Up;Up;Down
Up;Down;Down;Up;Up;Up;Up;Up;10,763405;0,354863007;-11,704836;3,81;14;Up;Up;Down
Down;Down;Down;Down;Up;Up;Up;Down;12,495023;-0,091717621;-11,513398;2,81;15;Down;Down;Up
Down;Down;Down;Down;Down;Down;Down;Up;9,730258;0,068509423;-11,605021;2,75;16;Down;Down;Down
Up;Up;Up;Down;Down;Down;Down;Down;12,472688;0,045348171;-11,680257;4,29;17;Down;Down;Down
Down;Up;Up;Up;Down;Down;Down;Down;11,741574;-0,066996413;-11,652693;3,49;18;Up;Down;Up
Up;Up;Up;Up;Down;Down;Down;Up;11,800178;0,059360838;-11,851574;3,09;19;Up;Down;Down
Up;Down;Down;Down;Down;Down;Down;Up;12,739161;-0,098898294;-11,80018;3,494;20;Down;Down;Up
Down;Down;Down;Down;Down;Down;Down;Down;12,755125;-0,235069224;-11,549156;3,17;21;Down;Down;Up
Down;Down;Down;Down;Down;Down;Down;Down;12,041372;0,259466437;-11,625128;4,79;22;Down;Down;Down
Down;Up;Down;Down;Down;Down;Down;Down;11,281316;-0,116749615;-11,881374;2,08;23;Down;Down;Down
Up;Up;Up;Up;Down;Up;Down;Up;12,820638;0,377277599;-12,071312;2,31;24;Up;Up;Down
Up;Down;Down;Down;Down;Down;Down;Up;12,281593;0,417682604;-11,95064;1,12;25;Down;Down;Up
Down;Down;Down;Down;Down;Down;Down;Up;11,465865;-0,150639294;-11,921589;1,03;26;Down;Down;Up
Down;Down;Down;Down;Up;Up;Down;Down;11,75217;0,742390963;-11,955861;2,89;27;Down;Down;Down
Up;Up;Up;Up;Down;Down;Up;Up;12,503431;0,023606873;-12,09217;1,08;28;Up;Up;Down
Down;Up;Up;Up;Up;Down;Up;Down;12,724718;-0,537976405;-12,053427;1,38;29;Up;Up;Up
Up;Up;Up;Up;Up;Up;Up;Up;12,815122;-0,136508275;-12,084713;1,29;30;Up;Up;Down
Up;Up;Up;Up;Down;Up;Down;Up;11,62689;-0,471793252;-12,025126;3,58;31;Up;Up;Up
Up;Up;Up;Up;Down;Down;Down;Up;11,55507;0,213970749;-11,806888;2,92;32;Up;Down;Up
Up;Up;Up;Up;Down;Down;Down;Up;12,966769;0,42319236;-11,745065;4,38;33;Up;Down;Up
Up;Down;Down;Down;Down;Down;Down;Up;11,388028;-0,24350544;-11,316767;2,198;34;Down;Down;Up
Down;Down;Down;Down;Down;Down;Down;Down;10,370931;0,043428765;-11,278024;4,39;35;Down;Down;Up
Down;Down;Down;Down;Down;Down;Down;Down;12,123728;-0,245178072;-11,400932;3,899;36;Down;Down;Down
Down;Down;Down;Down;Down;Down;Down;Down;11,177562;1,158537197;-11,573735;5,17;37;Down;Down;Down
Up;Down;Down;Down;Down;Down;Down;Up;12,265868;-0,020428207;-11,997562;2,41;38;Down;Down;Down
Down;Down;Down;Down;Up;Down;Down;Down;12,160573;0,054801616;-11,955861;3,3;39;Down;Down;Up
Up;Down;Down;Down;Down;Up;Down;Up;11,036408;0,354331813;-12,140578;2,22;40;Down;Up;Down
Down;Down;Down;Down;Up;Up;Up;Down;12,181428;-0,053924009;-12,056412;1,75;41;Down;Up;Up
Down;Up;Up;Up;Up;Up;Up;Down;11,779537;-0,219179147;-12,161435;1,59;42;Up;Up;Down
Down;Up;Up;Up;Down;Up;Up;Up;11,744538;-0,399698247;-12,219536;1,49;43;Up;Up;Down
Up;Up;Up;Up;Down;Down;Down;Up;11,91675;0,855065355;-12,254543;2,52;44;Up;Up;Down
Up;Up;Up;Up;Down;Down;Down;Up;12,962584;-0,168577872;-12,116749;1,09;45;Up;Down;Up
Down;Down;Down;Down;Down;Down;Down;Down;11,549504;0,732862191;-12,032583;1,965;46;Down;Down;Up
Up;Down;Up;Up;Down;Down;Down;Down;12,863119;-0,393469491;-12,079505;1,93;47;Up;Down;Down
Up;Up;Up;Up;Down;Down;Down;Up;12,218962;-0,023729815;-12,063119;1,09;48;Up;Up;Up
Down;Up;Up;Up;Up;Up;Down;Down;12,578014;-0,3862517;-12,048969;1,94;49;Up;Up;Up
Up;Up;Up;Up;Down;Up;Down;Up;12,60639;0,623537492;-12,07802;2,8;50;Up;Up;Down
Up;Down;Down;Down;Down;Down;Down;Down;13,155542;-0,02538787;-11,986397;1,2;51;Down;Up;Up
Down;Down;Down;Down;Down;Down;Down;Down;11,544387;0,100063115;-11,96554;1,7;52;Down;Down;Up
Down;Down;Down;Down;Down;Down;Down;Down;12,218651;-0,297129443;-12,02439;1,14;53;Down;Down;Down
Down;Up;Up;Down;Down;Down;Down;Down;12,797725;0,127362521;-12,058648;2,86;54;Down;Down;Down
Prev;Up;Up;Up;Down;Down;Down;Down;12,227733;-0,036055761;-12,227729;1,25;55;Up;Down;Down
Up;Up;Down;Up;Down;Down;Down;Up;11,435698;0,536685496;-12,227729;2,8;56;Up;Down;None
Up;Down;Up;Down;Down;Down;Down;Up;12,140884;-0,040998165;-12,125692;1;57;Down;Down;Up
Down;Up;Up;Down;Down;Down;Down;Down;11,14367;-0,044194206;-12,060884;1,24;58;Down;Down;Up
Down;Up;Up;Up;Down;Down;Down;Down;12,387818;-0,287160663;-12,163671;1,3;59;Up;Down;Down
Up;Up;Up;Up;Down;Down;Down;Up;11,902042;0,418736408;-12,177821;2,86;60;Up;Down;Down
Up;Down;Down;Down;Down;Down;Down;Up;11,98661;-0,14082014;-12,072048;1,3569;61;Up;Down;Up
Up;Down;Down;Down;Down;Down;Down;Up;12,531498;-0,009038419;-12,026612;1,48;0;Down;Down;Up
Down;Down;Down;Down;Down;Down;Down;Down;13,618562;-0,033483247;-13,071499;1,98;1;Down;Down;Up
Down;Down;Down;Down;Down;Down;Down;Down;13,256678;-0,094129943;-13,138557;2,12;2;Down;Down;Down
Down;Down;Up;Up;Down;Down;Down;Up;13,129919;-0,194190443;-13,276682;1,165;3;Up;Down;Down
Up;Up;Up;Up;Down;Down;Down;Down;14,405865;0,493326489;-13,279919;1,9735;4;Up;Down;Down
Up;Up;Up;Up;Down;Down;Down;Up;13,243976;-0,17793767;-13,275869;1,6;5;Up;Down;Up
Down;Up;Up;Up;Down;Down;Down;Down;13,945287;-0,399731486;-13,203976;1,855;6;Up;Down;Up
Up;Up;Up;Up;Down;Down;Down;Up;13,205549;0,582509872;-13,215285;1,8;7;Up;Down;Down
Down;Down;Up;Up;Down;Down;Down;Down;13,012507;-0,249996242;-13,075549;1,1;8;Up;Down;Up
Down;Down;Down;Down;Down;Down;Down;Down;13,000595;-0,124654578;-13,092507;0,99;9;Down;Down;Down
Up;Down;Down;Down;Down;Down;Down;Up;13,399084;-0,314430572;-13,100593;1,29;10;Down;Down;Down
Down;Down;Down;Down;Down;Down;Down;Down;12,365411;-0,47088755;-13,069089;4,31;11;Down;Down;Up
Down;Down;Down;Down;Down;Down;Down;Down;10,959559;-0,105340252;-13,185407;5;12;Down;Down;Down
Down;Down;Down;Down;Down;Down;Down;Up;-0,494351;4,382855961;-13,659565;3,641;13;Down;Down;Down
Up;Down;Down;Down;Down;Down;Down;Up;15,927135;-0,220198616;-14,705643;2,62;14;Down;Down;Down
Down;Down;Down;Down;Down;Down;Down;Up;12,731416;-0,191014821;-14,52713;2,79;15;Down;Down;Up
Down;Down;Down;Down;Down;Down;Down;Down;13,507012;0,757026015;-14,681413;5,0412;16;Down;Down;Down
Up;Down;Down;Down;Down;Down;Down;Down;16,194385;0,091194706;-14,847005;2,13;17;Down;Down;Down
Down;Down;Down;Down;Down;Down;Down;Down;14,579077;-0,293406939;-14,824386;3,23;18;Down;Down;Up
Down;Down;Down;Up;Down;Down;Down;Up;14,498649;0,938828369;-15,019072;2,64;19;Up;Down;Down
Down;Down;Down;Down;Down;Down;Down;Down;15,056128;-0,120410078;-15,058648;3,41;20;Down;Down;Down
Up;Up;Down;Up;Down;Down;Down;Up;15,261289;-0,002172968;-15,296133;3,99;21;Up;Down;Down
Down;Up;Down;Down;Down;Down;Down;Down;14,000295;0,424767802;-15,001288;2,58;22;Down;Down;Up
Up;Up;Up;Up;Down;Down;Down;Down;16,260401;-0,316457757;-15,270291;2,18;23;Up;Down;Down
Up;Down;Down;Down;Down;Down;Down;Up;16,298225;0,34531996;-15,240399;1,81;24;Down;Down;Up
Down;Down;Down;Down;Down;Down;Down;Down;15,609236;-0,386790933;-15,098224;1,54;25;Down;Down;Up
Down;Up;Down;Down;Down;Down;Down;Down;15,414102;0,269590125;-15,119232;3,61;26;Down;Down;Down
Up;Down;Up;Up;Down;Down;Down;Up;15,318751;0,255232633;-15,334098;1,7;27;Up;Down;Down
Down;Down;Down;Down;Down;Down;Down;Up;13,802676;-0,063194194;-15,318752;1,84;28;Down;Down;Up
Up;Down;Down;Down;Down;Down;Down;Up;15,18786;-0,399262899;-15,352681;1,72;29;Down;Down;Down
Down;Down;Down;Down;Up;Down;Down;Down;15,274434;0,346720301;-15,267867;3,53;30;Down;Down;Up
Up;Down;Down;Down;Down;Up;Down;Up;14,858697;-0,066388031;-15,534431;2,57;31;Down;Up;Down
Down;Down;Down;Down;Up;Up;Up;Down;15,239051;-0,004882459;-15,478697;1,55;32;Down;Up;Up
Down;Up;Up;Up;Up;Up;Up;Down;15,390945;-0,625169453;-15,599051;1,51;33;Up;Up;Down
Up;Up;Up;Up;Up;Up;Up;Down;16,440743;1,987210205;-15,670944;1,81;34;Up;Up;Down
Up;Up;Up;Up;Up;Up;Up;Up;15,564001;-0,077083593;-15,65075;1,42;35;Up;Up;Up
Down;Up;Up;Up;Up;Up;Up;Down;15,84693;0,253484287;-15,574008;1,34;36;Up;Up;Up
Up;Up;Up;Up;Up;Up;Up;Up;14,934042;0,042786191;-15,586929;2,75;37;Up;Up;Down
Up;Up;Up;Up;Up;Up;Up;Up;15,591227;-0,153257497;-15,494042;1,91;38;Up;Up;Up
Down;Up;Up;Up;Up;Up;Up;Down;15,23677;0,262127474;-15,451229;1,03;39;Up;Up;Up
Up;Up;Up;Up;Up;Up;Up;Up;15,012238;-0,16841534;-15,486769;2,66;40;Up;Up;Down
Up;Up;Up;Up;Up;Up;Up;Up;15,477014;0,149941754;-15,472236;2,05;41;Up;Up;Up
Down;Down;Down;Down;Up;Up;Up;Down;15,559137;-0,047777514;-15,347019;0,96;42;Down;Up;Up
Down;Down;Down;Down;Up;Up;Up;Down;14,994768;0,116803823;-15,359141;1,69;43;Down;Up;Down
Up;Down;Down;Down;Up;Up;Up;Up;15,252767;-0,211099476;-15,444768;1,66;44;Down;Up;Down
Down;Down;Down;Down;Up;Up;Up;Down;15,245354;0,571757735;-15,402768;2,63;45;Down;Up;Up
Up;Up;Up;Down;Up;Up;Up;Down;16,303847;-0,319774602;-15,505352;1,09;46;Down;Up;Down
Down;Down;Down;Down;Up;Up;Up;Down;15,913612;-0,078950986;-15,473848;2,04;47;Down;Up;Up
Up;Down;Up;Down;Down;Down;Down;Up;15,789387;0,934956105;-15,533619;1,61;48;Down;Down;Down
Down;Up;Down;Up;Down;Down;Down;Up;14,749583;-0,313487353;-15,509388;1,6386;49;Up;Down;Up
Down;Up;Up;Up;Down;Down;Down;Down;15,629352;-0,310260125;-15,529582;2,573;50;Up;Down;Down
Up;Up;Up;Up;Down;Down;Down;Up;15,301535;0,8423068;-15,589353;2,51;51;Up;Down;Down
Up;Up;Up;Up;Down;Down;Down;Down;16,360946;-0,11168376;-15,441531;1,1;52;Up;Down;Up
Down;Up;Up;Up;Down;Down;Down;Down;14,987197;-0,222791909;-15,380947;1,59;53;Up;Down;Up
Up;Up;Up;Up;Down;Down;Down;Up;16,155898;0,146445628;-15,447193;1,57;54;Up;Down;Down
Up;Up;Up;Up;Down;Down;Down;Up;15,143481;0,067398657;-15,355904;1,14;55;Up;Up;Up
Up;Up;Up;Up;Down;Down;Up;Up;15,976126;-0,157087964;-15,35348;0,89;56;Up;Down;Up
Up;Up;Up;Up;Down;Down;Down;Up;15,856195;-0,140152053;-15,296133;2,05;57;Up;Down;Up
Down;Up;Down;Up;Down;Down;Down;Down;15,146584;0,458823529;-15,136189;2,09;58;Up;Down;Up
Down;Down;Up;Up;Down;Down;Down;Up;14,802247;0,074930362;-15,176578;1,24;59;Up;Up;Down
Up;Up;Up;Up;Down;Down;Down;Down;15,792966;-0,034219305;-15,18224;1,11;60;Up;Down;Down
Down;Up;Up;Up;Down;Down;Down;Down;15,123459;-0,26456157;-15,132966;1,88;61;Up;Up;Up
Up;Up;Up;Up;Up;Up;Down;Down;16,255603;-0,09142549;-15,143462;2,08;62;Up;Up;Down
Up;Down;Down;Down;Down;Down;Down;Up;14,987388;0,026914273;-15,075605;3,09;63;Up;Down;Up
Down;Down;Down;Down;Down;Down;Down;Down;15,692294;-0,295918898;-14,887394;3,1;64;Down;Down;Up
Down;Down;Down;Down;Down;Down;Down;Up;14,384714;0,162973488;-15,022295;2,44;0;Down;Down;Down
Down;Down;Down;Down;Up;Up;Down;Down;15,453623;0,555999812;-16,124713;2,756;1;Down;Down;Down
Up;Down;Down;Down;Up;Up;Up;Up;16,501404;-0,589681728;-16,343623;1,35;2;Down;Up;Down
Down;Down;Down;Down;Up;Up;Up;Down;15,348574;0,231396316;-16,301398;2,64;3;Down;Up;Up
Down;Down;Down;Down;Up;Up;Up;Down;15,559373;0,066864445;-16,518574;2,75;4;Down;Up;Down
Down;Up;Down;Down;Up;Up;Up;Down;17,398491;0,208235042;-16,719377;3,09;5;Down;Up;Down
Down;Up;Up;Down;Up;Up;Up;Down;16,392786;0,006692573;-16,768494;1,35;6;Down;Up;Down
Up;Up;Up;Up;Up;Up;Up;Up;16,653859;-0,039687241;-16,872783;2,75;7;Up;Up;Down
Down;Up;Up;Up;Up;Up;Up;Down;16,886241;-0,065408143;-16,753856;2,1099;8;Up;Up;Up
Up;Up;Up;Up;Up;Up;Up;Up;17,007482;0,007951565;-16,826238;1,87;9;Up;Up;Down
Down;Up;Up;Up;Up;Up;Up;Down;16,747138;-0,261446528;-16,687485;1,33;10;Up;Up;Up
Up;Down;Down;Up;Up;Up;Up;Up;17,187893;0,16815906;-16,727137;3,16;11;Up;Up;Down
Down;Down;Down;Down;Up;Up;Up;Down;15,390107;-0,491281348;-16,447897;2,45;12;Down;Up;Up
Up;Up;Up;Up;Up;Up;Up;Up;16,059244;-0,079562233;-16,590104;3,44;12;Up;Up;Down
Up;Up;Up;Up;Up;Up;Up;Up;16,578038;0,135639864;-16,589237;3,95;14;Up;Up;Up
Up;Up;Up;Up;Up;Up;Up;Up;19,994512;0,605977758;-16,578037;2,6;15;Up;Up;Up
Down;Up;Up;Up;Up;Up;Up;Down;16,042575;0,080780254;-16,244507;1,87;16;Up;Up;Up
Up;Up;Up;Up;Up;Up;Up;Up;16,752286;0,873506764;-16,362582;1,91;17;Up;Up;Down
Up;Up;Up;Up;Up;Up;Up;Up;16,206427;-0,243973818;-16,202283;1,645;18;Up;Up;Up
Down;Down;Down;Down;Up;Up;Up;Up;14,258483;-0,039823544;-16,176431;1,84;19;Down;Up;Up
Up;Up;Down;Down;Up;Up;Up;Up;16,595053;0,055660107;-16,238481;2,01;20;Down;Up;Down
Down;Down;Up;Down;Up;Up;Up;Down;15,81573;0,059620779;-16,13506;1,71;21;Down;Up;Up
Down;Up;Up;Up;Up;Up;Up;Up;15,327962;0,221392008;-16,205736;0,83;22;Up;Up;Down
Up;Up;Up;Up;Up;Up;Up;Up;16,235894;-0,524366778;-16,247961;1,456;23;Up;Up;Down
Up;Up;Up;Up;Up;Up;Up;Up;16,050072;-0,233339856;-16,235895;2,82;24;Up;Up;Up
Up;Up;Up;Up;Down;Up;Down;Up;16,052269;0,572778067;-16,060076;5,57;25;Up;Up;Up
Down;Up;Up;Up;Down;Down;Down;Down;15,280192;-0,076865916;-15,622272;1,67;26;Up;Down;Up
Up;Down;Down;Up;Down;Down;Down;Up;14,94472;0,4041737;-15,66019;2,8;27;Up;Down;Down
Down;Down;Down;Down;Down;Down;Down;Down;15,724869;0,17941943;-15,544716;2,1;28;Down;Down;Up
Down;Down;Down;Down;Down;Down;Down;Up;14,95866;-0,287092945;-15,574874;0,91;29;Down;Down;Down
Down;Down;Down;Down;Down;Down;Down;Down;15,057255;0,199183092;-15,58866;2,35;30;Down;Down;Down
Up;Down;Down;Down;Down;Down;Down;Up;16,016402;-0,697598907;-15,697255;1,25;31;Down;Down;Down
Down;Down;Down;Down;Down;Down;Down;Down;15,525848;2,009433697;-15,646404;1,27;32;Down;Down;Up
Down;Up;Up;Up;Down;Down;Down;Down;16,34307;-0,096825881;-15,755852;2,114;33;Up;Down;Down
Up;Up;Up;Up;Down;Down;Down;Up;15,487594;0,597708156;-15,823075;1,82;34;Up;Down;Down
Down;Up;Up;Up;Down;Down;Down;Up;15,265341;-0,3079973;-15,707601;1,25;35;Up;Down;Up
Down;Down;Down;Up;Down;Down;Down;Down;15,573447;0,282160369;-15,715347;1,475;36;Up;Down;Down
Up;Down;Down;Down;Down;Down;Down;Up;16,397965;-0,373240232;-15,733453;1,48;37;Down;Down;Down
Down;Down;Down;Down;Down;Down;Down;Down;15,93673;0,089519167;-15,617965;1,64;38;Down;Down;Up
Down;Down;Down;Down;Down;Down;Down;Down;15,202554;-0,022431346;-15,706734;2,19;39;Down;Down;Down
Down;Up;Down;Down;Down;Down;Down;Down;16,028874;0,522833895;-15,882553;2,3999;40;Down;Down;Down
Down;Up;Up;Up;Down;Down;Down;Down;15,911811;-0,172384506;-16,048877;1,68;41;Up;Down;Down
Up;Up;Up;Up;Down;Down;Down;Down;16,518199;0,155844611;-16,06181;1,75;42;Up;Down;Down
Up;Down;Down;Up;Down;Down;Down;Up;16,051516;0,200016829;-16,028198;2,17;43;Up;Down;Up
Up;Up;Up;Up;Down;Down;Down;Down;16,229452;-0,055738747;-15,901512;1,25;44;Up;Down;Up
Down;Up;Up;Up;Down;Down;Down;Down;15,863202;-0,213529136;-15,889445;1,64;45;Up;Down;Up
Up;Up;Up;Up;Down;Down;Down;Up;16,288574;-0,307326047;-16,003199;1,6101;46;Up;Down;Down
Up;Down;Down;Down;Down;Down;Down;Up;15,45688;0,674154861;-15,888579;2,08;47;Down;Down;Up
Up;Down;Down;Down;Down;Down;Down;Up;16,338263;-0,258410361;-15,836875;1,45;48;Down;Down;Up
Down;Down;Down;Down;Down;Down;Down;Down;15,624773;-0,223663899;-15,778264;1,94;49;Down;Down;Up
Down;Down;Down;Down;Down;Down;Down;Down;14,884748;0,870459245;-15,924777;1,72;50;Down;Down;Down
Up;Down;Up;Up;Down;Down;Down;Up;16,162343;0,155500451;-16,024745;0,8299;51;Up;Down;Down
Down;Down;Down;Down;Down;Down;Down;Down;16,123527;-0,257697456;-16,002347;1,42;52;Down;Down;Up
Up;Down;Down;Down;Down;Down;Down;Up;16,894262;-0,012720965;-16,06353;2,21;53;Down;Down;Down
Down;Down;Down;Down;Down;Down;Down;Down;15,366101;-0,074662916;-15,934256;2;54;Down;Down;Up
Down;Down;Down;Down;Down;Down;Down;Up;15,671275;-0,171869857;-16,116101;1,09;55;Down;Down;Down
Up;Down;Down;Down;Down;Down;Down;Up;15,87956;-0,060135167;-16,121274;1,48;56;Down;Down;Down
Down;Down;Down;Down;Down;Down;Down;Down;16,61434;-0,199809578;-16,069556;2,9;57;Down;Down;Up
Down;Up;Down;Down;Down;Down;Down;Down;16,283389;1,358528698;-16,264333;3,82;58;Down;Down;Down
Down;Up;Up;Up;Down;Down;Down;Down;16,816123;-0,410546937;-16,563385;1,27;59;Up;Down;Down
Up;Up;Up;Up;Down;Down;Down;Up;17,421536;0,670233463;-16,59613;2,08;60;Up;Down;Down
Up;Down;Down;Up;Down;Down;Down;Up;16,350702;-0,07002755;-16,381541;2,2154;61;Up;Down;Up
Down;Down;Down;Down;Down;Down;Down;Down;16,174321;-0,363543575;-16,280706;2,34;62;Down;Down;Up
Up;Down;Down;Down;Down;Down;Down;Down;16,692427;0,198293976;-16,314317;3,37;0;Down;Down;Down
Down;Down;Down;Down;Down;Down;Down;Down;17,164938;0,434993925;-17,382431;1,7;1;Down;Down;Up
Down;Down;Down;Down;Down;Down;Down;Up;17,121406;-0,271418735;-17,494945;1,69;2;Down;Down;Down
Down;Down;Down;Down;Down;Down;Down;Down;17,922583;-0,169869352;-17,511403;2,59;3;Down;Down;Down
Down;Up;Up;Up;Up;Up;Up;Down;17,811507;-0,126652087;-17,702583;3,59;4;Up;Up;Down
Up;Up;Up;Up;Up;Up;Up;Up;17,117112;-0,090677215;-17,971509;2,51;5;Up;Up;Down
Up;Up;Up;Up;Up;Up;Up;Up;18,116904;-0,179486725;-17,847107;2,53;6;Up;Up;Up
Up;Up;Up;Up;Down;Up;Up;Up;18,855836;0,456548695;-17,666908;3,41;7;Up;Up;Up
Down;Down;Down;Down;Down;Down;Down;Down;17,719801;-0,121644619;-17,345837;1,56;8;Down;Down;Up
Down;Down;Up;Down;Up;Down;Up;Down;18,027937;-0,069525378;-17,399808;2,19;9;Down;Up;Down
Down;Up;Up;Up;Up;Up;Up;Down;17,216349;0,221162275;-17,537936;2,3;10;Up;Up;Down
Down;Down;Down;Down;Up;Up;Up;Up;17,327318;-0,284351532;-17,576356;1,8;11;Down;Up;Down
Up;Down;Down;Down;Up;Up;Up;Up;17,170608;-0,518231759;-17,587323;3,065;12;Down;Up;Down
Down;Down;Down;Down;Up;Up;Up;Up;8,815112;0,319245248;-17,380605;3,69;13;Down;Up;Up
Down;Up;Up;Up;Up;Up;Up;Down;19,051818;0,593500645;-17,965112;3,71;14;Up;Up;Down
Down;Down;Down;Up;Up;Up;Up;Up;16,300415;-0,014693156;-18,021815;1,99;15;Up;Up;Down
Up;Up;Up;Up;Up;Up;Up;Up;18,904428;0,123288521;-18,090419;2,36;16;Up;Up;Down
Down;Up;Up;Up;Up;Up;Up;Up;17,259246;-0,42562872;-17,854423;2,73;17;Up;Up;Up
Down;Up;Up;Up;Up;Up;Up;Down;17,407058;0,536085108;-17,899253;3,55;18;Up;Up;Down
Up;Up;Up;Up;Up;Up;Up;Up;18,27064;0,069287805;-17,98706;3,4;19;Up;Up;Down
Down;Up;Up;Up;Up;Up;Up;Down;17,163134;-0,239670648;-17,680635;1,4777;20;Up;Up;Up
Up;Up;Down;Up;Up;Up;Up;Up;17,491588;0,106832625;-17,793135;3,739;21;Up;Up;Down
Down;Down;Down;Down;Up;Up;Up;Down;18,055738;0,488572755;-17,541587;2,69;22;Down;Up;Up
Down;Down;Up;Up;Up;Up;Up;Down;17,354406;-0,16916797;-17,625743;1,03;23;Up;Up;Down
Down;Up;Up;Up;Up;Up;Up;Down;17,531315;-0,087132237;-17,704409;2,01;24;Up;Up;Down
Up;Up;Up;Up;Up;Up;Up;Up;18,237441;-0,368172607;-17,79131;2,35;25;Up;Up;Down
Up;Down;Down;Down;Up;Up;Up;Up;18,61085;0,643558448;-17,607446;2,37;26;Down;Up;Up
Up;Down;Up;Down;Up;Up;Up;Up;17,474136;-0,232471889;-17,420851;3,51;27;Down;Up;Up
Down;Up;Up;Up;Up;Up;Up;Down;16,909351;-0,012259731;-17,364134;3,348;28;Up;Up;Up
Down;Up;Up;Up;Up;Up;Up;Down;17,780707;-0,372135219;-17,619347;3,67;29;Up;Up;Down
Up;Up;Up;Up;Up;Up;Up;Up;17,729605;0,901664198;-17,840711;6,695;30;Up;Up;Down
Up;Up;Up;Up;Up;Up;Up;Up;17,835078;-0,542209139;-17,21961;2,07;31;Up;Up;Up
Down;Up;Up;Down;Up;Up;Up;Down;17,7876;1,476039979;-17,075085;2,3;32;Down;Up;Up
Up;Up;Up;Up;Up;Up;Up;Up;16,655794;0,170841139;-17,1876;4,09;33;Up;Up;Down
Down;Up;Up;Up;Up;Up;Up;Down;15,877898;0,091535607;-16,895793;3,1999;34;Up;Up;Up
Up;Up;Up;Up;Up;Up;Up;Up;17,176425;-0,197808874;-17,087892;2,36;35;Up;Up;Down
Up;Down;Down;Down;Up;Up;Up;Up;17,117116;-0,100577382;-16,99642;3,69;36;Down;Up;Up
Down;Down;Down;Down;Up;Up;Up;Down;16,811711;0,11745909;-16,667112;2,08;37;Down;Up;Up
Down;Down;Down;Down;Up;Up;Up;Down;17,223924;0,016594248;-16,821712;3,29;38;Down;Up;Down
Down;Down;Down;Down;Up;Up;Up;Up;16,333316;0,142688261;-17,03392;1,56;39;Down;Up;Down
Up;Up;Down;Down;Up;Up;Up;Down;18,069476;-0,078781147;-17,083321;2,41;40;Down;Up;Down
Down;Up;Down;Down;Up;Up;Up;Down;17,03748;0,114964301;-17,049472;2,521;41;Down;Up;Up
Up;Up;Up;Up;Up;Up;Up;Down;17,873818;0,078720562;-17,167477;1,74;42;Up;Up;Down
Up;Up;Up;Up;Up;Up;Up;Up;17,348071;0,095288649;-17,163812;1,49;43;Up;Up;Up
Up;Up;Up;Up;Up;Up;Up;Up;17,18405;-0,263638284;-17,118076;1,55;44;Up;Up;Up
Up;Up;Up;Up;Up;Up;Up;Up;18,404639;0,198197514;-17,054043;1,48;45;Up;Up;Up
Down;Down;Down;Up;Up;Up;Up;Up;15,097879;-0,153773646;-16,854641;1,82;46;Up;Up;Up
Down;Up;Up;Up;Up;Up;Up;Down;17,057024;0,219473327;-16,937877;2,47;47;Up;Up;Down
Up;Up;Up;Up;Up;Up;Up;Up;16,606346;0,023284412;-16,947019;2,14;48;Up;Up;Down
Up;Down;Up;Up;Up;Up;Up;Up;17,470426;-0,041411475;-16,836344;1,72;49;Up;Up;Up
Down;Down;Up;Down;Up;Up;Up;Down;16,850551;-0,150806259;-16,760424;1,72;50;Down;Up;Up
Up;Down;Up;Up;Up;Up;Up;Up;16,750185;-0,193707999;-16,780547;2,34;51;Up;Up;Down
Down;Up;Up;Down;Up;Up;Up;Down;16,844641;0,147155912;-16,720178;3,09;52;Down;Down;Up
Up;Up;Up;Up;Down;Down;Down;Up;16,744818;0,06351279;-16,854641;2,0699;53;Up;Down;Down
Down;Up;Up;Up;Down;Down;Down;Up;16,306764;0,053278319;-16,734811;3,24;54;Up;Down;Up
Down;Up;Up;Up;Down;Down;Down;Up;16,292488;-0,048219919;-16,756759;1,68;55;Up;Down;Down
Up;Up;Up;Up;Down;Down;Down;Up;16,053272;0,039692102;-16,802495;3,44;56;Up;Down;Down
Up;Up;Up;Up;Down;Down;Down;Up;14,466915;0,12528245;-16,633277;4,5;57;Up;Down;Up
Up;Up;Up;Up;Down;Down;Down;Up;16,257531;-0,142943214;-16,486914;1,99;58;Up;Down;Up
Up;Up;Up;Up;Down;Down;Down;Up;15,873354;0,312648288;-16,437527;3,59;59;Up;Down;Up
Down;Up;Up;Up;Down;Down;Down;Up;15,933418;-0,245583754;-16,203356;1,4;60;Up;Down;Up
Up;Up;Up;Up;Down;Down;Down;Up;16,94742;0,093355389;-16,213417;2,49;61;Up;Down;Down
Up;Down;Up;Up;Down;Down;Down;Up;16,531181;-0,089149672;-15,977421;1,06;0;Up;Down;Up
Up;Down;Down;Down;Down;Down;Down;Up;16,016194;0,083337165;-16,80118;2,78;1;Down;Down;Up
Down;Down;Down;Down;Down;Down;Down;Down;17,301979;-0,394751489;-16,666192;1,39;2;Down;Down;Up
Down;Down;Down;Down;Down;Down;Down;Down;16,376474;0,383833327;-16,67198;3,3;3;Down;Down;Down
Down;Down;Down;Down;Down;Down;Down;Up;15,852033;0,069987844;-17,03647;2,495;4;Down;Down;Down
Up;Down;Down;Down;Down;Down;Down;Up;17,779468;-0,023577219;-17,102032;1,5;5;Down;Down;Down
Down;Down;Down;Down;Down;Down;Down;Up;16,182846;-0,067950425;-17,00947;2,64;6;Down;Down;Up
Down;Down;Down;Down;Down;Down;Down;Down;17,304111;0,023941174;-17,05285;2,29;7;Down;Down;Down
Down;Down;Down;Down;Down;Down;Down;Down;17,291884;-0,244100659;-17,154108;1,99;8;Down;Down;Down
Down;Down;Down;Down;Down;Down;Down;Down;16,139842;-0,011944536;-17,321883;3,1741;9;Down;Down;Down
Up;Down;Down;Down;Down;Down;Down;Up;16,753546;-0,494502069;-17,619842;3,01;10;Down;Down;Down
Down;Down;Down;Down;Down;Down;Down;Up;11,019469;0,245551312;-17,573553;3,83;11;Down;Down;Up
Down;Up;Up;Up;Up;Up;Up;Down;18,469529;0,448905109;-18,16947;3,6;12;Up;Up;Down
Up;Up;Up;Up;Up;Up;Up;Up;17,481282;0,602540721;-18,329533;2,95;13;Up;Up;Down
Up;Up;Up;Up;Up;Up;Up;Up;17,892924;-0,009592027;-18,201289;2,19;14;Up;Up;Up
Up;Up;Down;Up;Down;Up;Down;Up;17,827444;0,042713024;-18,102925;3,16;15;Up;Up;Up
Up;Down;Down;Down;Down;Down;Down;Up;18,657721;-0,201479766;-17,927437;2,5462;16;Down;Down;Up
Down;Down;Down;Down;Down;Down;Down;Down;17,056645;0,438121519;-17,757723;3,09;17;Down;Down;Up
Down;Down;Down;Down;Up;Up;Down;Down;18,99821;-0,069169;-18,05665;2,29;18;Down;Down;Down
Down;Up;Up;Up;Up;Up;Up;Down;19,17511;-0,061341964;-18,068212;2,95;19;Up;Down;Down
Down;Up;Up;Up;Up;Up;Up;Down;17,912884;-0,223960353;-18,125106;2,1575;20;Up;Up;Down
Up;Up;Up;Up;Down;Up;Up;Up;18,325148;0,458355868;-18,292882;3,97;21;Up;Up;Down
Down;Down;Down;Down;Up;Down;Down;Down;18,506856;0,001132113;-17,935149;2,055;22;Down;Down;Up
Up;Down;Down;Down;Down;Down;Down;Up;18,189832;-0,106301551;-17,996862;2,05;23;Down;Down;Down
Down;Down;Down;Down;Up;Down;Down;Down;17,726538;0,256043319;-17,88983;2,2;24;Down;Down;Up
